// Jest Snapshot v1, https://goo.gl/fbAQLP

exports[`<MainSlider /> should render correctly 1`] = `
ShallowWrapper {
  "length": 1,
  Symbol(enzyme.__root__): [Circular],
  Symbol(enzyme.__unrendered__): <Home
    addItem={[Function]}
    addProjectItem={[Function]}
    articles={Object {}}
    blogRequest={[Function]}
    handleNewsletterSubmit={[Function]}
    newsletterError={false}
    newsletterFetching={false}
    newsletterReset={[Function]}
    newsletterSuccess={true}
    productRequest={[Function]}
    productsItems={Object {}}
    productsKeys={Object {}}
    projectId=""
  />,
  Symbol(enzyme.__renderer__): Object {
    "batchedUpdates": [Function],
    "getNode": [Function],
    "render": [Function],
    "simulateEvent": [Function],
    "unmount": [Function],
  },
  Symbol(enzyme.__node__): Object {
    "instance": null,
    "key": undefined,
    "nodeType": "host",
    "props": Object {
      "children": Array [
        <HelmetWrapper
          defer={true}
          encodeSpecialCharacters={true}
          title="Homepage"
        />,
        <Connect(InjectIntl(HeaderComponent)) />,
        <section__Section>
          <row__Row
            extraStyles={
              Array [
                "width:100%;",
              ]
            }
          >
            <HeroSlider
              data={Object {}}
            />
          </row__Row>
          <InjectIntl(FindInspirationComponent) />
        </section__Section>,
        <Process />,
        <section__Section>
          <components__Dots
            height="1888"
            mobileHeight="1511"
            mobileTop="0"
            mobileWidth="64%"
            top="0"
            width="50%"
          />
          <Video />
          <Newsletter
            clearError={[Function]}
            isError={false}
            isFetching={false}
            isSuccess={true}
            onSubmit={[Function]}
          />
        </section__Section>,
        <InjectIntl(FooterComponent) />,
      ],
    },
    "ref": null,
    "rendered": Array [
      Object {
        "instance": null,
        "key": undefined,
        "nodeType": "class",
        "props": Object {
          "defer": true,
          "encodeSpecialCharacters": true,
          "title": "Homepage",
        },
        "ref": null,
        "rendered": null,
        "type": [Function],
      },
      Object {
        "instance": null,
        "key": undefined,
        "nodeType": "class",
        "props": Object {},
        "ref": null,
        "rendered": null,
        "type": [Function],
      },
      Object {
        "instance": null,
        "key": undefined,
        "nodeType": "class",
        "props": Object {
          "children": Array [
            <row__Row
              extraStyles={
                Array [
                  "width:100%;",
                ]
              }
            >
              <HeroSlider
                data={Object {}}
              />
            </row__Row>,
            <InjectIntl(FindInspirationComponent) />,
          ],
        },
        "ref": null,
        "rendered": Array [
          Object {
            "instance": null,
            "key": undefined,
            "nodeType": "class",
            "props": Object {
              "children": <HeroSlider
                data={Object {}}
              />,
              "extraStyles": Array [
                "width:100%;",
              ],
            },
            "ref": null,
            "rendered": Object {
              "instance": null,
              "key": undefined,
              "nodeType": "class",
              "props": Object {
                "data": Object {},
              },
              "ref": null,
              "rendered": null,
              "type": [Function],
            },
            "type": [Function],
          },
          Object {
            "instance": null,
            "key": undefined,
            "nodeType": "class",
            "props": Object {},
            "ref": null,
            "rendered": null,
            "type": [Function],
          },
        ],
        "type": [Function],
      },
      Object {
        "instance": null,
        "key": undefined,
        "nodeType": "class",
        "props": Object {},
        "ref": null,
        "rendered": null,
        "type": [Function],
      },
      Object {
        "instance": null,
        "key": undefined,
        "nodeType": "class",
        "props": Object {
          "children": Array [
            <components__Dots
              height="1888"
              mobileHeight="1511"
              mobileTop="0"
              mobileWidth="64%"
              top="0"
              width="50%"
            />,
            null,
            <Video />,
            <Newsletter
              clearError={[Function]}
              isError={false}
              isFetching={false}
              isSuccess={true}
              onSubmit={[Function]}
            />,
          ],
        },
        "ref": null,
        "rendered": Array [
          Object {
            "instance": null,
            "key": undefined,
            "nodeType": "class",
            "props": Object {
              "height": "1888",
              "mobileHeight": "1511",
              "mobileTop": "0",
              "mobileWidth": "64%",
              "top": "0",
              "width": "50%",
            },
            "ref": null,
            "rendered": null,
            "type": [Function],
          },
          null,
          Object {
            "instance": null,
            "key": undefined,
            "nodeType": "class",
            "props": Object {},
            "ref": null,
            "rendered": null,
            "type": [Function],
          },
          Object {
            "instance": null,
            "key": undefined,
            "nodeType": "class",
            "props": Object {
              "clearError": [Function],
              "isError": false,
              "isFetching": false,
              "isSuccess": true,
              "onSubmit": [Function],
            },
            "ref": null,
            "rendered": null,
            "type": [Function],
          },
        ],
        "type": [Function],
      },
      Object {
        "instance": null,
        "key": undefined,
        "nodeType": "class",
        "props": Object {},
        "ref": null,
        "rendered": null,
        "type": [Function],
      },
    ],
    "type": "div",
  },
  Symbol(enzyme.__nodes__): Array [
    Object {
      "instance": null,
      "key": undefined,
      "nodeType": "host",
      "props": Object {
        "children": Array [
          <HelmetWrapper
            defer={true}
            encodeSpecialCharacters={true}
            title="Homepage"
          />,
          <Connect(InjectIntl(HeaderComponent)) />,
          <section__Section>
            <row__Row
              extraStyles={
                Array [
                  "width:100%;",
                ]
              }
            >
              <HeroSlider
                data={Object {}}
              />
            </row__Row>
            <InjectIntl(FindInspirationComponent) />
          </section__Section>,
          <Process />,
          <section__Section>
            <components__Dots
              height="1888"
              mobileHeight="1511"
              mobileTop="0"
              mobileWidth="64%"
              top="0"
              width="50%"
            />
            <Video />
            <Newsletter
              clearError={[Function]}
              isError={false}
              isFetching={false}
              isSuccess={true}
              onSubmit={[Function]}
            />
          </section__Section>,
          <InjectIntl(FooterComponent) />,
        ],
      },
      "ref": null,
      "rendered": Array [
        Object {
          "instance": null,
          "key": undefined,
          "nodeType": "class",
          "props": Object {
            "defer": true,
            "encodeSpecialCharacters": true,
            "title": "Homepage",
          },
          "ref": null,
          "rendered": null,
          "type": [Function],
        },
        Object {
          "instance": null,
          "key": undefined,
          "nodeType": "class",
          "props": Object {},
          "ref": null,
          "rendered": null,
          "type": [Function],
        },
        Object {
          "instance": null,
          "key": undefined,
          "nodeType": "class",
          "props": Object {
            "children": Array [
              <row__Row
                extraStyles={
                  Array [
                    "width:100%;",
                  ]
                }
              >
                <HeroSlider
                  data={Object {}}
                />
              </row__Row>,
              <InjectIntl(FindInspirationComponent) />,
            ],
          },
          "ref": null,
          "rendered": Array [
            Object {
              "instance": null,
              "key": undefined,
              "nodeType": "class",
              "props": Object {
                "children": <HeroSlider
                  data={Object {}}
                />,
                "extraStyles": Array [
                  "width:100%;",
                ],
              },
              "ref": null,
              "rendered": Object {
                "instance": null,
                "key": undefined,
                "nodeType": "class",
                "props": Object {
                  "data": Object {},
                },
                "ref": null,
                "rendered": null,
                "type": [Function],
              },
              "type": [Function],
            },
            Object {
              "instance": null,
              "key": undefined,
              "nodeType": "class",
              "props": Object {},
              "ref": null,
              "rendered": null,
              "type": [Function],
            },
          ],
          "type": [Function],
        },
        Object {
          "instance": null,
          "key": undefined,
          "nodeType": "class",
          "props": Object {},
          "ref": null,
          "rendered": null,
          "type": [Function],
        },
        Object {
          "instance": null,
          "key": undefined,
          "nodeType": "class",
          "props": Object {
            "children": Array [
              <components__Dots
                height="1888"
                mobileHeight="1511"
                mobileTop="0"
                mobileWidth="64%"
                top="0"
                width="50%"
              />,
              null,
              <Video />,
              <Newsletter
                clearError={[Function]}
                isError={false}
                isFetching={false}
                isSuccess={true}
                onSubmit={[Function]}
              />,
            ],
          },
          "ref": null,
          "rendered": Array [
            Object {
              "instance": null,
              "key": undefined,
              "nodeType": "class",
              "props": Object {
                "height": "1888",
                "mobileHeight": "1511",
                "mobileTop": "0",
                "mobileWidth": "64%",
                "top": "0",
                "width": "50%",
              },
              "ref": null,
              "rendered": null,
              "type": [Function],
            },
            null,
            Object {
              "instance": null,
              "key": undefined,
              "nodeType": "class",
              "props": Object {},
              "ref": null,
              "rendered": null,
              "type": [Function],
            },
            Object {
              "instance": null,
              "key": undefined,
              "nodeType": "class",
              "props": Object {
                "clearError": [Function],
                "isError": false,
                "isFetching": false,
                "isSuccess": true,
                "onSubmit": [Function],
              },
              "ref": null,
              "rendered": null,
              "type": [Function],
            },
          ],
          "type": [Function],
        },
        Object {
          "instance": null,
          "key": undefined,
          "nodeType": "class",
          "props": Object {},
          "ref": null,
          "rendered": null,
          "type": [Function],
        },
      ],
      "type": "div",
    },
  ],
  Symbol(enzyme.__options__): Object {
    "adapter": ReactSixteenAdapter {
      "options": Object {
        "enableComponentDidUpdateOnSetState": true,
      },
    },
  },
}
`;
