// Jest Snapshot v1, https://goo.gl/fbAQLP

exports[`<CustomNewsletter /> should render correctly 1`] = `
ShallowWrapper {
  "length": 1,
  Symbol(enzyme.__root__): [Circular],
  Symbol(enzyme.__unrendered__): <CustomNewsletterComponent
    clearError={[Function]}
    customNewsletterError={false}
    customNewsletterFetching={false}
    customNewsletterRequest={[Function]}
    customNewsletterSuccess={false}
    intl={
      Object {
        "formatHTMLMessage": [Function],
        "formatMessage": [Function],
      }
    }
  />,
  Symbol(enzyme.__renderer__): Object {
    "batchedUpdates": [Function],
    "getNode": [Function],
    "render": [Function],
    "simulateEvent": [Function],
    "unmount": [Function],
  },
  Symbol(enzyme.__node__): Object {
    "instance": null,
    "key": undefined,
    "nodeType": "class",
    "props": Object {
      "children": <section__Section>
        <row__Row>
          <column__Column
            columns={10}
            offset={3}
          >
            <customNewsletterstyles__Title>
              custom.title / want to make it yours? / {}
            </customNewsletterstyles__Title>
            <customNewsletterstyles__Description>
              custom.description / Custom finish is available. Submit your details if you would like to find out more about 
    customising this product and we will be in touch. / {}
            </customNewsletterstyles__Description>
            <InjectIntl(ReduxForm)
              hasError={false}
              isFetching={false}
              isSuccess={false}
              onSubmit={[Function]}
            />
            <InjectIntl(TryAgainComponent)
              isActive={false}
            />
          </column__Column>
        </row__Row>
      </section__Section>,
    },
    "ref": null,
    "rendered": Object {
      "instance": null,
      "key": undefined,
      "nodeType": "class",
      "props": Object {
        "children": <row__Row>
          <column__Column
            columns={10}
            offset={3}
          >
            <customNewsletterstyles__Title>
              custom.title / want to make it yours? / {}
            </customNewsletterstyles__Title>
            <customNewsletterstyles__Description>
              custom.description / Custom finish is available. Submit your details if you would like to find out more about 
    customising this product and we will be in touch. / {}
            </customNewsletterstyles__Description>
            <InjectIntl(ReduxForm)
              hasError={false}
              isFetching={false}
              isSuccess={false}
              onSubmit={[Function]}
            />
            <InjectIntl(TryAgainComponent)
              isActive={false}
            />
          </column__Column>
        </row__Row>,
      },
      "ref": null,
      "rendered": Object {
        "instance": null,
        "key": undefined,
        "nodeType": "class",
        "props": Object {
          "children": <column__Column
            columns={10}
            offset={3}
          >
            <customNewsletterstyles__Title>
              custom.title / want to make it yours? / {}
            </customNewsletterstyles__Title>
            <customNewsletterstyles__Description>
              custom.description / Custom finish is available. Submit your details if you would like to find out more about 
    customising this product and we will be in touch. / {}
            </customNewsletterstyles__Description>
            <InjectIntl(ReduxForm)
              hasError={false}
              isFetching={false}
              isSuccess={false}
              onSubmit={[Function]}
            />
            <InjectIntl(TryAgainComponent)
              isActive={false}
            />
          </column__Column>,
        },
        "ref": null,
        "rendered": Object {
          "instance": null,
          "key": undefined,
          "nodeType": "class",
          "props": Object {
            "children": Array [
              <customNewsletterstyles__Title>
                custom.title / want to make it yours? / {}
              </customNewsletterstyles__Title>,
              <customNewsletterstyles__Description>
                custom.description / Custom finish is available. Submit your details if you would like to find out more about 
    customising this product and we will be in touch. / {}
              </customNewsletterstyles__Description>,
              <InjectIntl(ReduxForm)
                hasError={false}
                isFetching={false}
                isSuccess={false}
                onSubmit={[Function]}
              />,
              <InjectIntl(TryAgainComponent)
                isActive={false}
              />,
            ],
            "columns": 10,
            "offset": 3,
          },
          "ref": null,
          "rendered": Array [
            Object {
              "instance": null,
              "key": undefined,
              "nodeType": "class",
              "props": Object {
                "children": "custom.title / want to make it yours? / {}",
              },
              "ref": null,
              "rendered": "custom.title / want to make it yours? / {}",
              "type": [Function],
            },
            Object {
              "instance": null,
              "key": undefined,
              "nodeType": "class",
              "props": Object {
                "children": "custom.description / Custom finish is available. Submit your details if you would like to find out more about 
    customising this product and we will be in touch. / {}",
              },
              "ref": null,
              "rendered": "custom.description / Custom finish is available. Submit your details if you would like to find out more about 
    customising this product and we will be in touch. / {}",
              "type": [Function],
            },
            Object {
              "instance": null,
              "key": undefined,
              "nodeType": "class",
              "props": Object {
                "hasError": false,
                "isFetching": false,
                "isSuccess": false,
                "onSubmit": [Function],
              },
              "ref": null,
              "rendered": null,
              "type": [Function],
            },
            Object {
              "instance": null,
              "key": undefined,
              "nodeType": "class",
              "props": Object {
                "isActive": false,
              },
              "ref": null,
              "rendered": null,
              "type": [Function],
            },
          ],
          "type": [Function],
        },
        "type": [Function],
      },
      "type": [Function],
    },
    "type": [Function],
  },
  Symbol(enzyme.__nodes__): Array [
    Object {
      "instance": null,
      "key": undefined,
      "nodeType": "class",
      "props": Object {
        "children": <section__Section>
          <row__Row>
            <column__Column
              columns={10}
              offset={3}
            >
              <customNewsletterstyles__Title>
                custom.title / want to make it yours? / {}
              </customNewsletterstyles__Title>
              <customNewsletterstyles__Description>
                custom.description / Custom finish is available. Submit your details if you would like to find out more about 
    customising this product and we will be in touch. / {}
              </customNewsletterstyles__Description>
              <InjectIntl(ReduxForm)
                hasError={false}
                isFetching={false}
                isSuccess={false}
                onSubmit={[Function]}
              />
              <InjectIntl(TryAgainComponent)
                isActive={false}
              />
            </column__Column>
          </row__Row>
        </section__Section>,
      },
      "ref": null,
      "rendered": Object {
        "instance": null,
        "key": undefined,
        "nodeType": "class",
        "props": Object {
          "children": <row__Row>
            <column__Column
              columns={10}
              offset={3}
            >
              <customNewsletterstyles__Title>
                custom.title / want to make it yours? / {}
              </customNewsletterstyles__Title>
              <customNewsletterstyles__Description>
                custom.description / Custom finish is available. Submit your details if you would like to find out more about 
    customising this product and we will be in touch. / {}
              </customNewsletterstyles__Description>
              <InjectIntl(ReduxForm)
                hasError={false}
                isFetching={false}
                isSuccess={false}
                onSubmit={[Function]}
              />
              <InjectIntl(TryAgainComponent)
                isActive={false}
              />
            </column__Column>
          </row__Row>,
        },
        "ref": null,
        "rendered": Object {
          "instance": null,
          "key": undefined,
          "nodeType": "class",
          "props": Object {
            "children": <column__Column
              columns={10}
              offset={3}
            >
              <customNewsletterstyles__Title>
                custom.title / want to make it yours? / {}
              </customNewsletterstyles__Title>
              <customNewsletterstyles__Description>
                custom.description / Custom finish is available. Submit your details if you would like to find out more about 
    customising this product and we will be in touch. / {}
              </customNewsletterstyles__Description>
              <InjectIntl(ReduxForm)
                hasError={false}
                isFetching={false}
                isSuccess={false}
                onSubmit={[Function]}
              />
              <InjectIntl(TryAgainComponent)
                isActive={false}
              />
            </column__Column>,
          },
          "ref": null,
          "rendered": Object {
            "instance": null,
            "key": undefined,
            "nodeType": "class",
            "props": Object {
              "children": Array [
                <customNewsletterstyles__Title>
                  custom.title / want to make it yours? / {}
                </customNewsletterstyles__Title>,
                <customNewsletterstyles__Description>
                  custom.description / Custom finish is available. Submit your details if you would like to find out more about 
    customising this product and we will be in touch. / {}
                </customNewsletterstyles__Description>,
                <InjectIntl(ReduxForm)
                  hasError={false}
                  isFetching={false}
                  isSuccess={false}
                  onSubmit={[Function]}
                />,
                <InjectIntl(TryAgainComponent)
                  isActive={false}
                />,
              ],
              "columns": 10,
              "offset": 3,
            },
            "ref": null,
            "rendered": Array [
              Object {
                "instance": null,
                "key": undefined,
                "nodeType": "class",
                "props": Object {
                  "children": "custom.title / want to make it yours? / {}",
                },
                "ref": null,
                "rendered": "custom.title / want to make it yours? / {}",
                "type": [Function],
              },
              Object {
                "instance": null,
                "key": undefined,
                "nodeType": "class",
                "props": Object {
                  "children": "custom.description / Custom finish is available. Submit your details if you would like to find out more about 
    customising this product and we will be in touch. / {}",
                },
                "ref": null,
                "rendered": "custom.description / Custom finish is available. Submit your details if you would like to find out more about 
    customising this product and we will be in touch. / {}",
                "type": [Function],
              },
              Object {
                "instance": null,
                "key": undefined,
                "nodeType": "class",
                "props": Object {
                  "hasError": false,
                  "isFetching": false,
                  "isSuccess": false,
                  "onSubmit": [Function],
                },
                "ref": null,
                "rendered": null,
                "type": [Function],
              },
              Object {
                "instance": null,
                "key": undefined,
                "nodeType": "class",
                "props": Object {
                  "isActive": false,
                },
                "ref": null,
                "rendered": null,
                "type": [Function],
              },
            ],
            "type": [Function],
          },
          "type": [Function],
        },
        "type": [Function],
      },
      "type": [Function],
    },
  ],
  Symbol(enzyme.__options__): Object {
    "adapter": ReactSixteenAdapter {
      "options": Object {
        "enableComponentDidUpdateOnSetState": true,
      },
    },
  },
}
`;
