// Jest Snapshot v1, https://goo.gl/fbAQLP

exports[`<Step1 /> should render correctly 1`] = `
ShallowWrapper {
  "length": 1,
  Symbol(enzyme.__root__): [Circular],
  Symbol(enzyme.__unrendered__): <Step1Component
    articleImage="test.jpg"
    blogRequest={[Function]}
    changeStyle={[Function]}
    collectionRequest={[Function]}
    collections={
      Immutable.List [
        Immutable.Map {
          "title": "title",
          "id": "id",
          "image": Immutable.Map {
            "originalSrc": "test.jpg",
          },
        },
      ]
    }
    history={Object {}}
    intl={
      Object {
        "formatHTMLMessage": [Function],
        "formatMessage": [Function],
      }
    }
    isLoggedIn={false}
    selectedStyle=""
  />,
  Symbol(enzyme.__renderer__): Object {
    "batchedUpdates": [Function],
    "getNode": [Function],
    "render": [Function],
    "simulateEvent": [Function],
    "unmount": [Function],
  },
  Symbol(enzyme.__node__): Object {
    "instance": null,
    "key": undefined,
    "nodeType": "class",
    "props": Object {
      "children": Array [
        <StaticHeroImage
          heroImage="test.jpg"
          shouldShowStatus={true}
          showBackIcon={false}
          status="1/3"
          subtitle="step1.heroSubtitle / Inspiration / {}"
          title="step1.heroTitle / Pick Your Style / {}"
        />,
        <section__Section
          extraStyles={
            Array [
              "margin-top:35px;padding-bottom:150px;",
            ]
          }
        >
          <MasonryGrid
            columns={2}
            containsElementsWithoutImages={true}
            ignoreFirstItem={true}
            isShifted={true}
            nrOfNonImageElements={0}
            scroll={false}
          >
            <step1styles__ContentBoxText>
              <FormattedMessage
                defaultMessage="Getting inspired is the first step to creating an amazing workspace. Explore our styles, tell us what inspires you and start building your project."
                id="step1.contentText"
                values={Object {}}
              />
            </step1styles__ContentBoxText>
            Immutable.Seq […]
          </MasonryGrid>
        </section__Section>,
        <StickyButton
          action={[Function]}
          copy="step1.next / Next step / {}"
          disabled={true}
          loading={false}
        />,
      ],
    },
    "ref": null,
    "rendered": Array [
      Object {
        "instance": null,
        "key": undefined,
        "nodeType": "class",
        "props": Object {
          "heroImage": "test.jpg",
          "shouldShowStatus": true,
          "showBackIcon": false,
          "status": "1/3",
          "subtitle": "step1.heroSubtitle / Inspiration / {}",
          "title": "step1.heroTitle / Pick Your Style / {}",
        },
        "ref": null,
        "rendered": null,
        "type": [Function],
      },
      Object {
        "instance": null,
        "key": undefined,
        "nodeType": "class",
        "props": Object {
          "children": <MasonryGrid
            columns={2}
            containsElementsWithoutImages={true}
            ignoreFirstItem={true}
            isShifted={true}
            nrOfNonImageElements={0}
            scroll={false}
          >
            <step1styles__ContentBoxText>
              <FormattedMessage
                defaultMessage="Getting inspired is the first step to creating an amazing workspace. Explore our styles, tell us what inspires you and start building your project."
                id="step1.contentText"
                values={Object {}}
              />
            </step1styles__ContentBoxText>
            Immutable.Seq […]
          </MasonryGrid>,
          "extraStyles": Array [
            "margin-top:35px;padding-bottom:150px;",
          ],
        },
        "ref": null,
        "rendered": Object {
          "instance": null,
          "key": undefined,
          "nodeType": "class",
          "props": Object {
            "children": Array [
              <step1styles__ContentBoxText>
                <FormattedMessage
                  defaultMessage="Getting inspired is the first step to creating an amazing workspace. Explore our styles, tell us what inspires you and start building your project."
                  id="step1.contentText"
                  values={Object {}}
                />
              </step1styles__ContentBoxText>,
              Immutable.Seq […],
            ],
            "columns": 2,
            "containsElementsWithoutImages": true,
            "ignoreFirstItem": true,
            "isShifted": true,
            "nrOfNonImageElements": 0,
            "scroll": false,
          },
          "ref": null,
          "rendered": Array [
            Object {
              "instance": null,
              "key": undefined,
              "nodeType": "class",
              "props": Object {
                "children": <FormattedMessage
                  defaultMessage="Getting inspired is the first step to creating an amazing workspace. Explore our styles, tell us what inspires you and start building your project."
                  id="step1.contentText"
                  values={Object {}}
                />,
              },
              "ref": null,
              "rendered": Object {
                "instance": null,
                "key": undefined,
                "nodeType": "class",
                "props": Object {
                  "defaultMessage": "Getting inspired is the first step to creating an amazing workspace. Explore our styles, tell us what inspires you and start building your project.",
                  "id": "step1.contentText",
                  "values": Object {},
                },
                "ref": null,
                "rendered": null,
                "type": [Function],
              },
              "type": [Function],
            },
            Object {
              "instance": null,
              "key": "id",
              "nodeType": "class",
              "props": Object {
                "active": "",
                "arrayLength": 1,
                "backgroundImage": "test.jpg",
                "id": "id",
                "index": 0,
                "onSelect": [Function],
                "title": "title",
              },
              "ref": null,
              "rendered": null,
              "type": [Function],
            },
          ],
          "type": [Function],
        },
        "type": [Function],
      },
      Object {
        "instance": null,
        "key": undefined,
        "nodeType": "class",
        "props": Object {
          "action": [Function],
          "copy": "step1.next / Next step / {}",
          "disabled": true,
          "loading": false,
        },
        "ref": null,
        "rendered": null,
        "type": [Function],
      },
    ],
    "type": [Function],
  },
  Symbol(enzyme.__nodes__): Array [
    Object {
      "instance": null,
      "key": undefined,
      "nodeType": "class",
      "props": Object {
        "children": Array [
          <StaticHeroImage
            heroImage="test.jpg"
            shouldShowStatus={true}
            showBackIcon={false}
            status="1/3"
            subtitle="step1.heroSubtitle / Inspiration / {}"
            title="step1.heroTitle / Pick Your Style / {}"
          />,
          <section__Section
            extraStyles={
              Array [
                "margin-top:35px;padding-bottom:150px;",
              ]
            }
          >
            <MasonryGrid
              columns={2}
              containsElementsWithoutImages={true}
              ignoreFirstItem={true}
              isShifted={true}
              nrOfNonImageElements={0}
              scroll={false}
            >
              <step1styles__ContentBoxText>
                <FormattedMessage
                  defaultMessage="Getting inspired is the first step to creating an amazing workspace. Explore our styles, tell us what inspires you and start building your project."
                  id="step1.contentText"
                  values={Object {}}
                />
              </step1styles__ContentBoxText>
              Immutable.Seq […]
            </MasonryGrid>
          </section__Section>,
          <StickyButton
            action={[Function]}
            copy="step1.next / Next step / {}"
            disabled={true}
            loading={false}
          />,
        ],
      },
      "ref": null,
      "rendered": Array [
        Object {
          "instance": null,
          "key": undefined,
          "nodeType": "class",
          "props": Object {
            "heroImage": "test.jpg",
            "shouldShowStatus": true,
            "showBackIcon": false,
            "status": "1/3",
            "subtitle": "step1.heroSubtitle / Inspiration / {}",
            "title": "step1.heroTitle / Pick Your Style / {}",
          },
          "ref": null,
          "rendered": null,
          "type": [Function],
        },
        Object {
          "instance": null,
          "key": undefined,
          "nodeType": "class",
          "props": Object {
            "children": <MasonryGrid
              columns={2}
              containsElementsWithoutImages={true}
              ignoreFirstItem={true}
              isShifted={true}
              nrOfNonImageElements={0}
              scroll={false}
            >
              <step1styles__ContentBoxText>
                <FormattedMessage
                  defaultMessage="Getting inspired is the first step to creating an amazing workspace. Explore our styles, tell us what inspires you and start building your project."
                  id="step1.contentText"
                  values={Object {}}
                />
              </step1styles__ContentBoxText>
              Immutable.Seq […]
            </MasonryGrid>,
            "extraStyles": Array [
              "margin-top:35px;padding-bottom:150px;",
            ],
          },
          "ref": null,
          "rendered": Object {
            "instance": null,
            "key": undefined,
            "nodeType": "class",
            "props": Object {
              "children": Array [
                <step1styles__ContentBoxText>
                  <FormattedMessage
                    defaultMessage="Getting inspired is the first step to creating an amazing workspace. Explore our styles, tell us what inspires you and start building your project."
                    id="step1.contentText"
                    values={Object {}}
                  />
                </step1styles__ContentBoxText>,
                Immutable.Seq […],
              ],
              "columns": 2,
              "containsElementsWithoutImages": true,
              "ignoreFirstItem": true,
              "isShifted": true,
              "nrOfNonImageElements": 0,
              "scroll": false,
            },
            "ref": null,
            "rendered": Array [
              Object {
                "instance": null,
                "key": undefined,
                "nodeType": "class",
                "props": Object {
                  "children": <FormattedMessage
                    defaultMessage="Getting inspired is the first step to creating an amazing workspace. Explore our styles, tell us what inspires you and start building your project."
                    id="step1.contentText"
                    values={Object {}}
                  />,
                },
                "ref": null,
                "rendered": Object {
                  "instance": null,
                  "key": undefined,
                  "nodeType": "class",
                  "props": Object {
                    "defaultMessage": "Getting inspired is the first step to creating an amazing workspace. Explore our styles, tell us what inspires you and start building your project.",
                    "id": "step1.contentText",
                    "values": Object {},
                  },
                  "ref": null,
                  "rendered": null,
                  "type": [Function],
                },
                "type": [Function],
              },
              Object {
                "instance": null,
                "key": "id",
                "nodeType": "class",
                "props": Object {
                  "active": "",
                  "arrayLength": 1,
                  "backgroundImage": "test.jpg",
                  "id": "id",
                  "index": 0,
                  "onSelect": [Function],
                  "title": "title",
                },
                "ref": null,
                "rendered": null,
                "type": [Function],
              },
            ],
            "type": [Function],
          },
          "type": [Function],
        },
        Object {
          "instance": null,
          "key": undefined,
          "nodeType": "class",
          "props": Object {
            "action": [Function],
            "copy": "step1.next / Next step / {}",
            "disabled": true,
            "loading": false,
          },
          "ref": null,
          "rendered": null,
          "type": [Function],
        },
      ],
      "type": [Function],
    },
  ],
  Symbol(enzyme.__options__): Object {
    "adapter": ReactSixteenAdapter {
      "options": Object {
        "enableComponentDidUpdateOnSetState": true,
      },
    },
  },
}
`;
