// Jest Snapshot v1, https://goo.gl/fbAQLP

exports[`<UnderlineTitle /> should render correctly 1`] = `
ShallowWrapper {
  "length": 1,
  Symbol(enzyme.__root__): [Circular],
  Symbol(enzyme.__unrendered__): <UnderlineTitle
    description="description"
    dotsPattern={true}
    linkCopy="link"
    linkFunc={[Function]}
    title="title"
  />,
  Symbol(enzyme.__renderer__): Object {
    "batchedUpdates": [Function],
    "getNode": [Function],
    "render": [Function],
    "simulateEvent": [Function],
    "unmount": [Function],
  },
  Symbol(enzyme.__node__): Object {
    "instance": null,
    "key": undefined,
    "nodeType": "class",
    "props": Object {
      "children": Array [
        <components__Dots
          height="1408"
          mobileHeight="393"
          mobileRight={true}
          mobileTop="15"
          mobileWidth="79%"
          top="94"
          width="20%"
        />,
        <underlineTitlestyles__Title
          dangerouslySetInnerHTML={
            Object {
              "__html": "title",
            }
          }
        />,
        <underlineTitlestyles__Line />,
        <underlineTitlestyles__Description>
          description
          <components__LinkButton
            onClick={[Function]}
          >
            link
          </components__LinkButton>
        </underlineTitlestyles__Description>,
      ],
    },
    "ref": null,
    "rendered": Array [
      Object {
        "instance": null,
        "key": undefined,
        "nodeType": "class",
        "props": Object {
          "height": "1408",
          "mobileHeight": "393",
          "mobileRight": true,
          "mobileTop": "15",
          "mobileWidth": "79%",
          "top": "94",
          "width": "20%",
        },
        "ref": null,
        "rendered": null,
        "type": [Function],
      },
      Object {
        "instance": null,
        "key": undefined,
        "nodeType": "class",
        "props": Object {
          "dangerouslySetInnerHTML": Object {
            "__html": "title",
          },
        },
        "ref": null,
        "rendered": null,
        "type": [Function],
      },
      Object {
        "instance": null,
        "key": undefined,
        "nodeType": "class",
        "props": Object {},
        "ref": null,
        "rendered": null,
        "type": [Function],
      },
      Object {
        "instance": null,
        "key": undefined,
        "nodeType": "class",
        "props": Object {
          "children": Array [
            "description",
            <components__LinkButton
              onClick={[Function]}
            >
              link
            </components__LinkButton>,
          ],
        },
        "ref": null,
        "rendered": Array [
          "description",
          Object {
            "instance": null,
            "key": undefined,
            "nodeType": "class",
            "props": Object {
              "children": "link",
              "onClick": [Function],
            },
            "ref": null,
            "rendered": "link",
            "type": [Function],
          },
        ],
        "type": [Function],
      },
    ],
    "type": [Function],
  },
  Symbol(enzyme.__nodes__): Array [
    Object {
      "instance": null,
      "key": undefined,
      "nodeType": "class",
      "props": Object {
        "children": Array [
          <components__Dots
            height="1408"
            mobileHeight="393"
            mobileRight={true}
            mobileTop="15"
            mobileWidth="79%"
            top="94"
            width="20%"
          />,
          <underlineTitlestyles__Title
            dangerouslySetInnerHTML={
              Object {
                "__html": "title",
              }
            }
          />,
          <underlineTitlestyles__Line />,
          <underlineTitlestyles__Description>
            description
            <components__LinkButton
              onClick={[Function]}
            >
              link
            </components__LinkButton>
          </underlineTitlestyles__Description>,
        ],
      },
      "ref": null,
      "rendered": Array [
        Object {
          "instance": null,
          "key": undefined,
          "nodeType": "class",
          "props": Object {
            "height": "1408",
            "mobileHeight": "393",
            "mobileRight": true,
            "mobileTop": "15",
            "mobileWidth": "79%",
            "top": "94",
            "width": "20%",
          },
          "ref": null,
          "rendered": null,
          "type": [Function],
        },
        Object {
          "instance": null,
          "key": undefined,
          "nodeType": "class",
          "props": Object {
            "dangerouslySetInnerHTML": Object {
              "__html": "title",
            },
          },
          "ref": null,
          "rendered": null,
          "type": [Function],
        },
        Object {
          "instance": null,
          "key": undefined,
          "nodeType": "class",
          "props": Object {},
          "ref": null,
          "rendered": null,
          "type": [Function],
        },
        Object {
          "instance": null,
          "key": undefined,
          "nodeType": "class",
          "props": Object {
            "children": Array [
              "description",
              <components__LinkButton
                onClick={[Function]}
              >
                link
              </components__LinkButton>,
            ],
          },
          "ref": null,
          "rendered": Array [
            "description",
            Object {
              "instance": null,
              "key": undefined,
              "nodeType": "class",
              "props": Object {
                "children": "link",
                "onClick": [Function],
              },
              "ref": null,
              "rendered": "link",
              "type": [Function],
            },
          ],
          "type": [Function],
        },
      ],
      "type": [Function],
    },
  ],
  Symbol(enzyme.__options__): Object {
    "adapter": ReactSixteenAdapter {
      "options": Object {
        "enableComponentDidUpdateOnSetState": true,
      },
    },
  },
}
`;
