// Jest Snapshot v1, https://goo.gl/fbAQLP

exports[`<CookieBanner /> should render correctly Button 1`] = `
ShallowWrapper {
  "length": 1,
  Symbol(enzyme.__root__): [Circular],
  Symbol(enzyme.__unrendered__): <CookieBannerComponent />,
  Symbol(enzyme.__renderer__): Object {
    "batchedUpdates": [Function],
    "getNode": [Function],
    "render": [Function],
    "simulateEvent": [Function],
    "unmount": [Function],
  },
  Symbol(enzyme.__node__): Object {
    "instance": null,
    "key": undefined,
    "nodeType": "class",
    "props": Object {
      "children": <section__Section>
        <row__Row>
          <column__Column
            columns={13}
            extraStyles={
              Array [
                "display:block;box-sizing:border-box;",
                "@media (min-width:",
                "1024",
                "px){",
                "padding-left:25px;",
                "}",
              ]
            }
            mobileColumns={6}
            offset={1}
          >
            <FormattedMessage
              defaultMessage="Whitebear.com use cookies. By continuing to browse the site you are agreeing to our use of cookies.
     For more details about cookies and how to manage them, see our "
              id="cookieBanner.message"
              values={Object {}}
            />
            <cookieBannerstyles__Link
              to="/privacy"
            >
              <FormattedMessage
                defaultMessage="cookie policy."
                id="cookieBanner.link"
                values={Object {}}
              />
            </cookieBannerstyles__Link>
          </column__Column>
          <column__Column
            columns={1}
            extraStyles={
              Array [
                "align-items:flex-end;justify-content:center;box-sizing:border-box;width:60px;padding-right:14px;",
                "@media (min-width:",
                "1024",
                "px){",
                "padding-right:6px;",
                "}",
              ]
            }
          >
            <components__CloseButton
              extraStyles={
                Array [
                  "transform:scale(0.83) translateX(17%);align-items:flex-end;&:hover{transform:scale(0.83) translateX(17%) rotate(45deg);}",
                ]
              }
              onClick={[Function]}
            />
          </column__Column>
        </row__Row>
      </section__Section>,
      "hideCookieBanner": false,
    },
    "ref": null,
    "rendered": Object {
      "instance": null,
      "key": undefined,
      "nodeType": "class",
      "props": Object {
        "children": <row__Row>
          <column__Column
            columns={13}
            extraStyles={
              Array [
                "display:block;box-sizing:border-box;",
                "@media (min-width:",
                "1024",
                "px){",
                "padding-left:25px;",
                "}",
              ]
            }
            mobileColumns={6}
            offset={1}
          >
            <FormattedMessage
              defaultMessage="Whitebear.com use cookies. By continuing to browse the site you are agreeing to our use of cookies.
     For more details about cookies and how to manage them, see our "
              id="cookieBanner.message"
              values={Object {}}
            />
            <cookieBannerstyles__Link
              to="/privacy"
            >
              <FormattedMessage
                defaultMessage="cookie policy."
                id="cookieBanner.link"
                values={Object {}}
              />
            </cookieBannerstyles__Link>
          </column__Column>
          <column__Column
            columns={1}
            extraStyles={
              Array [
                "align-items:flex-end;justify-content:center;box-sizing:border-box;width:60px;padding-right:14px;",
                "@media (min-width:",
                "1024",
                "px){",
                "padding-right:6px;",
                "}",
              ]
            }
          >
            <components__CloseButton
              extraStyles={
                Array [
                  "transform:scale(0.83) translateX(17%);align-items:flex-end;&:hover{transform:scale(0.83) translateX(17%) rotate(45deg);}",
                ]
              }
              onClick={[Function]}
            />
          </column__Column>
        </row__Row>,
      },
      "ref": null,
      "rendered": Object {
        "instance": null,
        "key": undefined,
        "nodeType": "class",
        "props": Object {
          "children": Array [
            <column__Column
              columns={13}
              extraStyles={
                Array [
                  "display:block;box-sizing:border-box;",
                  "@media (min-width:",
                  "1024",
                  "px){",
                  "padding-left:25px;",
                  "}",
                ]
              }
              mobileColumns={6}
              offset={1}
            >
              <FormattedMessage
                defaultMessage="Whitebear.com use cookies. By continuing to browse the site you are agreeing to our use of cookies.
     For more details about cookies and how to manage them, see our "
                id="cookieBanner.message"
                values={Object {}}
              />
              <cookieBannerstyles__Link
                to="/privacy"
              >
                <FormattedMessage
                  defaultMessage="cookie policy."
                  id="cookieBanner.link"
                  values={Object {}}
                />
              </cookieBannerstyles__Link>
            </column__Column>,
            <column__Column
              columns={1}
              extraStyles={
                Array [
                  "align-items:flex-end;justify-content:center;box-sizing:border-box;width:60px;padding-right:14px;",
                  "@media (min-width:",
                  "1024",
                  "px){",
                  "padding-right:6px;",
                  "}",
                ]
              }
            >
              <components__CloseButton
                extraStyles={
                  Array [
                    "transform:scale(0.83) translateX(17%);align-items:flex-end;&:hover{transform:scale(0.83) translateX(17%) rotate(45deg);}",
                  ]
                }
                onClick={[Function]}
              />
            </column__Column>,
          ],
        },
        "ref": null,
        "rendered": Array [
          Object {
            "instance": null,
            "key": undefined,
            "nodeType": "class",
            "props": Object {
              "children": Array [
                <FormattedMessage
                  defaultMessage="Whitebear.com use cookies. By continuing to browse the site you are agreeing to our use of cookies.
     For more details about cookies and how to manage them, see our "
                  id="cookieBanner.message"
                  values={Object {}}
                />,
                <cookieBannerstyles__Link
                  to="/privacy"
                >
                  <FormattedMessage
                    defaultMessage="cookie policy."
                    id="cookieBanner.link"
                    values={Object {}}
                  />
                </cookieBannerstyles__Link>,
              ],
              "columns": 13,
              "extraStyles": Array [
                "display:block;box-sizing:border-box;",
                "@media (min-width:",
                "1024",
                "px){",
                "padding-left:25px;",
                "}",
              ],
              "mobileColumns": 6,
              "offset": 1,
            },
            "ref": null,
            "rendered": Array [
              Object {
                "instance": null,
                "key": undefined,
                "nodeType": "class",
                "props": Object {
                  "defaultMessage": "Whitebear.com use cookies. By continuing to browse the site you are agreeing to our use of cookies.
     For more details about cookies and how to manage them, see our ",
                  "id": "cookieBanner.message",
                  "values": Object {},
                },
                "ref": null,
                "rendered": null,
                "type": [Function],
              },
              Object {
                "instance": null,
                "key": undefined,
                "nodeType": "class",
                "props": Object {
                  "children": <FormattedMessage
                    defaultMessage="cookie policy."
                    id="cookieBanner.link"
                    values={Object {}}
                  />,
                  "to": "/privacy",
                },
                "ref": null,
                "rendered": Object {
                  "instance": null,
                  "key": undefined,
                  "nodeType": "class",
                  "props": Object {
                    "defaultMessage": "cookie policy.",
                    "id": "cookieBanner.link",
                    "values": Object {},
                  },
                  "ref": null,
                  "rendered": null,
                  "type": [Function],
                },
                "type": [Function],
              },
            ],
            "type": [Function],
          },
          Object {
            "instance": null,
            "key": undefined,
            "nodeType": "class",
            "props": Object {
              "children": <components__CloseButton
                extraStyles={
                  Array [
                    "transform:scale(0.83) translateX(17%);align-items:flex-end;&:hover{transform:scale(0.83) translateX(17%) rotate(45deg);}",
                  ]
                }
                onClick={[Function]}
              />,
              "columns": 1,
              "extraStyles": Array [
                "align-items:flex-end;justify-content:center;box-sizing:border-box;width:60px;padding-right:14px;",
                "@media (min-width:",
                "1024",
                "px){",
                "padding-right:6px;",
                "}",
              ],
            },
            "ref": null,
            "rendered": Object {
              "instance": null,
              "key": undefined,
              "nodeType": "class",
              "props": Object {
                "extraStyles": Array [
                  "transform:scale(0.83) translateX(17%);align-items:flex-end;&:hover{transform:scale(0.83) translateX(17%) rotate(45deg);}",
                ],
                "onClick": [Function],
              },
              "ref": null,
              "rendered": null,
              "type": [Function],
            },
            "type": [Function],
          },
        ],
        "type": [Function],
      },
      "type": [Function],
    },
    "type": [Function],
  },
  Symbol(enzyme.__nodes__): Array [
    Object {
      "instance": null,
      "key": undefined,
      "nodeType": "class",
      "props": Object {
        "children": <section__Section>
          <row__Row>
            <column__Column
              columns={13}
              extraStyles={
                Array [
                  "display:block;box-sizing:border-box;",
                  "@media (min-width:",
                  "1024",
                  "px){",
                  "padding-left:25px;",
                  "}",
                ]
              }
              mobileColumns={6}
              offset={1}
            >
              <FormattedMessage
                defaultMessage="Whitebear.com use cookies. By continuing to browse the site you are agreeing to our use of cookies.
     For more details about cookies and how to manage them, see our "
                id="cookieBanner.message"
                values={Object {}}
              />
              <cookieBannerstyles__Link
                to="/privacy"
              >
                <FormattedMessage
                  defaultMessage="cookie policy."
                  id="cookieBanner.link"
                  values={Object {}}
                />
              </cookieBannerstyles__Link>
            </column__Column>
            <column__Column
              columns={1}
              extraStyles={
                Array [
                  "align-items:flex-end;justify-content:center;box-sizing:border-box;width:60px;padding-right:14px;",
                  "@media (min-width:",
                  "1024",
                  "px){",
                  "padding-right:6px;",
                  "}",
                ]
              }
            >
              <components__CloseButton
                extraStyles={
                  Array [
                    "transform:scale(0.83) translateX(17%);align-items:flex-end;&:hover{transform:scale(0.83) translateX(17%) rotate(45deg);}",
                  ]
                }
                onClick={[Function]}
              />
            </column__Column>
          </row__Row>
        </section__Section>,
        "hideCookieBanner": false,
      },
      "ref": null,
      "rendered": Object {
        "instance": null,
        "key": undefined,
        "nodeType": "class",
        "props": Object {
          "children": <row__Row>
            <column__Column
              columns={13}
              extraStyles={
                Array [
                  "display:block;box-sizing:border-box;",
                  "@media (min-width:",
                  "1024",
                  "px){",
                  "padding-left:25px;",
                  "}",
                ]
              }
              mobileColumns={6}
              offset={1}
            >
              <FormattedMessage
                defaultMessage="Whitebear.com use cookies. By continuing to browse the site you are agreeing to our use of cookies.
     For more details about cookies and how to manage them, see our "
                id="cookieBanner.message"
                values={Object {}}
              />
              <cookieBannerstyles__Link
                to="/privacy"
              >
                <FormattedMessage
                  defaultMessage="cookie policy."
                  id="cookieBanner.link"
                  values={Object {}}
                />
              </cookieBannerstyles__Link>
            </column__Column>
            <column__Column
              columns={1}
              extraStyles={
                Array [
                  "align-items:flex-end;justify-content:center;box-sizing:border-box;width:60px;padding-right:14px;",
                  "@media (min-width:",
                  "1024",
                  "px){",
                  "padding-right:6px;",
                  "}",
                ]
              }
            >
              <components__CloseButton
                extraStyles={
                  Array [
                    "transform:scale(0.83) translateX(17%);align-items:flex-end;&:hover{transform:scale(0.83) translateX(17%) rotate(45deg);}",
                  ]
                }
                onClick={[Function]}
              />
            </column__Column>
          </row__Row>,
        },
        "ref": null,
        "rendered": Object {
          "instance": null,
          "key": undefined,
          "nodeType": "class",
          "props": Object {
            "children": Array [
              <column__Column
                columns={13}
                extraStyles={
                  Array [
                    "display:block;box-sizing:border-box;",
                    "@media (min-width:",
                    "1024",
                    "px){",
                    "padding-left:25px;",
                    "}",
                  ]
                }
                mobileColumns={6}
                offset={1}
              >
                <FormattedMessage
                  defaultMessage="Whitebear.com use cookies. By continuing to browse the site you are agreeing to our use of cookies.
     For more details about cookies and how to manage them, see our "
                  id="cookieBanner.message"
                  values={Object {}}
                />
                <cookieBannerstyles__Link
                  to="/privacy"
                >
                  <FormattedMessage
                    defaultMessage="cookie policy."
                    id="cookieBanner.link"
                    values={Object {}}
                  />
                </cookieBannerstyles__Link>
              </column__Column>,
              <column__Column
                columns={1}
                extraStyles={
                  Array [
                    "align-items:flex-end;justify-content:center;box-sizing:border-box;width:60px;padding-right:14px;",
                    "@media (min-width:",
                    "1024",
                    "px){",
                    "padding-right:6px;",
                    "}",
                  ]
                }
              >
                <components__CloseButton
                  extraStyles={
                    Array [
                      "transform:scale(0.83) translateX(17%);align-items:flex-end;&:hover{transform:scale(0.83) translateX(17%) rotate(45deg);}",
                    ]
                  }
                  onClick={[Function]}
                />
              </column__Column>,
            ],
          },
          "ref": null,
          "rendered": Array [
            Object {
              "instance": null,
              "key": undefined,
              "nodeType": "class",
              "props": Object {
                "children": Array [
                  <FormattedMessage
                    defaultMessage="Whitebear.com use cookies. By continuing to browse the site you are agreeing to our use of cookies.
     For more details about cookies and how to manage them, see our "
                    id="cookieBanner.message"
                    values={Object {}}
                  />,
                  <cookieBannerstyles__Link
                    to="/privacy"
                  >
                    <FormattedMessage
                      defaultMessage="cookie policy."
                      id="cookieBanner.link"
                      values={Object {}}
                    />
                  </cookieBannerstyles__Link>,
                ],
                "columns": 13,
                "extraStyles": Array [
                  "display:block;box-sizing:border-box;",
                  "@media (min-width:",
                  "1024",
                  "px){",
                  "padding-left:25px;",
                  "}",
                ],
                "mobileColumns": 6,
                "offset": 1,
              },
              "ref": null,
              "rendered": Array [
                Object {
                  "instance": null,
                  "key": undefined,
                  "nodeType": "class",
                  "props": Object {
                    "defaultMessage": "Whitebear.com use cookies. By continuing to browse the site you are agreeing to our use of cookies.
     For more details about cookies and how to manage them, see our ",
                    "id": "cookieBanner.message",
                    "values": Object {},
                  },
                  "ref": null,
                  "rendered": null,
                  "type": [Function],
                },
                Object {
                  "instance": null,
                  "key": undefined,
                  "nodeType": "class",
                  "props": Object {
                    "children": <FormattedMessage
                      defaultMessage="cookie policy."
                      id="cookieBanner.link"
                      values={Object {}}
                    />,
                    "to": "/privacy",
                  },
                  "ref": null,
                  "rendered": Object {
                    "instance": null,
                    "key": undefined,
                    "nodeType": "class",
                    "props": Object {
                      "defaultMessage": "cookie policy.",
                      "id": "cookieBanner.link",
                      "values": Object {},
                    },
                    "ref": null,
                    "rendered": null,
                    "type": [Function],
                  },
                  "type": [Function],
                },
              ],
              "type": [Function],
            },
            Object {
              "instance": null,
              "key": undefined,
              "nodeType": "class",
              "props": Object {
                "children": <components__CloseButton
                  extraStyles={
                    Array [
                      "transform:scale(0.83) translateX(17%);align-items:flex-end;&:hover{transform:scale(0.83) translateX(17%) rotate(45deg);}",
                    ]
                  }
                  onClick={[Function]}
                />,
                "columns": 1,
                "extraStyles": Array [
                  "align-items:flex-end;justify-content:center;box-sizing:border-box;width:60px;padding-right:14px;",
                  "@media (min-width:",
                  "1024",
                  "px){",
                  "padding-right:6px;",
                  "}",
                ],
              },
              "ref": null,
              "rendered": Object {
                "instance": null,
                "key": undefined,
                "nodeType": "class",
                "props": Object {
                  "extraStyles": Array [
                    "transform:scale(0.83) translateX(17%);align-items:flex-end;&:hover{transform:scale(0.83) translateX(17%) rotate(45deg);}",
                  ],
                  "onClick": [Function],
                },
                "ref": null,
                "rendered": null,
                "type": [Function],
              },
              "type": [Function],
            },
          ],
          "type": [Function],
        },
        "type": [Function],
      },
      "type": [Function],
    },
  ],
  Symbol(enzyme.__options__): Object {
    "adapter": ReactSixteenAdapter {
      "options": Object {
        "enableComponentDidUpdateOnSetState": true,
      },
    },
  },
}
`;
