// Jest Snapshot v1, https://goo.gl/fbAQLP

exports[`<Counter /> should render correctly 1`] = `
ShallowWrapper {
  "length": 1,
  Symbol(enzyme.__root__): [Circular],
  Symbol(enzyme.__unrendered__): <Counter
    center={false}
    max={999}
    min={0}
    onBlur={[Function]}
    onChange={[Function]}
    value={1}
  />,
  Symbol(enzyme.__renderer__): Object {
    "batchedUpdates": [Function],
    "getNode": [Function],
    "render": [Function],
    "simulateEvent": [Function],
    "unmount": [Function],
  },
  Symbol(enzyme.__node__): Object {
    "instance": null,
    "key": undefined,
    "nodeType": "class",
    "props": Object {
      "center": false,
      "children": Array [
        <ReactInterval
          callback={null}
          enabled={false}
          timeout={100}
        />,
        <counterstyles__Content>
          <counterstyles__Button
            onMouseDown={[Function]}
            onMouseUp={[Function]}
            type="button"
          >
            <counterstyles__Minus />
          </counterstyles__Button>
          <counterstyles__Value
            maxLength={999}
            minLength={0}
            onChange={[Function]}
            type="number"
            value={1}
          />
          <counterstyles__Button
            onMouseDown={[Function]}
            onMouseUp={[Function]}
            right={true}
            type="button"
          >
            <counterstyles__Plus />
          </counterstyles__Button>
        </counterstyles__Content>,
      ],
    },
    "ref": null,
    "rendered": Array [
      Object {
        "instance": null,
        "key": undefined,
        "nodeType": "class",
        "props": Object {
          "callback": null,
          "enabled": false,
          "timeout": 100,
        },
        "ref": null,
        "rendered": null,
        "type": [Function],
      },
      Object {
        "instance": null,
        "key": undefined,
        "nodeType": "class",
        "props": Object {
          "children": Array [
            <counterstyles__Button
              onMouseDown={[Function]}
              onMouseUp={[Function]}
              type="button"
            >
              <counterstyles__Minus />
            </counterstyles__Button>,
            <counterstyles__Value
              maxLength={999}
              minLength={0}
              onChange={[Function]}
              type="number"
              value={1}
            />,
            <counterstyles__Button
              onMouseDown={[Function]}
              onMouseUp={[Function]}
              right={true}
              type="button"
            >
              <counterstyles__Plus />
            </counterstyles__Button>,
          ],
        },
        "ref": null,
        "rendered": Array [
          Object {
            "instance": null,
            "key": undefined,
            "nodeType": "class",
            "props": Object {
              "children": <counterstyles__Minus />,
              "onMouseDown": [Function],
              "onMouseUp": [Function],
              "type": "button",
            },
            "ref": null,
            "rendered": Object {
              "instance": null,
              "key": undefined,
              "nodeType": "class",
              "props": Object {},
              "ref": null,
              "rendered": null,
              "type": [Function],
            },
            "type": [Function],
          },
          Object {
            "instance": null,
            "key": undefined,
            "nodeType": "class",
            "props": Object {
              "maxLength": 999,
              "minLength": 0,
              "onChange": [Function],
              "type": "number",
              "value": 1,
            },
            "ref": null,
            "rendered": null,
            "type": [Function],
          },
          Object {
            "instance": null,
            "key": undefined,
            "nodeType": "class",
            "props": Object {
              "children": <counterstyles__Plus />,
              "onMouseDown": [Function],
              "onMouseUp": [Function],
              "right": true,
              "type": "button",
            },
            "ref": null,
            "rendered": Object {
              "instance": null,
              "key": undefined,
              "nodeType": "class",
              "props": Object {},
              "ref": null,
              "rendered": null,
              "type": [Function],
            },
            "type": [Function],
          },
        ],
        "type": [Function],
      },
    ],
    "type": [Function],
  },
  Symbol(enzyme.__nodes__): Array [
    Object {
      "instance": null,
      "key": undefined,
      "nodeType": "class",
      "props": Object {
        "center": false,
        "children": Array [
          <ReactInterval
            callback={null}
            enabled={false}
            timeout={100}
          />,
          <counterstyles__Content>
            <counterstyles__Button
              onMouseDown={[Function]}
              onMouseUp={[Function]}
              type="button"
            >
              <counterstyles__Minus />
            </counterstyles__Button>
            <counterstyles__Value
              maxLength={999}
              minLength={0}
              onChange={[Function]}
              type="number"
              value={1}
            />
            <counterstyles__Button
              onMouseDown={[Function]}
              onMouseUp={[Function]}
              right={true}
              type="button"
            >
              <counterstyles__Plus />
            </counterstyles__Button>
          </counterstyles__Content>,
        ],
      },
      "ref": null,
      "rendered": Array [
        Object {
          "instance": null,
          "key": undefined,
          "nodeType": "class",
          "props": Object {
            "callback": null,
            "enabled": false,
            "timeout": 100,
          },
          "ref": null,
          "rendered": null,
          "type": [Function],
        },
        Object {
          "instance": null,
          "key": undefined,
          "nodeType": "class",
          "props": Object {
            "children": Array [
              <counterstyles__Button
                onMouseDown={[Function]}
                onMouseUp={[Function]}
                type="button"
              >
                <counterstyles__Minus />
              </counterstyles__Button>,
              <counterstyles__Value
                maxLength={999}
                minLength={0}
                onChange={[Function]}
                type="number"
                value={1}
              />,
              <counterstyles__Button
                onMouseDown={[Function]}
                onMouseUp={[Function]}
                right={true}
                type="button"
              >
                <counterstyles__Plus />
              </counterstyles__Button>,
            ],
          },
          "ref": null,
          "rendered": Array [
            Object {
              "instance": null,
              "key": undefined,
              "nodeType": "class",
              "props": Object {
                "children": <counterstyles__Minus />,
                "onMouseDown": [Function],
                "onMouseUp": [Function],
                "type": "button",
              },
              "ref": null,
              "rendered": Object {
                "instance": null,
                "key": undefined,
                "nodeType": "class",
                "props": Object {},
                "ref": null,
                "rendered": null,
                "type": [Function],
              },
              "type": [Function],
            },
            Object {
              "instance": null,
              "key": undefined,
              "nodeType": "class",
              "props": Object {
                "maxLength": 999,
                "minLength": 0,
                "onChange": [Function],
                "type": "number",
                "value": 1,
              },
              "ref": null,
              "rendered": null,
              "type": [Function],
            },
            Object {
              "instance": null,
              "key": undefined,
              "nodeType": "class",
              "props": Object {
                "children": <counterstyles__Plus />,
                "onMouseDown": [Function],
                "onMouseUp": [Function],
                "right": true,
                "type": "button",
              },
              "ref": null,
              "rendered": Object {
                "instance": null,
                "key": undefined,
                "nodeType": "class",
                "props": Object {},
                "ref": null,
                "rendered": null,
                "type": [Function],
              },
              "type": [Function],
            },
          ],
          "type": [Function],
        },
      ],
      "type": [Function],
    },
  ],
  Symbol(enzyme.__options__): Object {
    "adapter": ReactSixteenAdapter {
      "options": Object {
        "enableComponentDidUpdateOnSetState": true,
      },
    },
  },
}
`;
