// Jest Snapshot v1, https://goo.gl/fbAQLP

exports[`<AccountForm /> should render correctly 1`] = `
ShallowWrapper {
  "length": 1,
  Symbol(enzyme.__root__): [Circular],
  Symbol(enzyme.__unrendered__): <AccountFormComponent
    change={[Function]}
    handleSubmit={[Function]}
    intl={
      Object {
        "formatMessage": [Function],
      }
    }
    invalid={false}
    updateUserFetching={false}
    updateUserSuccess={false}
    user={Immutable.Map {}}
  />,
  Symbol(enzyme.__renderer__): Object {
    "batchedUpdates": [Function],
    "getNode": [Function],
    "render": [Function],
    "simulateEvent": [Function],
    "unmount": [Function],
  },
  Symbol(enzyme.__node__): Object {
    "instance": null,
    "key": undefined,
    "nodeType": "class",
    "props": Object {
      "children": Array [
        <Field
          component={[Function]}
          errorText={
            Object {
              "defaultMessage": "Please enter your full name",
              "id": "accountForm.nameError",
            }
          }
          message={
            Object {
              "defaultMessage": "Your name",
              "id": "accountForm.name",
            }
          }
          name="name"
          type="text"
        />,
        <Field
          component={[Function]}
          errorText={
            Object {
              "defaultMessage": "Please enter your Company name",
              "id": "accountForm.companyError",
            }
          }
          message={
            Object {
              "defaultMessage": "Company name",
              "id": "accountForm.company",
            }
          }
          name="company"
          type="text"
        />,
        <Field
          component={[Function]}
          errorText={
            Object {
              "defaultMessage": "Please enter a valid email address",
              "id": "accountForm.emailError",
            }
          }
          message={
            Object {
              "defaultMessage": "Email address",
              "id": "accountForm.email",
            }
          }
          name="email"
          type="email"
        />,
        <Field
          component={[Function]}
          edit={false}
          errorText={
            Object {
              "defaultMessage": "Your password must be at least 8 characters long and contain at least one number",
              "id": "accountForm.passwordError",
            }
          }
          message={
            Object {
              "defaultMessage": "Password",
              "id": "accountForm.password",
            }
          }
          name="password"
          type="password"
        />,
        <components__Button
          disabled={false}
          extraStyles={
            Array [
              "width:100%;margin:61px auto 0;",
              "@media (min-width:",
              "1024",
              "px){",
              "width:276px;margin:96px 0 0 0;",
              "}",
            ]
          }
          noActive={true}
          noEvents={false}
          type="submit"
        >
          <FormattedMessage
            defaultMessage="Save"
            id="accountForm.save"
            values={Object {}}
          />
        </components__Button>,
      ],
      "noValidate": true,
      "onSubmit": [Function],
    },
    "ref": null,
    "rendered": Array [
      Object {
        "instance": null,
        "key": undefined,
        "nodeType": "class",
        "props": Object {
          "component": [Function],
          "errorText": Object {
            "defaultMessage": "Please enter your full name",
            "id": "accountForm.nameError",
          },
          "message": Object {
            "defaultMessage": "Your name",
            "id": "accountForm.name",
          },
          "name": "name",
          "type": "text",
        },
        "ref": null,
        "rendered": null,
        "type": [Function],
      },
      Object {
        "instance": null,
        "key": undefined,
        "nodeType": "class",
        "props": Object {
          "component": [Function],
          "errorText": Object {
            "defaultMessage": "Please enter your Company name",
            "id": "accountForm.companyError",
          },
          "message": Object {
            "defaultMessage": "Company name",
            "id": "accountForm.company",
          },
          "name": "company",
          "type": "text",
        },
        "ref": null,
        "rendered": null,
        "type": [Function],
      },
      Object {
        "instance": null,
        "key": undefined,
        "nodeType": "class",
        "props": Object {
          "component": [Function],
          "errorText": Object {
            "defaultMessage": "Please enter a valid email address",
            "id": "accountForm.emailError",
          },
          "message": Object {
            "defaultMessage": "Email address",
            "id": "accountForm.email",
          },
          "name": "email",
          "type": "email",
        },
        "ref": null,
        "rendered": null,
        "type": [Function],
      },
      Object {
        "instance": null,
        "key": undefined,
        "nodeType": "class",
        "props": Object {
          "component": [Function],
          "edit": false,
          "errorText": Object {
            "defaultMessage": "Your password must be at least 8 characters long and contain at least one number",
            "id": "accountForm.passwordError",
          },
          "message": Object {
            "defaultMessage": "Password",
            "id": "accountForm.password",
          },
          "name": "password",
          "type": "password",
        },
        "ref": null,
        "rendered": null,
        "type": [Function],
      },
      Object {
        "instance": null,
        "key": undefined,
        "nodeType": "class",
        "props": Object {
          "children": <FormattedMessage
            defaultMessage="Save"
            id="accountForm.save"
            values={Object {}}
          />,
          "disabled": false,
          "extraStyles": Array [
            "width:100%;margin:61px auto 0;",
            "@media (min-width:",
            "1024",
            "px){",
            "width:276px;margin:96px 0 0 0;",
            "}",
          ],
          "noActive": true,
          "noEvents": false,
          "type": "submit",
        },
        "ref": null,
        "rendered": Object {
          "instance": null,
          "key": undefined,
          "nodeType": "class",
          "props": Object {
            "defaultMessage": "Save",
            "id": "accountForm.save",
            "values": Object {},
          },
          "ref": null,
          "rendered": null,
          "type": [Function],
        },
        "type": [Function],
      },
    ],
    "type": [Function],
  },
  Symbol(enzyme.__nodes__): Array [
    Object {
      "instance": null,
      "key": undefined,
      "nodeType": "class",
      "props": Object {
        "children": Array [
          <Field
            component={[Function]}
            errorText={
              Object {
                "defaultMessage": "Please enter your full name",
                "id": "accountForm.nameError",
              }
            }
            message={
              Object {
                "defaultMessage": "Your name",
                "id": "accountForm.name",
              }
            }
            name="name"
            type="text"
          />,
          <Field
            component={[Function]}
            errorText={
              Object {
                "defaultMessage": "Please enter your Company name",
                "id": "accountForm.companyError",
              }
            }
            message={
              Object {
                "defaultMessage": "Company name",
                "id": "accountForm.company",
              }
            }
            name="company"
            type="text"
          />,
          <Field
            component={[Function]}
            errorText={
              Object {
                "defaultMessage": "Please enter a valid email address",
                "id": "accountForm.emailError",
              }
            }
            message={
              Object {
                "defaultMessage": "Email address",
                "id": "accountForm.email",
              }
            }
            name="email"
            type="email"
          />,
          <Field
            component={[Function]}
            edit={false}
            errorText={
              Object {
                "defaultMessage": "Your password must be at least 8 characters long and contain at least one number",
                "id": "accountForm.passwordError",
              }
            }
            message={
              Object {
                "defaultMessage": "Password",
                "id": "accountForm.password",
              }
            }
            name="password"
            type="password"
          />,
          <components__Button
            disabled={false}
            extraStyles={
              Array [
                "width:100%;margin:61px auto 0;",
                "@media (min-width:",
                "1024",
                "px){",
                "width:276px;margin:96px 0 0 0;",
                "}",
              ]
            }
            noActive={true}
            noEvents={false}
            type="submit"
          >
            <FormattedMessage
              defaultMessage="Save"
              id="accountForm.save"
              values={Object {}}
            />
          </components__Button>,
        ],
        "noValidate": true,
        "onSubmit": [Function],
      },
      "ref": null,
      "rendered": Array [
        Object {
          "instance": null,
          "key": undefined,
          "nodeType": "class",
          "props": Object {
            "component": [Function],
            "errorText": Object {
              "defaultMessage": "Please enter your full name",
              "id": "accountForm.nameError",
            },
            "message": Object {
              "defaultMessage": "Your name",
              "id": "accountForm.name",
            },
            "name": "name",
            "type": "text",
          },
          "ref": null,
          "rendered": null,
          "type": [Function],
        },
        Object {
          "instance": null,
          "key": undefined,
          "nodeType": "class",
          "props": Object {
            "component": [Function],
            "errorText": Object {
              "defaultMessage": "Please enter your Company name",
              "id": "accountForm.companyError",
            },
            "message": Object {
              "defaultMessage": "Company name",
              "id": "accountForm.company",
            },
            "name": "company",
            "type": "text",
          },
          "ref": null,
          "rendered": null,
          "type": [Function],
        },
        Object {
          "instance": null,
          "key": undefined,
          "nodeType": "class",
          "props": Object {
            "component": [Function],
            "errorText": Object {
              "defaultMessage": "Please enter a valid email address",
              "id": "accountForm.emailError",
            },
            "message": Object {
              "defaultMessage": "Email address",
              "id": "accountForm.email",
            },
            "name": "email",
            "type": "email",
          },
          "ref": null,
          "rendered": null,
          "type": [Function],
        },
        Object {
          "instance": null,
          "key": undefined,
          "nodeType": "class",
          "props": Object {
            "component": [Function],
            "edit": false,
            "errorText": Object {
              "defaultMessage": "Your password must be at least 8 characters long and contain at least one number",
              "id": "accountForm.passwordError",
            },
            "message": Object {
              "defaultMessage": "Password",
              "id": "accountForm.password",
            },
            "name": "password",
            "type": "password",
          },
          "ref": null,
          "rendered": null,
          "type": [Function],
        },
        Object {
          "instance": null,
          "key": undefined,
          "nodeType": "class",
          "props": Object {
            "children": <FormattedMessage
              defaultMessage="Save"
              id="accountForm.save"
              values={Object {}}
            />,
            "disabled": false,
            "extraStyles": Array [
              "width:100%;margin:61px auto 0;",
              "@media (min-width:",
              "1024",
              "px){",
              "width:276px;margin:96px 0 0 0;",
              "}",
            ],
            "noActive": true,
            "noEvents": false,
            "type": "submit",
          },
          "ref": null,
          "rendered": Object {
            "instance": null,
            "key": undefined,
            "nodeType": "class",
            "props": Object {
              "defaultMessage": "Save",
              "id": "accountForm.save",
              "values": Object {},
            },
            "ref": null,
            "rendered": null,
            "type": [Function],
          },
          "type": [Function],
        },
      ],
      "type": [Function],
    },
  ],
  Symbol(enzyme.__options__): Object {
    "adapter": ReactSixteenAdapter {
      "options": Object {
        "enableComponentDidUpdateOnSetState": true,
      },
    },
  },
}
`;
