// Jest Snapshot v1, https://goo.gl/fbAQLP

exports[`<ProductItem /> should render correctly 1`] = `
ShallowWrapper {
  "length": 1,
  Symbol(enzyme.__root__): [Circular],
  Symbol(enzyme.__unrendered__): <ProductItemComponent
    addCartItem={[Function]}
    addProjectItem={[Function]}
    arrayLength={5}
    compareAtPrice="120"
    delivery=""
    description=""
    id=""
    image=""
    index={0}
    intl={
      Object {
        "formatHTMLMessage": [Function],
        "formatMessage": [Function],
      }
    }
    isLeft={false}
    price="100"
    productType=""
    projectId=""
    showVariantTitle={false}
    size=""
    title={null}
    url={null}
    variantId=""
    wide=""
  />,
  Symbol(enzyme.__renderer__): Object {
    "batchedUpdates": [Function],
    "getNode": [Function],
    "render": [Function],
    "simulateEvent": [Function],
    "unmount": [Function],
  },
  Symbol(enzyme.__node__): Object {
    "instance": null,
    "key": undefined,
    "nodeType": "class",
    "props": Object {
      "children": <div>
        <productItemstyles__InnerWrapperStyles
          isEven={true}
          isLeft={false}
        >
          <productItemstyles__ImageWrapper>
            <productItemstyles__AnimBackground
              innerRef={[Function]}
            />
            <productItemstyles__DiscountWrapper
              innerRef={[Function]}
            >
              <Discount
                compareAtPrice="120"
                price="100"
              />
            </productItemstyles__DiscountWrapper>
            <productItemstyles__Image
              alt={null}
              innerRef={[Function]}
              src=""
            />
          </productItemstyles__ImageWrapper>
          <productItemstyles__TitleWrapper
            innerRef={[Function]}
            isEven={true}
            isLeft={false}
          >
            <productItemstyles__Title />
            <productItemstyles__Price>
              productItem.currency / £ / {}
              100
            </productItemstyles__Price>
          </productItemstyles__TitleWrapper>
        </productItemstyles__InnerWrapperStyles>
      </div>,
      "innerRef": [Function],
      "isEven": true,
      "isLeft": false,
    },
    "ref": null,
    "rendered": Object {
      "instance": null,
      "key": undefined,
      "nodeType": "host",
      "props": Object {
        "children": <productItemstyles__InnerWrapperStyles
          isEven={true}
          isLeft={false}
        >
          <productItemstyles__ImageWrapper>
            <productItemstyles__AnimBackground
              innerRef={[Function]}
            />
            <productItemstyles__DiscountWrapper
              innerRef={[Function]}
            >
              <Discount
                compareAtPrice="120"
                price="100"
              />
            </productItemstyles__DiscountWrapper>
            <productItemstyles__Image
              alt={null}
              innerRef={[Function]}
              src=""
            />
          </productItemstyles__ImageWrapper>
          <productItemstyles__TitleWrapper
            innerRef={[Function]}
            isEven={true}
            isLeft={false}
          >
            <productItemstyles__Title />
            <productItemstyles__Price>
              productItem.currency / £ / {}
              100
            </productItemstyles__Price>
          </productItemstyles__TitleWrapper>
        </productItemstyles__InnerWrapperStyles>,
      },
      "ref": null,
      "rendered": Object {
        "instance": null,
        "key": undefined,
        "nodeType": "class",
        "props": Object {
          "children": Array [
            <productItemstyles__ImageWrapper>
              <productItemstyles__AnimBackground
                innerRef={[Function]}
              />
              <productItemstyles__DiscountWrapper
                innerRef={[Function]}
              >
                <Discount
                  compareAtPrice="120"
                  price="100"
                />
              </productItemstyles__DiscountWrapper>
              <productItemstyles__Image
                alt={null}
                innerRef={[Function]}
                src=""
              />
            </productItemstyles__ImageWrapper>,
            <productItemstyles__TitleWrapper
              innerRef={[Function]}
              isEven={true}
              isLeft={false}
            >
              <productItemstyles__Title />
              <productItemstyles__Price>
                productItem.currency / £ / {}
                100
              </productItemstyles__Price>
            </productItemstyles__TitleWrapper>,
          ],
          "isEven": true,
          "isLeft": false,
        },
        "ref": null,
        "rendered": Array [
          Object {
            "instance": null,
            "key": undefined,
            "nodeType": "class",
            "props": Object {
              "children": Array [
                <productItemstyles__AnimBackground
                  innerRef={[Function]}
                />,
                <productItemstyles__DiscountWrapper
                  innerRef={[Function]}
                >
                  <Discount
                    compareAtPrice="120"
                    price="100"
                  />
                </productItemstyles__DiscountWrapper>,
                <productItemstyles__Image
                  alt={null}
                  innerRef={[Function]}
                  src=""
                />,
              ],
            },
            "ref": null,
            "rendered": Array [
              Object {
                "instance": null,
                "key": undefined,
                "nodeType": "class",
                "props": Object {
                  "innerRef": [Function],
                },
                "ref": null,
                "rendered": null,
                "type": [Function],
              },
              Object {
                "instance": null,
                "key": undefined,
                "nodeType": "class",
                "props": Object {
                  "children": <Discount
                    compareAtPrice="120"
                    price="100"
                  />,
                  "innerRef": [Function],
                },
                "ref": null,
                "rendered": Object {
                  "instance": null,
                  "key": undefined,
                  "nodeType": "class",
                  "props": Object {
                    "compareAtPrice": "120",
                    "price": "100",
                  },
                  "ref": null,
                  "rendered": null,
                  "type": [Function],
                },
                "type": [Function],
              },
              Object {
                "instance": null,
                "key": undefined,
                "nodeType": "class",
                "props": Object {
                  "alt": null,
                  "innerRef": [Function],
                  "src": "",
                },
                "ref": null,
                "rendered": null,
                "type": [Function],
              },
            ],
            "type": [Function],
          },
          Object {
            "instance": null,
            "key": undefined,
            "nodeType": "class",
            "props": Object {
              "children": Array [
                <productItemstyles__Title />,
                <productItemstyles__Price>
                  productItem.currency / £ / {}
                  100
                </productItemstyles__Price>,
              ],
              "innerRef": [Function],
              "isEven": true,
              "isLeft": false,
            },
            "ref": null,
            "rendered": Array [
              Object {
                "instance": null,
                "key": undefined,
                "nodeType": "class",
                "props": Object {
                  "children": null,
                },
                "ref": null,
                "rendered": null,
                "type": [Function],
              },
              Object {
                "instance": null,
                "key": undefined,
                "nodeType": "class",
                "props": Object {
                  "children": Array [
                    "productItem.currency / £ / {}",
                    "100",
                  ],
                },
                "ref": null,
                "rendered": Array [
                  "productItem.currency / £ / {}",
                  "100",
                ],
                "type": [Function],
              },
            ],
            "type": [Function],
          },
        ],
        "type": [Function],
      },
      "type": "div",
    },
    "type": [Function],
  },
  Symbol(enzyme.__nodes__): Array [
    Object {
      "instance": null,
      "key": undefined,
      "nodeType": "class",
      "props": Object {
        "children": <div>
          <productItemstyles__InnerWrapperStyles
            isEven={true}
            isLeft={false}
          >
            <productItemstyles__ImageWrapper>
              <productItemstyles__AnimBackground
                innerRef={[Function]}
              />
              <productItemstyles__DiscountWrapper
                innerRef={[Function]}
              >
                <Discount
                  compareAtPrice="120"
                  price="100"
                />
              </productItemstyles__DiscountWrapper>
              <productItemstyles__Image
                alt={null}
                innerRef={[Function]}
                src=""
              />
            </productItemstyles__ImageWrapper>
            <productItemstyles__TitleWrapper
              innerRef={[Function]}
              isEven={true}
              isLeft={false}
            >
              <productItemstyles__Title />
              <productItemstyles__Price>
                productItem.currency / £ / {}
                100
              </productItemstyles__Price>
            </productItemstyles__TitleWrapper>
          </productItemstyles__InnerWrapperStyles>
        </div>,
        "innerRef": [Function],
        "isEven": true,
        "isLeft": false,
      },
      "ref": null,
      "rendered": Object {
        "instance": null,
        "key": undefined,
        "nodeType": "host",
        "props": Object {
          "children": <productItemstyles__InnerWrapperStyles
            isEven={true}
            isLeft={false}
          >
            <productItemstyles__ImageWrapper>
              <productItemstyles__AnimBackground
                innerRef={[Function]}
              />
              <productItemstyles__DiscountWrapper
                innerRef={[Function]}
              >
                <Discount
                  compareAtPrice="120"
                  price="100"
                />
              </productItemstyles__DiscountWrapper>
              <productItemstyles__Image
                alt={null}
                innerRef={[Function]}
                src=""
              />
            </productItemstyles__ImageWrapper>
            <productItemstyles__TitleWrapper
              innerRef={[Function]}
              isEven={true}
              isLeft={false}
            >
              <productItemstyles__Title />
              <productItemstyles__Price>
                productItem.currency / £ / {}
                100
              </productItemstyles__Price>
            </productItemstyles__TitleWrapper>
          </productItemstyles__InnerWrapperStyles>,
        },
        "ref": null,
        "rendered": Object {
          "instance": null,
          "key": undefined,
          "nodeType": "class",
          "props": Object {
            "children": Array [
              <productItemstyles__ImageWrapper>
                <productItemstyles__AnimBackground
                  innerRef={[Function]}
                />
                <productItemstyles__DiscountWrapper
                  innerRef={[Function]}
                >
                  <Discount
                    compareAtPrice="120"
                    price="100"
                  />
                </productItemstyles__DiscountWrapper>
                <productItemstyles__Image
                  alt={null}
                  innerRef={[Function]}
                  src=""
                />
              </productItemstyles__ImageWrapper>,
              <productItemstyles__TitleWrapper
                innerRef={[Function]}
                isEven={true}
                isLeft={false}
              >
                <productItemstyles__Title />
                <productItemstyles__Price>
                  productItem.currency / £ / {}
                  100
                </productItemstyles__Price>
              </productItemstyles__TitleWrapper>,
            ],
            "isEven": true,
            "isLeft": false,
          },
          "ref": null,
          "rendered": Array [
            Object {
              "instance": null,
              "key": undefined,
              "nodeType": "class",
              "props": Object {
                "children": Array [
                  <productItemstyles__AnimBackground
                    innerRef={[Function]}
                  />,
                  <productItemstyles__DiscountWrapper
                    innerRef={[Function]}
                  >
                    <Discount
                      compareAtPrice="120"
                      price="100"
                    />
                  </productItemstyles__DiscountWrapper>,
                  <productItemstyles__Image
                    alt={null}
                    innerRef={[Function]}
                    src=""
                  />,
                ],
              },
              "ref": null,
              "rendered": Array [
                Object {
                  "instance": null,
                  "key": undefined,
                  "nodeType": "class",
                  "props": Object {
                    "innerRef": [Function],
                  },
                  "ref": null,
                  "rendered": null,
                  "type": [Function],
                },
                Object {
                  "instance": null,
                  "key": undefined,
                  "nodeType": "class",
                  "props": Object {
                    "children": <Discount
                      compareAtPrice="120"
                      price="100"
                    />,
                    "innerRef": [Function],
                  },
                  "ref": null,
                  "rendered": Object {
                    "instance": null,
                    "key": undefined,
                    "nodeType": "class",
                    "props": Object {
                      "compareAtPrice": "120",
                      "price": "100",
                    },
                    "ref": null,
                    "rendered": null,
                    "type": [Function],
                  },
                  "type": [Function],
                },
                Object {
                  "instance": null,
                  "key": undefined,
                  "nodeType": "class",
                  "props": Object {
                    "alt": null,
                    "innerRef": [Function],
                    "src": "",
                  },
                  "ref": null,
                  "rendered": null,
                  "type": [Function],
                },
              ],
              "type": [Function],
            },
            Object {
              "instance": null,
              "key": undefined,
              "nodeType": "class",
              "props": Object {
                "children": Array [
                  <productItemstyles__Title />,
                  <productItemstyles__Price>
                    productItem.currency / £ / {}
                    100
                  </productItemstyles__Price>,
                ],
                "innerRef": [Function],
                "isEven": true,
                "isLeft": false,
              },
              "ref": null,
              "rendered": Array [
                Object {
                  "instance": null,
                  "key": undefined,
                  "nodeType": "class",
                  "props": Object {
                    "children": null,
                  },
                  "ref": null,
                  "rendered": null,
                  "type": [Function],
                },
                Object {
                  "instance": null,
                  "key": undefined,
                  "nodeType": "class",
                  "props": Object {
                    "children": Array [
                      "productItem.currency / £ / {}",
                      "100",
                    ],
                  },
                  "ref": null,
                  "rendered": Array [
                    "productItem.currency / £ / {}",
                    "100",
                  ],
                  "type": [Function],
                },
              ],
              "type": [Function],
            },
          ],
          "type": [Function],
        },
        "type": "div",
      },
      "type": [Function],
    },
  ],
  Symbol(enzyme.__options__): Object {
    "adapter": ReactSixteenAdapter {
      "options": Object {
        "enableComponentDidUpdateOnSetState": true,
      },
    },
  },
}
`;
