// Jest Snapshot v1, https://goo.gl/fbAQLP

exports[`<All /> should render correctly 1`] = `
ShallowWrapper {
  "length": 1,
  Symbol(enzyme.__root__): [Circular],
  Symbol(enzyme.__unrendered__): <AllComponent
    addItem={[Function]}
    addProjectItem={[Function]}
    articles={Immutable.Map {}}
    blogRequest={[Function]}
    collectionsItems={Immutable.Map {}}
    collectionsRequest={[Function]}
    hasNextPage={true}
    intl={
      Object {
        "formatHTMLMessage": [Function],
        "formatMessage": [Function],
      }
    }
    lastProductCursor=""
    productTypesItems={Immutable.Map {}}
    productTypesRequest={[Function]}
    productsItems={Immutable.Map {}}
    productsKeys={Immutable.List []}
    productsRequest={[Function]}
    projectId=""
  />,
  Symbol(enzyme.__renderer__): Object {
    "batchedUpdates": [Function],
    "getNode": [Function],
    "render": [Function],
    "simulateEvent": [Function],
    "unmount": [Function],
  },
  Symbol(enzyme.__node__): Object {
    "instance": null,
    "key": undefined,
    "nodeType": "host",
    "props": Object {
      "children": Array [
        <WindowScroll
          header={false}
          onScroll={[Function]}
          throttle={true}
        />,
        <section__Section>
          <row__Row
            extraStyles={
              Array [
                "margin-bottom:-90px;width:100%;",
              ]
            }
          >
            <HeroSlider
              data={Immutable.Map {}}
            />
          </row__Row>
          <row__Row>
            <column__Column
              columns={6}
              offset={2}
            >
              <allstyles__InfoHeader>
                <FormattedMessage
                  defaultMessage="Select the variant that fits your space. Bespoke options available."
                  id="all.info"
                  values={Object {}}
                />
              </allstyles__InfoHeader>
            </column__Column>
          </row__Row>
          <row__Row
            extraStyles={
              Array [
                "margin-bottom:60px;flex-wrap:wrap;z-index:2;",
              ]
            }
          >
            <column__Column
              columns={7}
              extraStyles={
                Array [
                  "z-index:2;",
                  "box-sizing:border-box;",
                  " ",
                  "@media (min-width:",
                  "1024",
                  "px){",
                  "padding-right:15px;",
                  "}",
                ]
              }
              mobileColumns={6}
              mobileOffset={0}
              offset={1}
            >
              <ProductSelect
                onUpdate={[Function]}
                options={Array []}
                placeholder="all.productTypes / Category / {}"
                value=""
              />
            </column__Column>
            <column__Column
              columns={7}
              extraStyles={
                Array [
                  "z-index:1;",
                  "box-sizing:border-box;",
                  " ",
                  "@media (min-width:",
                  "1024",
                  "px){",
                  "padding-left:15px;",
                  "}",
                ]
              }
              mobileColumns={6}
            >
              <ProductSelect
                onUpdate={[Function]}
                options={Array []}
                placeholder="all.collections / Room / {}"
                upper={true}
                value=""
              />
            </column__Column>
          </row__Row>
          <row__Row
            extraStyles={
              Array [
                "margin-bottom:60px;",
                "@media (min-width:",
                "320",
                "px){",
                "width:100%;",
                "}",
              ]
            }
          >
            <column__Column
              columns={14}
              offset={1}
            >
              <Loader
                isActive={true}
              />
            </column__Column>
          </row__Row>
          <row__Row
            extraStyles={
              Array [
                "margin-bottom:90px;display:flex;align-items:center;flex-direction:column;",
                "@media (min-width:",
                "320",
                "px){",
                "margin-bottom:140px;",
                "}",
              ]
            }
          >
            <components__Button
              noActive={true}
              onClick={[Function]}
            >
              <FormattedMessage
                defaultMessage="Load More"
                id="all.loadMore"
                values={Object {}}
              />
            </components__Button>
          </row__Row>
        </section__Section>,
      ],
    },
    "ref": null,
    "rendered": Array [
      Object {
        "instance": null,
        "key": undefined,
        "nodeType": "class",
        "props": Object {
          "header": false,
          "onScroll": [Function],
          "throttle": true,
        },
        "ref": null,
        "rendered": null,
        "type": [Function],
      },
      Object {
        "instance": null,
        "key": undefined,
        "nodeType": "class",
        "props": Object {
          "children": Array [
            <row__Row
              extraStyles={
                Array [
                  "margin-bottom:-90px;width:100%;",
                ]
              }
            >
              <HeroSlider
                data={Immutable.Map {}}
              />
            </row__Row>,
            <row__Row>
              <column__Column
                columns={6}
                offset={2}
              >
                <allstyles__InfoHeader>
                  <FormattedMessage
                    defaultMessage="Select the variant that fits your space. Bespoke options available."
                    id="all.info"
                    values={Object {}}
                  />
                </allstyles__InfoHeader>
              </column__Column>
            </row__Row>,
            <row__Row
              extraStyles={
                Array [
                  "margin-bottom:60px;flex-wrap:wrap;z-index:2;",
                ]
              }
            >
              <column__Column
                columns={7}
                extraStyles={
                  Array [
                    "z-index:2;",
                    "box-sizing:border-box;",
                    " ",
                    "@media (min-width:",
                    "1024",
                    "px){",
                    "padding-right:15px;",
                    "}",
                  ]
                }
                mobileColumns={6}
                mobileOffset={0}
                offset={1}
              >
                <ProductSelect
                  onUpdate={[Function]}
                  options={Array []}
                  placeholder="all.productTypes / Category / {}"
                  value=""
                />
              </column__Column>
              <column__Column
                columns={7}
                extraStyles={
                  Array [
                    "z-index:1;",
                    "box-sizing:border-box;",
                    " ",
                    "@media (min-width:",
                    "1024",
                    "px){",
                    "padding-left:15px;",
                    "}",
                  ]
                }
                mobileColumns={6}
              >
                <ProductSelect
                  onUpdate={[Function]}
                  options={Array []}
                  placeholder="all.collections / Room / {}"
                  upper={true}
                  value=""
                />
              </column__Column>
            </row__Row>,
            <row__Row
              extraStyles={
                Array [
                  "margin-bottom:60px;",
                  "@media (min-width:",
                  "320",
                  "px){",
                  "width:100%;",
                  "}",
                ]
              }
            >
              <column__Column
                columns={14}
                offset={1}
              >
                <Loader
                  isActive={true}
                />
              </column__Column>
            </row__Row>,
            <row__Row
              extraStyles={
                Array [
                  "margin-bottom:90px;display:flex;align-items:center;flex-direction:column;",
                  "@media (min-width:",
                  "320",
                  "px){",
                  "margin-bottom:140px;",
                  "}",
                ]
              }
            >
              <components__Button
                noActive={true}
                onClick={[Function]}
              >
                <FormattedMessage
                  defaultMessage="Load More"
                  id="all.loadMore"
                  values={Object {}}
                />
              </components__Button>
            </row__Row>,
          ],
        },
        "ref": null,
        "rendered": Array [
          Object {
            "instance": null,
            "key": undefined,
            "nodeType": "class",
            "props": Object {
              "children": <HeroSlider
                data={Immutable.Map {}}
              />,
              "extraStyles": Array [
                "margin-bottom:-90px;width:100%;",
              ],
            },
            "ref": null,
            "rendered": Object {
              "instance": null,
              "key": undefined,
              "nodeType": "class",
              "props": Object {
                "data": Immutable.Map {},
              },
              "ref": null,
              "rendered": null,
              "type": [Function],
            },
            "type": [Function],
          },
          Object {
            "instance": null,
            "key": undefined,
            "nodeType": "class",
            "props": Object {
              "children": <column__Column
                columns={6}
                offset={2}
              >
                <allstyles__InfoHeader>
                  <FormattedMessage
                    defaultMessage="Select the variant that fits your space. Bespoke options available."
                    id="all.info"
                    values={Object {}}
                  />
                </allstyles__InfoHeader>
              </column__Column>,
            },
            "ref": null,
            "rendered": Object {
              "instance": null,
              "key": undefined,
              "nodeType": "class",
              "props": Object {
                "children": <allstyles__InfoHeader>
                  <FormattedMessage
                    defaultMessage="Select the variant that fits your space. Bespoke options available."
                    id="all.info"
                    values={Object {}}
                  />
                </allstyles__InfoHeader>,
                "columns": 6,
                "offset": 2,
              },
              "ref": null,
              "rendered": Object {
                "instance": null,
                "key": undefined,
                "nodeType": "class",
                "props": Object {
                  "children": <FormattedMessage
                    defaultMessage="Select the variant that fits your space. Bespoke options available."
                    id="all.info"
                    values={Object {}}
                  />,
                },
                "ref": null,
                "rendered": Object {
                  "instance": null,
                  "key": undefined,
                  "nodeType": "class",
                  "props": Object {
                    "defaultMessage": "Select the variant that fits your space. Bespoke options available.",
                    "id": "all.info",
                    "values": Object {},
                  },
                  "ref": null,
                  "rendered": null,
                  "type": [Function],
                },
                "type": [Function],
              },
              "type": [Function],
            },
            "type": [Function],
          },
          Object {
            "instance": null,
            "key": undefined,
            "nodeType": "class",
            "props": Object {
              "children": Array [
                <column__Column
                  columns={7}
                  extraStyles={
                    Array [
                      "z-index:2;",
                      "box-sizing:border-box;",
                      " ",
                      "@media (min-width:",
                      "1024",
                      "px){",
                      "padding-right:15px;",
                      "}",
                    ]
                  }
                  mobileColumns={6}
                  mobileOffset={0}
                  offset={1}
                >
                  <ProductSelect
                    onUpdate={[Function]}
                    options={Array []}
                    placeholder="all.productTypes / Category / {}"
                    value=""
                  />
                </column__Column>,
                <column__Column
                  columns={7}
                  extraStyles={
                    Array [
                      "z-index:1;",
                      "box-sizing:border-box;",
                      " ",
                      "@media (min-width:",
                      "1024",
                      "px){",
                      "padding-left:15px;",
                      "}",
                    ]
                  }
                  mobileColumns={6}
                >
                  <ProductSelect
                    onUpdate={[Function]}
                    options={Array []}
                    placeholder="all.collections / Room / {}"
                    upper={true}
                    value=""
                  />
                </column__Column>,
              ],
              "extraStyles": Array [
                "margin-bottom:60px;flex-wrap:wrap;z-index:2;",
              ],
            },
            "ref": null,
            "rendered": Array [
              Object {
                "instance": null,
                "key": undefined,
                "nodeType": "class",
                "props": Object {
                  "children": <ProductSelect
                    onUpdate={[Function]}
                    options={Array []}
                    placeholder="all.productTypes / Category / {}"
                    value=""
                  />,
                  "columns": 7,
                  "extraStyles": Array [
                    "z-index:2;",
                    "box-sizing:border-box;",
                    " ",
                    "@media (min-width:",
                    "1024",
                    "px){",
                    "padding-right:15px;",
                    "}",
                  ],
                  "mobileColumns": 6,
                  "mobileOffset": 0,
                  "offset": 1,
                },
                "ref": null,
                "rendered": Object {
                  "instance": null,
                  "key": undefined,
                  "nodeType": "class",
                  "props": Object {
                    "onUpdate": [Function],
                    "options": Array [],
                    "placeholder": "all.productTypes / Category / {}",
                    "value": "",
                  },
                  "ref": null,
                  "rendered": null,
                  "type": [Function],
                },
                "type": [Function],
              },
              Object {
                "instance": null,
                "key": undefined,
                "nodeType": "class",
                "props": Object {
                  "children": <ProductSelect
                    onUpdate={[Function]}
                    options={Array []}
                    placeholder="all.collections / Room / {}"
                    upper={true}
                    value=""
                  />,
                  "columns": 7,
                  "extraStyles": Array [
                    "z-index:1;",
                    "box-sizing:border-box;",
                    " ",
                    "@media (min-width:",
                    "1024",
                    "px){",
                    "padding-left:15px;",
                    "}",
                  ],
                  "mobileColumns": 6,
                },
                "ref": null,
                "rendered": Object {
                  "instance": null,
                  "key": undefined,
                  "nodeType": "class",
                  "props": Object {
                    "onUpdate": [Function],
                    "options": Array [],
                    "placeholder": "all.collections / Room / {}",
                    "upper": true,
                    "value": "",
                  },
                  "ref": null,
                  "rendered": null,
                  "type": [Function],
                },
                "type": [Function],
              },
            ],
            "type": [Function],
          },
          Object {
            "instance": null,
            "key": undefined,
            "nodeType": "class",
            "props": Object {
              "children": <column__Column
                columns={14}
                offset={1}
              >
                <Loader
                  isActive={true}
                />
              </column__Column>,
              "extraStyles": Array [
                "margin-bottom:60px;",
                "@media (min-width:",
                "320",
                "px){",
                "width:100%;",
                "}",
              ],
            },
            "ref": null,
            "rendered": Object {
              "instance": null,
              "key": undefined,
              "nodeType": "class",
              "props": Object {
                "children": <Loader
                  isActive={true}
                />,
                "columns": 14,
                "offset": 1,
              },
              "ref": null,
              "rendered": Object {
                "instance": null,
                "key": undefined,
                "nodeType": "class",
                "props": Object {
                  "isActive": true,
                },
                "ref": null,
                "rendered": null,
                "type": [Function],
              },
              "type": [Function],
            },
            "type": [Function],
          },
          Object {
            "instance": null,
            "key": undefined,
            "nodeType": "class",
            "props": Object {
              "children": <components__Button
                noActive={true}
                onClick={[Function]}
              >
                <FormattedMessage
                  defaultMessage="Load More"
                  id="all.loadMore"
                  values={Object {}}
                />
              </components__Button>,
              "extraStyles": Array [
                "margin-bottom:90px;display:flex;align-items:center;flex-direction:column;",
                "@media (min-width:",
                "320",
                "px){",
                "margin-bottom:140px;",
                "}",
              ],
            },
            "ref": null,
            "rendered": Object {
              "instance": null,
              "key": undefined,
              "nodeType": "class",
              "props": Object {
                "children": <FormattedMessage
                  defaultMessage="Load More"
                  id="all.loadMore"
                  values={Object {}}
                />,
                "noActive": true,
                "onClick": [Function],
              },
              "ref": null,
              "rendered": Object {
                "instance": null,
                "key": undefined,
                "nodeType": "class",
                "props": Object {
                  "defaultMessage": "Load More",
                  "id": "all.loadMore",
                  "values": Object {},
                },
                "ref": null,
                "rendered": null,
                "type": [Function],
              },
              "type": [Function],
            },
            "type": [Function],
          },
        ],
        "type": [Function],
      },
    ],
    "type": "div",
  },
  Symbol(enzyme.__nodes__): Array [
    Object {
      "instance": null,
      "key": undefined,
      "nodeType": "host",
      "props": Object {
        "children": Array [
          <WindowScroll
            header={false}
            onScroll={[Function]}
            throttle={true}
          />,
          <section__Section>
            <row__Row
              extraStyles={
                Array [
                  "margin-bottom:-90px;width:100%;",
                ]
              }
            >
              <HeroSlider
                data={Immutable.Map {}}
              />
            </row__Row>
            <row__Row>
              <column__Column
                columns={6}
                offset={2}
              >
                <allstyles__InfoHeader>
                  <FormattedMessage
                    defaultMessage="Select the variant that fits your space. Bespoke options available."
                    id="all.info"
                    values={Object {}}
                  />
                </allstyles__InfoHeader>
              </column__Column>
            </row__Row>
            <row__Row
              extraStyles={
                Array [
                  "margin-bottom:60px;flex-wrap:wrap;z-index:2;",
                ]
              }
            >
              <column__Column
                columns={7}
                extraStyles={
                  Array [
                    "z-index:2;",
                    "box-sizing:border-box;",
                    " ",
                    "@media (min-width:",
                    "1024",
                    "px){",
                    "padding-right:15px;",
                    "}",
                  ]
                }
                mobileColumns={6}
                mobileOffset={0}
                offset={1}
              >
                <ProductSelect
                  onUpdate={[Function]}
                  options={Array []}
                  placeholder="all.productTypes / Category / {}"
                  value=""
                />
              </column__Column>
              <column__Column
                columns={7}
                extraStyles={
                  Array [
                    "z-index:1;",
                    "box-sizing:border-box;",
                    " ",
                    "@media (min-width:",
                    "1024",
                    "px){",
                    "padding-left:15px;",
                    "}",
                  ]
                }
                mobileColumns={6}
              >
                <ProductSelect
                  onUpdate={[Function]}
                  options={Array []}
                  placeholder="all.collections / Room / {}"
                  upper={true}
                  value=""
                />
              </column__Column>
            </row__Row>
            <row__Row
              extraStyles={
                Array [
                  "margin-bottom:60px;",
                  "@media (min-width:",
                  "320",
                  "px){",
                  "width:100%;",
                  "}",
                ]
              }
            >
              <column__Column
                columns={14}
                offset={1}
              >
                <Loader
                  isActive={true}
                />
              </column__Column>
            </row__Row>
            <row__Row
              extraStyles={
                Array [
                  "margin-bottom:90px;display:flex;align-items:center;flex-direction:column;",
                  "@media (min-width:",
                  "320",
                  "px){",
                  "margin-bottom:140px;",
                  "}",
                ]
              }
            >
              <components__Button
                noActive={true}
                onClick={[Function]}
              >
                <FormattedMessage
                  defaultMessage="Load More"
                  id="all.loadMore"
                  values={Object {}}
                />
              </components__Button>
            </row__Row>
          </section__Section>,
        ],
      },
      "ref": null,
      "rendered": Array [
        Object {
          "instance": null,
          "key": undefined,
          "nodeType": "class",
          "props": Object {
            "header": false,
            "onScroll": [Function],
            "throttle": true,
          },
          "ref": null,
          "rendered": null,
          "type": [Function],
        },
        Object {
          "instance": null,
          "key": undefined,
          "nodeType": "class",
          "props": Object {
            "children": Array [
              <row__Row
                extraStyles={
                  Array [
                    "margin-bottom:-90px;width:100%;",
                  ]
                }
              >
                <HeroSlider
                  data={Immutable.Map {}}
                />
              </row__Row>,
              <row__Row>
                <column__Column
                  columns={6}
                  offset={2}
                >
                  <allstyles__InfoHeader>
                    <FormattedMessage
                      defaultMessage="Select the variant that fits your space. Bespoke options available."
                      id="all.info"
                      values={Object {}}
                    />
                  </allstyles__InfoHeader>
                </column__Column>
              </row__Row>,
              <row__Row
                extraStyles={
                  Array [
                    "margin-bottom:60px;flex-wrap:wrap;z-index:2;",
                  ]
                }
              >
                <column__Column
                  columns={7}
                  extraStyles={
                    Array [
                      "z-index:2;",
                      "box-sizing:border-box;",
                      " ",
                      "@media (min-width:",
                      "1024",
                      "px){",
                      "padding-right:15px;",
                      "}",
                    ]
                  }
                  mobileColumns={6}
                  mobileOffset={0}
                  offset={1}
                >
                  <ProductSelect
                    onUpdate={[Function]}
                    options={Array []}
                    placeholder="all.productTypes / Category / {}"
                    value=""
                  />
                </column__Column>
                <column__Column
                  columns={7}
                  extraStyles={
                    Array [
                      "z-index:1;",
                      "box-sizing:border-box;",
                      " ",
                      "@media (min-width:",
                      "1024",
                      "px){",
                      "padding-left:15px;",
                      "}",
                    ]
                  }
                  mobileColumns={6}
                >
                  <ProductSelect
                    onUpdate={[Function]}
                    options={Array []}
                    placeholder="all.collections / Room / {}"
                    upper={true}
                    value=""
                  />
                </column__Column>
              </row__Row>,
              <row__Row
                extraStyles={
                  Array [
                    "margin-bottom:60px;",
                    "@media (min-width:",
                    "320",
                    "px){",
                    "width:100%;",
                    "}",
                  ]
                }
              >
                <column__Column
                  columns={14}
                  offset={1}
                >
                  <Loader
                    isActive={true}
                  />
                </column__Column>
              </row__Row>,
              <row__Row
                extraStyles={
                  Array [
                    "margin-bottom:90px;display:flex;align-items:center;flex-direction:column;",
                    "@media (min-width:",
                    "320",
                    "px){",
                    "margin-bottom:140px;",
                    "}",
                  ]
                }
              >
                <components__Button
                  noActive={true}
                  onClick={[Function]}
                >
                  <FormattedMessage
                    defaultMessage="Load More"
                    id="all.loadMore"
                    values={Object {}}
                  />
                </components__Button>
              </row__Row>,
            ],
          },
          "ref": null,
          "rendered": Array [
            Object {
              "instance": null,
              "key": undefined,
              "nodeType": "class",
              "props": Object {
                "children": <HeroSlider
                  data={Immutable.Map {}}
                />,
                "extraStyles": Array [
                  "margin-bottom:-90px;width:100%;",
                ],
              },
              "ref": null,
              "rendered": Object {
                "instance": null,
                "key": undefined,
                "nodeType": "class",
                "props": Object {
                  "data": Immutable.Map {},
                },
                "ref": null,
                "rendered": null,
                "type": [Function],
              },
              "type": [Function],
            },
            Object {
              "instance": null,
              "key": undefined,
              "nodeType": "class",
              "props": Object {
                "children": <column__Column
                  columns={6}
                  offset={2}
                >
                  <allstyles__InfoHeader>
                    <FormattedMessage
                      defaultMessage="Select the variant that fits your space. Bespoke options available."
                      id="all.info"
                      values={Object {}}
                    />
                  </allstyles__InfoHeader>
                </column__Column>,
              },
              "ref": null,
              "rendered": Object {
                "instance": null,
                "key": undefined,
                "nodeType": "class",
                "props": Object {
                  "children": <allstyles__InfoHeader>
                    <FormattedMessage
                      defaultMessage="Select the variant that fits your space. Bespoke options available."
                      id="all.info"
                      values={Object {}}
                    />
                  </allstyles__InfoHeader>,
                  "columns": 6,
                  "offset": 2,
                },
                "ref": null,
                "rendered": Object {
                  "instance": null,
                  "key": undefined,
                  "nodeType": "class",
                  "props": Object {
                    "children": <FormattedMessage
                      defaultMessage="Select the variant that fits your space. Bespoke options available."
                      id="all.info"
                      values={Object {}}
                    />,
                  },
                  "ref": null,
                  "rendered": Object {
                    "instance": null,
                    "key": undefined,
                    "nodeType": "class",
                    "props": Object {
                      "defaultMessage": "Select the variant that fits your space. Bespoke options available.",
                      "id": "all.info",
                      "values": Object {},
                    },
                    "ref": null,
                    "rendered": null,
                    "type": [Function],
                  },
                  "type": [Function],
                },
                "type": [Function],
              },
              "type": [Function],
            },
            Object {
              "instance": null,
              "key": undefined,
              "nodeType": "class",
              "props": Object {
                "children": Array [
                  <column__Column
                    columns={7}
                    extraStyles={
                      Array [
                        "z-index:2;",
                        "box-sizing:border-box;",
                        " ",
                        "@media (min-width:",
                        "1024",
                        "px){",
                        "padding-right:15px;",
                        "}",
                      ]
                    }
                    mobileColumns={6}
                    mobileOffset={0}
                    offset={1}
                  >
                    <ProductSelect
                      onUpdate={[Function]}
                      options={Array []}
                      placeholder="all.productTypes / Category / {}"
                      value=""
                    />
                  </column__Column>,
                  <column__Column
                    columns={7}
                    extraStyles={
                      Array [
                        "z-index:1;",
                        "box-sizing:border-box;",
                        " ",
                        "@media (min-width:",
                        "1024",
                        "px){",
                        "padding-left:15px;",
                        "}",
                      ]
                    }
                    mobileColumns={6}
                  >
                    <ProductSelect
                      onUpdate={[Function]}
                      options={Array []}
                      placeholder="all.collections / Room / {}"
                      upper={true}
                      value=""
                    />
                  </column__Column>,
                ],
                "extraStyles": Array [
                  "margin-bottom:60px;flex-wrap:wrap;z-index:2;",
                ],
              },
              "ref": null,
              "rendered": Array [
                Object {
                  "instance": null,
                  "key": undefined,
                  "nodeType": "class",
                  "props": Object {
                    "children": <ProductSelect
                      onUpdate={[Function]}
                      options={Array []}
                      placeholder="all.productTypes / Category / {}"
                      value=""
                    />,
                    "columns": 7,
                    "extraStyles": Array [
                      "z-index:2;",
                      "box-sizing:border-box;",
                      " ",
                      "@media (min-width:",
                      "1024",
                      "px){",
                      "padding-right:15px;",
                      "}",
                    ],
                    "mobileColumns": 6,
                    "mobileOffset": 0,
                    "offset": 1,
                  },
                  "ref": null,
                  "rendered": Object {
                    "instance": null,
                    "key": undefined,
                    "nodeType": "class",
                    "props": Object {
                      "onUpdate": [Function],
                      "options": Array [],
                      "placeholder": "all.productTypes / Category / {}",
                      "value": "",
                    },
                    "ref": null,
                    "rendered": null,
                    "type": [Function],
                  },
                  "type": [Function],
                },
                Object {
                  "instance": null,
                  "key": undefined,
                  "nodeType": "class",
                  "props": Object {
                    "children": <ProductSelect
                      onUpdate={[Function]}
                      options={Array []}
                      placeholder="all.collections / Room / {}"
                      upper={true}
                      value=""
                    />,
                    "columns": 7,
                    "extraStyles": Array [
                      "z-index:1;",
                      "box-sizing:border-box;",
                      " ",
                      "@media (min-width:",
                      "1024",
                      "px){",
                      "padding-left:15px;",
                      "}",
                    ],
                    "mobileColumns": 6,
                  },
                  "ref": null,
                  "rendered": Object {
                    "instance": null,
                    "key": undefined,
                    "nodeType": "class",
                    "props": Object {
                      "onUpdate": [Function],
                      "options": Array [],
                      "placeholder": "all.collections / Room / {}",
                      "upper": true,
                      "value": "",
                    },
                    "ref": null,
                    "rendered": null,
                    "type": [Function],
                  },
                  "type": [Function],
                },
              ],
              "type": [Function],
            },
            Object {
              "instance": null,
              "key": undefined,
              "nodeType": "class",
              "props": Object {
                "children": <column__Column
                  columns={14}
                  offset={1}
                >
                  <Loader
                    isActive={true}
                  />
                </column__Column>,
                "extraStyles": Array [
                  "margin-bottom:60px;",
                  "@media (min-width:",
                  "320",
                  "px){",
                  "width:100%;",
                  "}",
                ],
              },
              "ref": null,
              "rendered": Object {
                "instance": null,
                "key": undefined,
                "nodeType": "class",
                "props": Object {
                  "children": <Loader
                    isActive={true}
                  />,
                  "columns": 14,
                  "offset": 1,
                },
                "ref": null,
                "rendered": Object {
                  "instance": null,
                  "key": undefined,
                  "nodeType": "class",
                  "props": Object {
                    "isActive": true,
                  },
                  "ref": null,
                  "rendered": null,
                  "type": [Function],
                },
                "type": [Function],
              },
              "type": [Function],
            },
            Object {
              "instance": null,
              "key": undefined,
              "nodeType": "class",
              "props": Object {
                "children": <components__Button
                  noActive={true}
                  onClick={[Function]}
                >
                  <FormattedMessage
                    defaultMessage="Load More"
                    id="all.loadMore"
                    values={Object {}}
                  />
                </components__Button>,
                "extraStyles": Array [
                  "margin-bottom:90px;display:flex;align-items:center;flex-direction:column;",
                  "@media (min-width:",
                  "320",
                  "px){",
                  "margin-bottom:140px;",
                  "}",
                ],
              },
              "ref": null,
              "rendered": Object {
                "instance": null,
                "key": undefined,
                "nodeType": "class",
                "props": Object {
                  "children": <FormattedMessage
                    defaultMessage="Load More"
                    id="all.loadMore"
                    values={Object {}}
                  />,
                  "noActive": true,
                  "onClick": [Function],
                },
                "ref": null,
                "rendered": Object {
                  "instance": null,
                  "key": undefined,
                  "nodeType": "class",
                  "props": Object {
                    "defaultMessage": "Load More",
                    "id": "all.loadMore",
                    "values": Object {},
                  },
                  "ref": null,
                  "rendered": null,
                  "type": [Function],
                },
                "type": [Function],
              },
              "type": [Function],
            },
          ],
          "type": [Function],
        },
      ],
      "type": "div",
    },
  ],
  Symbol(enzyme.__options__): Object {
    "adapter": ReactSixteenAdapter {
      "options": Object {
        "enableComponentDidUpdateOnSetState": true,
      },
    },
  },
}
`;
