// Jest Snapshot v1, https://goo.gl/fbAQLP

exports[`<Video /> should render correctly 1`] = `
ShallowWrapper {
  "length": 1,
  Symbol(enzyme.__root__): [Circular],
  Symbol(enzyme.__unrendered__): <Video />,
  Symbol(enzyme.__renderer__): Object {
    "batchedUpdates": [Function],
    "getNode": [Function],
    "render": [Function],
    "simulateEvent": [Function],
    "unmount": [Function],
  },
  Symbol(enzyme.__node__): Object {
    "instance": null,
    "key": undefined,
    "nodeType": "class",
    "props": Object {
      "children": Array [
        <videostyles__VideoOverLay
          isVisible={true}
        >
          <videostyles__PlayButton
            onClick={[Function]}
          >
            <videostyles__PlayIcon />
          </videostyles__PlayButton>
        </videostyles__VideoOverLay>,
        <videostyles__YouTubeWrapper
          isVisible={true}
        >
          <YouTube
            onEnd={[Function]}
            onError={[Function]}
            onPause={[Function]}
            onPlay={[Function]}
            onPlaybackQualityChange={[Function]}
            onPlaybackRateChange={[Function]}
            onReady={[Function]}
            onStateChange={[Function]}
            opts={
              Object {
                "height": "630px",
                "playerVars": Object {
                  "autoplay": 0,
                  "rel": 0,
                  "showinfo": 0,
                },
                "width": "100%",
              }
            }
            videoId="OjN-uFxPe7E"
          />
        </videostyles__YouTubeWrapper>,
      ],
    },
    "ref": null,
    "rendered": Array [
      Object {
        "instance": null,
        "key": undefined,
        "nodeType": "class",
        "props": Object {
          "children": <videostyles__PlayButton
            onClick={[Function]}
          >
            <videostyles__PlayIcon />
          </videostyles__PlayButton>,
          "isVisible": true,
        },
        "ref": null,
        "rendered": Object {
          "instance": null,
          "key": undefined,
          "nodeType": "class",
          "props": Object {
            "children": <videostyles__PlayIcon />,
            "onClick": [Function],
          },
          "ref": null,
          "rendered": Object {
            "instance": null,
            "key": undefined,
            "nodeType": "class",
            "props": Object {},
            "ref": null,
            "rendered": null,
            "type": [Function],
          },
          "type": [Function],
        },
        "type": [Function],
      },
      Object {
        "instance": null,
        "key": undefined,
        "nodeType": "class",
        "props": Object {
          "children": <YouTube
            onEnd={[Function]}
            onError={[Function]}
            onPause={[Function]}
            onPlay={[Function]}
            onPlaybackQualityChange={[Function]}
            onPlaybackRateChange={[Function]}
            onReady={[Function]}
            onStateChange={[Function]}
            opts={
              Object {
                "height": "630px",
                "playerVars": Object {
                  "autoplay": 0,
                  "rel": 0,
                  "showinfo": 0,
                },
                "width": "100%",
              }
            }
            videoId="OjN-uFxPe7E"
          />,
          "isVisible": true,
        },
        "ref": null,
        "rendered": Object {
          "instance": null,
          "key": undefined,
          "nodeType": "class",
          "props": Object {
            "onEnd": [Function],
            "onError": [Function],
            "onPause": [Function],
            "onPlay": [Function],
            "onPlaybackQualityChange": [Function],
            "onPlaybackRateChange": [Function],
            "onReady": [Function],
            "onStateChange": [Function],
            "opts": Object {
              "height": "630px",
              "playerVars": Object {
                "autoplay": 0,
                "rel": 0,
                "showinfo": 0,
              },
              "width": "100%",
            },
            "videoId": "OjN-uFxPe7E",
          },
          "ref": null,
          "rendered": null,
          "type": [Function],
        },
        "type": [Function],
      },
    ],
    "type": [Function],
  },
  Symbol(enzyme.__nodes__): Array [
    Object {
      "instance": null,
      "key": undefined,
      "nodeType": "class",
      "props": Object {
        "children": Array [
          <videostyles__VideoOverLay
            isVisible={true}
          >
            <videostyles__PlayButton
              onClick={[Function]}
            >
              <videostyles__PlayIcon />
            </videostyles__PlayButton>
          </videostyles__VideoOverLay>,
          <videostyles__YouTubeWrapper
            isVisible={true}
          >
            <YouTube
              onEnd={[Function]}
              onError={[Function]}
              onPause={[Function]}
              onPlay={[Function]}
              onPlaybackQualityChange={[Function]}
              onPlaybackRateChange={[Function]}
              onReady={[Function]}
              onStateChange={[Function]}
              opts={
                Object {
                  "height": "630px",
                  "playerVars": Object {
                    "autoplay": 0,
                    "rel": 0,
                    "showinfo": 0,
                  },
                  "width": "100%",
                }
              }
              videoId="OjN-uFxPe7E"
            />
          </videostyles__YouTubeWrapper>,
        ],
      },
      "ref": null,
      "rendered": Array [
        Object {
          "instance": null,
          "key": undefined,
          "nodeType": "class",
          "props": Object {
            "children": <videostyles__PlayButton
              onClick={[Function]}
            >
              <videostyles__PlayIcon />
            </videostyles__PlayButton>,
            "isVisible": true,
          },
          "ref": null,
          "rendered": Object {
            "instance": null,
            "key": undefined,
            "nodeType": "class",
            "props": Object {
              "children": <videostyles__PlayIcon />,
              "onClick": [Function],
            },
            "ref": null,
            "rendered": Object {
              "instance": null,
              "key": undefined,
              "nodeType": "class",
              "props": Object {},
              "ref": null,
              "rendered": null,
              "type": [Function],
            },
            "type": [Function],
          },
          "type": [Function],
        },
        Object {
          "instance": null,
          "key": undefined,
          "nodeType": "class",
          "props": Object {
            "children": <YouTube
              onEnd={[Function]}
              onError={[Function]}
              onPause={[Function]}
              onPlay={[Function]}
              onPlaybackQualityChange={[Function]}
              onPlaybackRateChange={[Function]}
              onReady={[Function]}
              onStateChange={[Function]}
              opts={
                Object {
                  "height": "630px",
                  "playerVars": Object {
                    "autoplay": 0,
                    "rel": 0,
                    "showinfo": 0,
                  },
                  "width": "100%",
                }
              }
              videoId="OjN-uFxPe7E"
            />,
            "isVisible": true,
          },
          "ref": null,
          "rendered": Object {
            "instance": null,
            "key": undefined,
            "nodeType": "class",
            "props": Object {
              "onEnd": [Function],
              "onError": [Function],
              "onPause": [Function],
              "onPlay": [Function],
              "onPlaybackQualityChange": [Function],
              "onPlaybackRateChange": [Function],
              "onReady": [Function],
              "onStateChange": [Function],
              "opts": Object {
                "height": "630px",
                "playerVars": Object {
                  "autoplay": 0,
                  "rel": 0,
                  "showinfo": 0,
                },
                "width": "100%",
              },
              "videoId": "OjN-uFxPe7E",
            },
            "ref": null,
            "rendered": null,
            "type": [Function],
          },
          "type": [Function],
        },
      ],
      "type": [Function],
    },
  ],
  Symbol(enzyme.__options__): Object {
    "adapter": ReactSixteenAdapter {
      "options": Object {
        "enableComponentDidUpdateOnSetState": true,
      },
    },
  },
}
`;
