// Jest Snapshot v1, https://goo.gl/fbAQLP

exports[`<RadioSquares /> should render correctly 1`] = `
ShallowWrapper {
  "length": 1,
  Symbol(enzyme.__root__): [Circular],
  Symbol(enzyme.__unrendered__): <RadioSquaresComponent
    intl={
      Object {
        "formatHTMLMessage": [Function],
        "formatMessage": [Function],
      }
    }
    items={
      Array [
        Object {
          "id": "id1",
          "message": Object {
            "defaultMessage": "id1",
            "id": "id1",
          },
        },
        Object {
          "id": "id2",
          "message": Object {
            "defaultMessage": "id2",
            "id": "id2",
          },
        },
      ]
    }
    onChange={[Function]}
    value=""
  />,
  Symbol(enzyme.__renderer__): Object {
    "batchedUpdates": [Function],
    "getNode": [Function],
    "render": [Function],
    "simulateEvent": [Function],
    "unmount": [Function],
  },
  Symbol(enzyme.__node__): Object {
    "instance": null,
    "key": undefined,
    "nodeType": "class",
    "props": Object {
      "children": Array [
        <radioSquaresstyles__RadioWrapper>
          <radioSquaresstyles__Text
            onClick={[Function]}
          >
            id1 / id1 / {}
          </radioSquaresstyles__Text>
          <forms__SquareButton
            isActive={false}
            onClick={[Function]}
            type="button"
          />
        </radioSquaresstyles__RadioWrapper>,
        <radioSquaresstyles__RadioWrapper>
          <radioSquaresstyles__Text
            onClick={[Function]}
          >
            id2 / id2 / {}
          </radioSquaresstyles__Text>
          <forms__SquareButton
            isActive={false}
            onClick={[Function]}
            type="button"
          />
        </radioSquaresstyles__RadioWrapper>,
      ],
    },
    "ref": null,
    "rendered": Array [
      Object {
        "instance": null,
        "key": "id1",
        "nodeType": "class",
        "props": Object {
          "children": Array [
            <radioSquaresstyles__Text
              onClick={[Function]}
            >
              id1 / id1 / {}
            </radioSquaresstyles__Text>,
            <forms__SquareButton
              isActive={false}
              onClick={[Function]}
              type="button"
            />,
          ],
        },
        "ref": null,
        "rendered": Array [
          Object {
            "instance": null,
            "key": undefined,
            "nodeType": "class",
            "props": Object {
              "children": "id1 / id1 / {}",
              "onClick": [Function],
            },
            "ref": null,
            "rendered": "id1 / id1 / {}",
            "type": [Function],
          },
          Object {
            "instance": null,
            "key": "id1",
            "nodeType": "class",
            "props": Object {
              "isActive": false,
              "onClick": [Function],
              "type": "button",
            },
            "ref": null,
            "rendered": null,
            "type": [Function],
          },
        ],
        "type": [Function],
      },
      Object {
        "instance": null,
        "key": "id2",
        "nodeType": "class",
        "props": Object {
          "children": Array [
            <radioSquaresstyles__Text
              onClick={[Function]}
            >
              id2 / id2 / {}
            </radioSquaresstyles__Text>,
            <forms__SquareButton
              isActive={false}
              onClick={[Function]}
              type="button"
            />,
          ],
        },
        "ref": null,
        "rendered": Array [
          Object {
            "instance": null,
            "key": undefined,
            "nodeType": "class",
            "props": Object {
              "children": "id2 / id2 / {}",
              "onClick": [Function],
            },
            "ref": null,
            "rendered": "id2 / id2 / {}",
            "type": [Function],
          },
          Object {
            "instance": null,
            "key": "id2",
            "nodeType": "class",
            "props": Object {
              "isActive": false,
              "onClick": [Function],
              "type": "button",
            },
            "ref": null,
            "rendered": null,
            "type": [Function],
          },
        ],
        "type": [Function],
      },
    ],
    "type": [Function],
  },
  Symbol(enzyme.__nodes__): Array [
    Object {
      "instance": null,
      "key": undefined,
      "nodeType": "class",
      "props": Object {
        "children": Array [
          <radioSquaresstyles__RadioWrapper>
            <radioSquaresstyles__Text
              onClick={[Function]}
            >
              id1 / id1 / {}
            </radioSquaresstyles__Text>
            <forms__SquareButton
              isActive={false}
              onClick={[Function]}
              type="button"
            />
          </radioSquaresstyles__RadioWrapper>,
          <radioSquaresstyles__RadioWrapper>
            <radioSquaresstyles__Text
              onClick={[Function]}
            >
              id2 / id2 / {}
            </radioSquaresstyles__Text>
            <forms__SquareButton
              isActive={false}
              onClick={[Function]}
              type="button"
            />
          </radioSquaresstyles__RadioWrapper>,
        ],
      },
      "ref": null,
      "rendered": Array [
        Object {
          "instance": null,
          "key": "id1",
          "nodeType": "class",
          "props": Object {
            "children": Array [
              <radioSquaresstyles__Text
                onClick={[Function]}
              >
                id1 / id1 / {}
              </radioSquaresstyles__Text>,
              <forms__SquareButton
                isActive={false}
                onClick={[Function]}
                type="button"
              />,
            ],
          },
          "ref": null,
          "rendered": Array [
            Object {
              "instance": null,
              "key": undefined,
              "nodeType": "class",
              "props": Object {
                "children": "id1 / id1 / {}",
                "onClick": [Function],
              },
              "ref": null,
              "rendered": "id1 / id1 / {}",
              "type": [Function],
            },
            Object {
              "instance": null,
              "key": "id1",
              "nodeType": "class",
              "props": Object {
                "isActive": false,
                "onClick": [Function],
                "type": "button",
              },
              "ref": null,
              "rendered": null,
              "type": [Function],
            },
          ],
          "type": [Function],
        },
        Object {
          "instance": null,
          "key": "id2",
          "nodeType": "class",
          "props": Object {
            "children": Array [
              <radioSquaresstyles__Text
                onClick={[Function]}
              >
                id2 / id2 / {}
              </radioSquaresstyles__Text>,
              <forms__SquareButton
                isActive={false}
                onClick={[Function]}
                type="button"
              />,
            ],
          },
          "ref": null,
          "rendered": Array [
            Object {
              "instance": null,
              "key": undefined,
              "nodeType": "class",
              "props": Object {
                "children": "id2 / id2 / {}",
                "onClick": [Function],
              },
              "ref": null,
              "rendered": "id2 / id2 / {}",
              "type": [Function],
            },
            Object {
              "instance": null,
              "key": "id2",
              "nodeType": "class",
              "props": Object {
                "isActive": false,
                "onClick": [Function],
                "type": "button",
              },
              "ref": null,
              "rendered": null,
              "type": [Function],
            },
          ],
          "type": [Function],
        },
      ],
      "type": [Function],
    },
  ],
  Symbol(enzyme.__options__): Object {
    "adapter": ReactSixteenAdapter {
      "options": Object {
        "enableComponentDidUpdateOnSetState": true,
      },
    },
  },
}
`;
