// Jest Snapshot v1, https://goo.gl/fbAQLP

exports[`<Product /> should render correctly 1`] = `
ShallowWrapper {
  "length": 1,
  Symbol(enzyme.__root__): [Circular],
  Symbol(enzyme.__unrendered__): <ProductComponent
    addItem={[Function]}
    addProjectItem={[Function]}
    collectionTitle=""
    data={
      Object {
        "image": Object {
          "originalSrc": "originalSrc",
        },
        "title": "title",
        "variantId": "123",
      }
    }
    fetchProject={[Function]}
    intl={
      Object {
        "formatHTMLMessage": [Function],
        "formatMessage": [Function],
      }
    }
    isProductInProject={Immutable.Map {}}
    metafields={
      Immutable.Map {
        "deliveryDate": "low",
      }
    }
    productId="12"
    removeProjectItem={[Function]}
    title=""
  />,
  Symbol(enzyme.__renderer__): Object {
    "batchedUpdates": [Function],
    "getNode": [Function],
    "render": [Function],
    "simulateEvent": [Function],
    "unmount": [Function],
  },
  Symbol(enzyme.__node__): Object {
    "instance": null,
    "key": undefined,
    "nodeType": "class",
    "props": Object {
      "children": Array [
        <WindowScroll
          header={false}
          onScroll={[Function]}
          throttle={false}
        />,
        <HelmetWrapper
          defer={true}
          encodeSpecialCharacters={true}
          meta={
            Array [
              Object {
                "content": undefined,
                "name": "description",
              },
              Object {
                "content": "title",
                "property": "og:title",
              },
              Object {
                "content": "originalSrc",
                "property": "og:image",
              },
              Object {
                "content": undefined,
                "property": "og:description",
              },
              Object {
                "content": "title",
                "itemprop": "name",
              },
              Object {
                "content": "originalSrc",
                "itemprop": "image",
              },
              Object {
                "content": undefined,
                "itemprop": "description",
              },
              Object {
                "content": "summary_large_image",
                "name": "twitter:card",
              },
            ]
          }
          title="title"
        />,
        <row__Row
          extraStyles={
            Array [
              "flex-direction:column;position:relative;z-index:1;",
              "@media (min-width:",
              "1024",
              "px){",
              "flex-direction:row;margin-top:-111px;",
              "}",
            ]
          }
        >
          <column__Column
            columns={8}
            extraStyles={
              Array [
                "max-width:85%;margin-left:-16px;overflow:hidden;z-index:-1;",
                "@media (min-width:",
                "1024",
                "px){",
                "margin:0;min-height:100%;",
                "}",
              ]
            }
            mobileColumns={6}
            mobileOffset={0}
          >
            <Container
              style={
                Object {
                  "display": "flex",
                  "flex": 1,
                  "height": "100%",
                }
              }
            >
              <Sticky
                bottomOffset={0}
                disableCompensation={true}
                disableHardwareAcceleration={false}
                relative={false}
                topOffset={0}
              >
                [Function]
              </Sticky>
            </Container>
          </column__Column>
          <column__Column
            columns={6}
            mobileColumns={6}
            mobileOffset={0}
            offset={1}
          >
            <productstyles__DesktopContent>
              <productstyles__Title
                fixed={true}
                parallaxHeight={87}
              >
                
              </productstyles__Title>
              <productstyles__Variant
                innerRef={[Function]}
              >
                title
              </productstyles__Variant>
            </productstyles__DesktopContent>
            <productstyles__BounceContainer>
              <productstyles__Size />
              <productstyles__Details>
                <productstyles__DescriptionTitle>
                  <FormattedMessage
                    defaultMessage="Details"
                    id="product.details"
                    values={Object {}}
                  />
                </productstyles__DescriptionTitle>
                <productstyles__Description />
              </productstyles__Details>
              <productstyles__Delivery>
                <FormattedHTMLMessage
                  defaultMessage="Estimated delivery time: <strong> { time }</strong>"
                  id="product.delivery"
                  values={
                    Object {
                      "time": undefined,
                    }
                  }
                />
              </productstyles__Delivery>
              <productstyles__UsableRow>
                <Counter
                  center={false}
                  max={9999}
                  min={1}
                  onChange={[Function]}
                  value={1}
                />
                <productstyles__Price>
                  <FormattedMessage
                    defaultMessage="£{ price }"
                    id="product.currency"
                    values={
                      Object {
                        "price": NaN,
                      }
                    }
                  />
                </productstyles__Price>
              </productstyles__UsableRow>
              <productstyles__UsableRow>
                <components__Button
                  extraStyles={
                    Array [
                      "width:calc(100% - 4px);text-align:left;margin-bottom:20px;margin-right:0;",
                      "@media (min-width:",
                      "1440",
                      "px){",
                      "width:245px;margin:0;",
                      "}",
                      " ",
                      "@media (min-width:",
                      "1024",
                      "px){",
                      "margin-bottom:20px;margin-right:0;",
                      "}",
                    ]
                  }
                  noActive={true}
                  onClick={[Function]}
                >
                  <AnimatedText
                    callback={[Function]}
                    successText="product.addedCart / Item added / {}"
                    text="product.addCart / Add to Basket / {}"
                    timeout={3000}
                    waiting={false}
                  />
                  <components__Arrow />
                </components__Button>
                <components__Button
                  extraStyles={
                    Array [
                      "width:calc(100% - 4px);text-align:left;margin-bottom:20px;margin-right:0;",
                      "@media (min-width:",
                      "1440",
                      "px){",
                      "width:245px;margin:0;",
                      "}",
                      " ",
                      "@media (min-width:",
                      "1024",
                      "px){",
                      "margin-bottom:20px;margin-right:0;",
                      "}",
                    ]
                  }
                  noActive={true}
                  onClick={[Function]}
                >
                  product.removeProject / Remove from Project / {}
                  <components__Arrow />
                </components__Button>
              </productstyles__UsableRow>
            </productstyles__BounceContainer>
          </column__Column>
        </row__Row>,
      ],
    },
    "ref": null,
    "rendered": Array [
      Object {
        "instance": null,
        "key": undefined,
        "nodeType": "class",
        "props": Object {
          "header": false,
          "onScroll": [Function],
          "throttle": false,
        },
        "ref": null,
        "rendered": null,
        "type": [Function],
      },
      Object {
        "instance": null,
        "key": undefined,
        "nodeType": "class",
        "props": Object {
          "defer": true,
          "encodeSpecialCharacters": true,
          "meta": Array [
            Object {
              "content": undefined,
              "name": "description",
            },
            Object {
              "content": "title",
              "property": "og:title",
            },
            Object {
              "content": "originalSrc",
              "property": "og:image",
            },
            Object {
              "content": undefined,
              "property": "og:description",
            },
            Object {
              "content": "title",
              "itemprop": "name",
            },
            Object {
              "content": "originalSrc",
              "itemprop": "image",
            },
            Object {
              "content": undefined,
              "itemprop": "description",
            },
            Object {
              "content": "summary_large_image",
              "name": "twitter:card",
            },
          ],
          "title": "title",
        },
        "ref": null,
        "rendered": null,
        "type": [Function],
      },
      Object {
        "instance": null,
        "key": undefined,
        "nodeType": "class",
        "props": Object {
          "children": Array [
            <column__Column
              columns={8}
              extraStyles={
                Array [
                  "max-width:85%;margin-left:-16px;overflow:hidden;z-index:-1;",
                  "@media (min-width:",
                  "1024",
                  "px){",
                  "margin:0;min-height:100%;",
                  "}",
                ]
              }
              mobileColumns={6}
              mobileOffset={0}
            >
              <Container
                style={
                  Object {
                    "display": "flex",
                    "flex": 1,
                    "height": "100%",
                  }
                }
              >
                <Sticky
                  bottomOffset={0}
                  disableCompensation={true}
                  disableHardwareAcceleration={false}
                  relative={false}
                  topOffset={0}
                >
                  [Function]
                </Sticky>
              </Container>
            </column__Column>,
            <column__Column
              columns={6}
              mobileColumns={6}
              mobileOffset={0}
              offset={1}
            >
              <productstyles__DesktopContent>
                <productstyles__Title
                  fixed={true}
                  parallaxHeight={87}
                >
                  
                </productstyles__Title>
                <productstyles__Variant
                  innerRef={[Function]}
                >
                  title
                </productstyles__Variant>
              </productstyles__DesktopContent>
              <productstyles__BounceContainer>
                <productstyles__Size />
                <productstyles__Details>
                  <productstyles__DescriptionTitle>
                    <FormattedMessage
                      defaultMessage="Details"
                      id="product.details"
                      values={Object {}}
                    />
                  </productstyles__DescriptionTitle>
                  <productstyles__Description />
                </productstyles__Details>
                <productstyles__Delivery>
                  <FormattedHTMLMessage
                    defaultMessage="Estimated delivery time: <strong> { time }</strong>"
                    id="product.delivery"
                    values={
                      Object {
                        "time": undefined,
                      }
                    }
                  />
                </productstyles__Delivery>
                <productstyles__UsableRow>
                  <Counter
                    center={false}
                    max={9999}
                    min={1}
                    onChange={[Function]}
                    value={1}
                  />
                  <productstyles__Price>
                    <FormattedMessage
                      defaultMessage="£{ price }"
                      id="product.currency"
                      values={
                        Object {
                          "price": NaN,
                        }
                      }
                    />
                  </productstyles__Price>
                </productstyles__UsableRow>
                <productstyles__UsableRow>
                  <components__Button
                    extraStyles={
                      Array [
                        "width:calc(100% - 4px);text-align:left;margin-bottom:20px;margin-right:0;",
                        "@media (min-width:",
                        "1440",
                        "px){",
                        "width:245px;margin:0;",
                        "}",
                        " ",
                        "@media (min-width:",
                        "1024",
                        "px){",
                        "margin-bottom:20px;margin-right:0;",
                        "}",
                      ]
                    }
                    noActive={true}
                    onClick={[Function]}
                  >
                    <AnimatedText
                      callback={[Function]}
                      successText="product.addedCart / Item added / {}"
                      text="product.addCart / Add to Basket / {}"
                      timeout={3000}
                      waiting={false}
                    />
                    <components__Arrow />
                  </components__Button>
                  <components__Button
                    extraStyles={
                      Array [
                        "width:calc(100% - 4px);text-align:left;margin-bottom:20px;margin-right:0;",
                        "@media (min-width:",
                        "1440",
                        "px){",
                        "width:245px;margin:0;",
                        "}",
                        " ",
                        "@media (min-width:",
                        "1024",
                        "px){",
                        "margin-bottom:20px;margin-right:0;",
                        "}",
                      ]
                    }
                    noActive={true}
                    onClick={[Function]}
                  >
                    product.removeProject / Remove from Project / {}
                    <components__Arrow />
                  </components__Button>
                </productstyles__UsableRow>
              </productstyles__BounceContainer>
            </column__Column>,
          ],
          "extraStyles": Array [
            "flex-direction:column;position:relative;z-index:1;",
            "@media (min-width:",
            "1024",
            "px){",
            "flex-direction:row;margin-top:-111px;",
            "}",
          ],
        },
        "ref": null,
        "rendered": Array [
          Object {
            "instance": null,
            "key": undefined,
            "nodeType": "class",
            "props": Object {
              "children": <Container
                style={
                  Object {
                    "display": "flex",
                    "flex": 1,
                    "height": "100%",
                  }
                }
              >
                <Sticky
                  bottomOffset={0}
                  disableCompensation={true}
                  disableHardwareAcceleration={false}
                  relative={false}
                  topOffset={0}
                >
                  [Function]
                </Sticky>
              </Container>,
              "columns": 8,
              "extraStyles": Array [
                "max-width:85%;margin-left:-16px;overflow:hidden;z-index:-1;",
                "@media (min-width:",
                "1024",
                "px){",
                "margin:0;min-height:100%;",
                "}",
              ],
              "mobileColumns": 6,
              "mobileOffset": 0,
            },
            "ref": null,
            "rendered": Object {
              "instance": null,
              "key": undefined,
              "nodeType": "class",
              "props": Object {
                "children": <Sticky
                  bottomOffset={0}
                  disableCompensation={true}
                  disableHardwareAcceleration={false}
                  relative={false}
                  topOffset={0}
                >
                  [Function]
                </Sticky>,
                "style": Object {
                  "display": "flex",
                  "flex": 1,
                  "height": "100%",
                },
              },
              "ref": null,
              "rendered": Object {
                "instance": null,
                "key": undefined,
                "nodeType": "class",
                "props": Object {
                  "bottomOffset": 0,
                  "children": [Function],
                  "disableCompensation": true,
                  "disableHardwareAcceleration": false,
                  "relative": false,
                  "topOffset": 0,
                },
                "ref": null,
                "rendered": [Function],
                "type": [Function],
              },
              "type": [Function],
            },
            "type": [Function],
          },
          Object {
            "instance": null,
            "key": undefined,
            "nodeType": "class",
            "props": Object {
              "children": Array [
                <productstyles__DesktopContent>
                  <productstyles__Title
                    fixed={true}
                    parallaxHeight={87}
                  >
                    
                  </productstyles__Title>
                  <productstyles__Variant
                    innerRef={[Function]}
                  >
                    title
                  </productstyles__Variant>
                </productstyles__DesktopContent>,
                <productstyles__BounceContainer>
                  <productstyles__Size />
                  <productstyles__Details>
                    <productstyles__DescriptionTitle>
                      <FormattedMessage
                        defaultMessage="Details"
                        id="product.details"
                        values={Object {}}
                      />
                    </productstyles__DescriptionTitle>
                    <productstyles__Description />
                  </productstyles__Details>
                  <productstyles__Delivery>
                    <FormattedHTMLMessage
                      defaultMessage="Estimated delivery time: <strong> { time }</strong>"
                      id="product.delivery"
                      values={
                        Object {
                          "time": undefined,
                        }
                      }
                    />
                  </productstyles__Delivery>
                  <productstyles__UsableRow>
                    <Counter
                      center={false}
                      max={9999}
                      min={1}
                      onChange={[Function]}
                      value={1}
                    />
                    <productstyles__Price>
                      <FormattedMessage
                        defaultMessage="£{ price }"
                        id="product.currency"
                        values={
                          Object {
                            "price": NaN,
                          }
                        }
                      />
                    </productstyles__Price>
                  </productstyles__UsableRow>
                  <productstyles__UsableRow>
                    <components__Button
                      extraStyles={
                        Array [
                          "width:calc(100% - 4px);text-align:left;margin-bottom:20px;margin-right:0;",
                          "@media (min-width:",
                          "1440",
                          "px){",
                          "width:245px;margin:0;",
                          "}",
                          " ",
                          "@media (min-width:",
                          "1024",
                          "px){",
                          "margin-bottom:20px;margin-right:0;",
                          "}",
                        ]
                      }
                      noActive={true}
                      onClick={[Function]}
                    >
                      <AnimatedText
                        callback={[Function]}
                        successText="product.addedCart / Item added / {}"
                        text="product.addCart / Add to Basket / {}"
                        timeout={3000}
                        waiting={false}
                      />
                      <components__Arrow />
                    </components__Button>
                    <components__Button
                      extraStyles={
                        Array [
                          "width:calc(100% - 4px);text-align:left;margin-bottom:20px;margin-right:0;",
                          "@media (min-width:",
                          "1440",
                          "px){",
                          "width:245px;margin:0;",
                          "}",
                          " ",
                          "@media (min-width:",
                          "1024",
                          "px){",
                          "margin-bottom:20px;margin-right:0;",
                          "}",
                        ]
                      }
                      noActive={true}
                      onClick={[Function]}
                    >
                      product.removeProject / Remove from Project / {}
                      <components__Arrow />
                    </components__Button>
                  </productstyles__UsableRow>
                </productstyles__BounceContainer>,
              ],
              "columns": 6,
              "mobileColumns": 6,
              "mobileOffset": 0,
              "offset": 1,
            },
            "ref": null,
            "rendered": Array [
              Object {
                "instance": null,
                "key": undefined,
                "nodeType": "class",
                "props": Object {
                  "children": Array [
                    <productstyles__Title
                      fixed={true}
                      parallaxHeight={87}
                    >
                      
                    </productstyles__Title>,
                    <productstyles__Variant
                      innerRef={[Function]}
                    >
                      title
                    </productstyles__Variant>,
                  ],
                },
                "ref": null,
                "rendered": Array [
                  Object {
                    "instance": null,
                    "key": undefined,
                    "nodeType": "class",
                    "props": Object {
                      "children": "",
                      "fixed": true,
                      "parallaxHeight": 87,
                    },
                    "ref": null,
                    "rendered": "",
                    "type": [Function],
                  },
                  Object {
                    "instance": null,
                    "key": undefined,
                    "nodeType": "class",
                    "props": Object {
                      "children": "title",
                      "innerRef": [Function],
                    },
                    "ref": null,
                    "rendered": "title",
                    "type": [Function],
                  },
                ],
                "type": [Function],
              },
              Object {
                "instance": null,
                "key": undefined,
                "nodeType": "class",
                "props": Object {
                  "children": Array [
                    <productstyles__Size />,
                    <productstyles__Details>
                      <productstyles__DescriptionTitle>
                        <FormattedMessage
                          defaultMessage="Details"
                          id="product.details"
                          values={Object {}}
                        />
                      </productstyles__DescriptionTitle>
                      <productstyles__Description />
                    </productstyles__Details>,
                    null,
                    null,
                    <productstyles__Delivery>
                      <FormattedHTMLMessage
                        defaultMessage="Estimated delivery time: <strong> { time }</strong>"
                        id="product.delivery"
                        values={
                          Object {
                            "time": undefined,
                          }
                        }
                      />
                    </productstyles__Delivery>,
                    <productstyles__UsableRow>
                      <Counter
                        center={false}
                        max={9999}
                        min={1}
                        onChange={[Function]}
                        value={1}
                      />
                      <productstyles__Price>
                        <FormattedMessage
                          defaultMessage="£{ price }"
                          id="product.currency"
                          values={
                            Object {
                              "price": NaN,
                            }
                          }
                        />
                      </productstyles__Price>
                    </productstyles__UsableRow>,
                    <productstyles__UsableRow>
                      <components__Button
                        extraStyles={
                          Array [
                            "width:calc(100% - 4px);text-align:left;margin-bottom:20px;margin-right:0;",
                            "@media (min-width:",
                            "1440",
                            "px){",
                            "width:245px;margin:0;",
                            "}",
                            " ",
                            "@media (min-width:",
                            "1024",
                            "px){",
                            "margin-bottom:20px;margin-right:0;",
                            "}",
                          ]
                        }
                        noActive={true}
                        onClick={[Function]}
                      >
                        <AnimatedText
                          callback={[Function]}
                          successText="product.addedCart / Item added / {}"
                          text="product.addCart / Add to Basket / {}"
                          timeout={3000}
                          waiting={false}
                        />
                        <components__Arrow />
                      </components__Button>
                      <components__Button
                        extraStyles={
                          Array [
                            "width:calc(100% - 4px);text-align:left;margin-bottom:20px;margin-right:0;",
                            "@media (min-width:",
                            "1440",
                            "px){",
                            "width:245px;margin:0;",
                            "}",
                            " ",
                            "@media (min-width:",
                            "1024",
                            "px){",
                            "margin-bottom:20px;margin-right:0;",
                            "}",
                          ]
                        }
                        noActive={true}
                        onClick={[Function]}
                      >
                        product.removeProject / Remove from Project / {}
                        <components__Arrow />
                      </components__Button>
                    </productstyles__UsableRow>,
                  ],
                },
                "ref": null,
                "rendered": Array [
                  Object {
                    "instance": null,
                    "key": undefined,
                    "nodeType": "class",
                    "props": Object {
                      "children": undefined,
                    },
                    "ref": null,
                    "rendered": null,
                    "type": [Function],
                  },
                  Object {
                    "instance": null,
                    "key": undefined,
                    "nodeType": "class",
                    "props": Object {
                      "children": Array [
                        <productstyles__DescriptionTitle>
                          <FormattedMessage
                            defaultMessage="Details"
                            id="product.details"
                            values={Object {}}
                          />
                        </productstyles__DescriptionTitle>,
                        <productstyles__Description />,
                      ],
                    },
                    "ref": null,
                    "rendered": Array [
                      Object {
                        "instance": null,
                        "key": undefined,
                        "nodeType": "class",
                        "props": Object {
                          "children": <FormattedMessage
                            defaultMessage="Details"
                            id="product.details"
                            values={Object {}}
                          />,
                        },
                        "ref": null,
                        "rendered": Object {
                          "instance": null,
                          "key": undefined,
                          "nodeType": "class",
                          "props": Object {
                            "defaultMessage": "Details",
                            "id": "product.details",
                            "values": Object {},
                          },
                          "ref": null,
                          "rendered": null,
                          "type": [Function],
                        },
                        "type": [Function],
                      },
                      Object {
                        "instance": null,
                        "key": undefined,
                        "nodeType": "class",
                        "props": Object {
                          "children": undefined,
                        },
                        "ref": null,
                        "rendered": null,
                        "type": [Function],
                      },
                    ],
                    "type": [Function],
                  },
                  null,
                  null,
                  Object {
                    "instance": null,
                    "key": undefined,
                    "nodeType": "class",
                    "props": Object {
                      "children": <FormattedHTMLMessage
                        defaultMessage="Estimated delivery time: <strong> { time }</strong>"
                        id="product.delivery"
                        values={
                          Object {
                            "time": undefined,
                          }
                        }
                      />,
                    },
                    "ref": null,
                    "rendered": Object {
                      "instance": null,
                      "key": undefined,
                      "nodeType": "class",
                      "props": Object {
                        "defaultMessage": "Estimated delivery time: <strong> { time }</strong>",
                        "id": "product.delivery",
                        "values": Object {
                          "time": undefined,
                        },
                      },
                      "ref": null,
                      "rendered": null,
                      "type": [Function],
                    },
                    "type": [Function],
                  },
                  Object {
                    "instance": null,
                    "key": undefined,
                    "nodeType": "class",
                    "props": Object {
                      "children": Array [
                        <Counter
                          center={false}
                          max={9999}
                          min={1}
                          onChange={[Function]}
                          value={1}
                        />,
                        <productstyles__Price>
                          <FormattedMessage
                            defaultMessage="£{ price }"
                            id="product.currency"
                            values={
                              Object {
                                "price": NaN,
                              }
                            }
                          />
                        </productstyles__Price>,
                      ],
                    },
                    "ref": null,
                    "rendered": Array [
                      Object {
                        "instance": null,
                        "key": undefined,
                        "nodeType": "class",
                        "props": Object {
                          "center": false,
                          "max": 9999,
                          "min": 1,
                          "onChange": [Function],
                          "value": 1,
                        },
                        "ref": null,
                        "rendered": null,
                        "type": [Function],
                      },
                      Object {
                        "instance": null,
                        "key": undefined,
                        "nodeType": "class",
                        "props": Object {
                          "children": <FormattedMessage
                            defaultMessage="£{ price }"
                            id="product.currency"
                            values={
                              Object {
                                "price": NaN,
                              }
                            }
                          />,
                        },
                        "ref": null,
                        "rendered": Object {
                          "instance": null,
                          "key": undefined,
                          "nodeType": "class",
                          "props": Object {
                            "defaultMessage": "£{ price }",
                            "id": "product.currency",
                            "values": Object {
                              "price": NaN,
                            },
                          },
                          "ref": null,
                          "rendered": null,
                          "type": [Function],
                        },
                        "type": [Function],
                      },
                    ],
                    "type": [Function],
                  },
                  Object {
                    "instance": null,
                    "key": undefined,
                    "nodeType": "class",
                    "props": Object {
                      "children": Array [
                        <components__Button
                          extraStyles={
                            Array [
                              "width:calc(100% - 4px);text-align:left;margin-bottom:20px;margin-right:0;",
                              "@media (min-width:",
                              "1440",
                              "px){",
                              "width:245px;margin:0;",
                              "}",
                              " ",
                              "@media (min-width:",
                              "1024",
                              "px){",
                              "margin-bottom:20px;margin-right:0;",
                              "}",
                            ]
                          }
                          noActive={true}
                          onClick={[Function]}
                        >
                          <AnimatedText
                            callback={[Function]}
                            successText="product.addedCart / Item added / {}"
                            text="product.addCart / Add to Basket / {}"
                            timeout={3000}
                            waiting={false}
                          />
                          <components__Arrow />
                        </components__Button>,
                        <components__Button
                          extraStyles={
                            Array [
                              "width:calc(100% - 4px);text-align:left;margin-bottom:20px;margin-right:0;",
                              "@media (min-width:",
                              "1440",
                              "px){",
                              "width:245px;margin:0;",
                              "}",
                              " ",
                              "@media (min-width:",
                              "1024",
                              "px){",
                              "margin-bottom:20px;margin-right:0;",
                              "}",
                            ]
                          }
                          noActive={true}
                          onClick={[Function]}
                        >
                          product.removeProject / Remove from Project / {}
                          <components__Arrow />
                        </components__Button>,
                      ],
                    },
                    "ref": null,
                    "rendered": Array [
                      Object {
                        "instance": null,
                        "key": undefined,
                        "nodeType": "class",
                        "props": Object {
                          "children": Array [
                            <AnimatedText
                              callback={[Function]}
                              successText="product.addedCart / Item added / {}"
                              text="product.addCart / Add to Basket / {}"
                              timeout={3000}
                              waiting={false}
                            />,
                            <components__Arrow />,
                          ],
                          "extraStyles": Array [
                            "width:calc(100% - 4px);text-align:left;margin-bottom:20px;margin-right:0;",
                            "@media (min-width:",
                            "1440",
                            "px){",
                            "width:245px;margin:0;",
                            "}",
                            " ",
                            "@media (min-width:",
                            "1024",
                            "px){",
                            "margin-bottom:20px;margin-right:0;",
                            "}",
                          ],
                          "noActive": true,
                          "onClick": [Function],
                        },
                        "ref": null,
                        "rendered": Array [
                          Object {
                            "instance": null,
                            "key": undefined,
                            "nodeType": "class",
                            "props": Object {
                              "callback": [Function],
                              "successText": "product.addedCart / Item added / {}",
                              "text": "product.addCart / Add to Basket / {}",
                              "timeout": 3000,
                              "waiting": false,
                            },
                            "ref": null,
                            "rendered": null,
                            "type": [Function],
                          },
                          Object {
                            "instance": null,
                            "key": undefined,
                            "nodeType": "class",
                            "props": Object {},
                            "ref": null,
                            "rendered": null,
                            "type": [Function],
                          },
                        ],
                        "type": [Function],
                      },
                      Object {
                        "instance": null,
                        "key": undefined,
                        "nodeType": "class",
                        "props": Object {
                          "children": Array [
                            "product.removeProject / Remove from Project / {}",
                            <components__Arrow />,
                          ],
                          "extraStyles": Array [
                            "width:calc(100% - 4px);text-align:left;margin-bottom:20px;margin-right:0;",
                            "@media (min-width:",
                            "1440",
                            "px){",
                            "width:245px;margin:0;",
                            "}",
                            " ",
                            "@media (min-width:",
                            "1024",
                            "px){",
                            "margin-bottom:20px;margin-right:0;",
                            "}",
                          ],
                          "noActive": true,
                          "onClick": [Function],
                        },
                        "ref": null,
                        "rendered": Array [
                          "product.removeProject / Remove from Project / {}",
                          Object {
                            "instance": null,
                            "key": undefined,
                            "nodeType": "class",
                            "props": Object {},
                            "ref": null,
                            "rendered": null,
                            "type": [Function],
                          },
                        ],
                        "type": [Function],
                      },
                    ],
                    "type": [Function],
                  },
                ],
                "type": [Function],
              },
            ],
            "type": [Function],
          },
        ],
        "type": [Function],
      },
    ],
    "type": [Function],
  },
  Symbol(enzyme.__nodes__): Array [
    Object {
      "instance": null,
      "key": undefined,
      "nodeType": "class",
      "props": Object {
        "children": Array [
          <WindowScroll
            header={false}
            onScroll={[Function]}
            throttle={false}
          />,
          <HelmetWrapper
            defer={true}
            encodeSpecialCharacters={true}
            meta={
              Array [
                Object {
                  "content": undefined,
                  "name": "description",
                },
                Object {
                  "content": "title",
                  "property": "og:title",
                },
                Object {
                  "content": "originalSrc",
                  "property": "og:image",
                },
                Object {
                  "content": undefined,
                  "property": "og:description",
                },
                Object {
                  "content": "title",
                  "itemprop": "name",
                },
                Object {
                  "content": "originalSrc",
                  "itemprop": "image",
                },
                Object {
                  "content": undefined,
                  "itemprop": "description",
                },
                Object {
                  "content": "summary_large_image",
                  "name": "twitter:card",
                },
              ]
            }
            title="title"
          />,
          <row__Row
            extraStyles={
              Array [
                "flex-direction:column;position:relative;z-index:1;",
                "@media (min-width:",
                "1024",
                "px){",
                "flex-direction:row;margin-top:-111px;",
                "}",
              ]
            }
          >
            <column__Column
              columns={8}
              extraStyles={
                Array [
                  "max-width:85%;margin-left:-16px;overflow:hidden;z-index:-1;",
                  "@media (min-width:",
                  "1024",
                  "px){",
                  "margin:0;min-height:100%;",
                  "}",
                ]
              }
              mobileColumns={6}
              mobileOffset={0}
            >
              <Container
                style={
                  Object {
                    "display": "flex",
                    "flex": 1,
                    "height": "100%",
                  }
                }
              >
                <Sticky
                  bottomOffset={0}
                  disableCompensation={true}
                  disableHardwareAcceleration={false}
                  relative={false}
                  topOffset={0}
                >
                  [Function]
                </Sticky>
              </Container>
            </column__Column>
            <column__Column
              columns={6}
              mobileColumns={6}
              mobileOffset={0}
              offset={1}
            >
              <productstyles__DesktopContent>
                <productstyles__Title
                  fixed={true}
                  parallaxHeight={87}
                >
                  
                </productstyles__Title>
                <productstyles__Variant
                  innerRef={[Function]}
                >
                  title
                </productstyles__Variant>
              </productstyles__DesktopContent>
              <productstyles__BounceContainer>
                <productstyles__Size />
                <productstyles__Details>
                  <productstyles__DescriptionTitle>
                    <FormattedMessage
                      defaultMessage="Details"
                      id="product.details"
                      values={Object {}}
                    />
                  </productstyles__DescriptionTitle>
                  <productstyles__Description />
                </productstyles__Details>
                <productstyles__Delivery>
                  <FormattedHTMLMessage
                    defaultMessage="Estimated delivery time: <strong> { time }</strong>"
                    id="product.delivery"
                    values={
                      Object {
                        "time": undefined,
                      }
                    }
                  />
                </productstyles__Delivery>
                <productstyles__UsableRow>
                  <Counter
                    center={false}
                    max={9999}
                    min={1}
                    onChange={[Function]}
                    value={1}
                  />
                  <productstyles__Price>
                    <FormattedMessage
                      defaultMessage="£{ price }"
                      id="product.currency"
                      values={
                        Object {
                          "price": NaN,
                        }
                      }
                    />
                  </productstyles__Price>
                </productstyles__UsableRow>
                <productstyles__UsableRow>
                  <components__Button
                    extraStyles={
                      Array [
                        "width:calc(100% - 4px);text-align:left;margin-bottom:20px;margin-right:0;",
                        "@media (min-width:",
                        "1440",
                        "px){",
                        "width:245px;margin:0;",
                        "}",
                        " ",
                        "@media (min-width:",
                        "1024",
                        "px){",
                        "margin-bottom:20px;margin-right:0;",
                        "}",
                      ]
                    }
                    noActive={true}
                    onClick={[Function]}
                  >
                    <AnimatedText
                      callback={[Function]}
                      successText="product.addedCart / Item added / {}"
                      text="product.addCart / Add to Basket / {}"
                      timeout={3000}
                      waiting={false}
                    />
                    <components__Arrow />
                  </components__Button>
                  <components__Button
                    extraStyles={
                      Array [
                        "width:calc(100% - 4px);text-align:left;margin-bottom:20px;margin-right:0;",
                        "@media (min-width:",
                        "1440",
                        "px){",
                        "width:245px;margin:0;",
                        "}",
                        " ",
                        "@media (min-width:",
                        "1024",
                        "px){",
                        "margin-bottom:20px;margin-right:0;",
                        "}",
                      ]
                    }
                    noActive={true}
                    onClick={[Function]}
                  >
                    product.removeProject / Remove from Project / {}
                    <components__Arrow />
                  </components__Button>
                </productstyles__UsableRow>
              </productstyles__BounceContainer>
            </column__Column>
          </row__Row>,
        ],
      },
      "ref": null,
      "rendered": Array [
        Object {
          "instance": null,
          "key": undefined,
          "nodeType": "class",
          "props": Object {
            "header": false,
            "onScroll": [Function],
            "throttle": false,
          },
          "ref": null,
          "rendered": null,
          "type": [Function],
        },
        Object {
          "instance": null,
          "key": undefined,
          "nodeType": "class",
          "props": Object {
            "defer": true,
            "encodeSpecialCharacters": true,
            "meta": Array [
              Object {
                "content": undefined,
                "name": "description",
              },
              Object {
                "content": "title",
                "property": "og:title",
              },
              Object {
                "content": "originalSrc",
                "property": "og:image",
              },
              Object {
                "content": undefined,
                "property": "og:description",
              },
              Object {
                "content": "title",
                "itemprop": "name",
              },
              Object {
                "content": "originalSrc",
                "itemprop": "image",
              },
              Object {
                "content": undefined,
                "itemprop": "description",
              },
              Object {
                "content": "summary_large_image",
                "name": "twitter:card",
              },
            ],
            "title": "title",
          },
          "ref": null,
          "rendered": null,
          "type": [Function],
        },
        Object {
          "instance": null,
          "key": undefined,
          "nodeType": "class",
          "props": Object {
            "children": Array [
              <column__Column
                columns={8}
                extraStyles={
                  Array [
                    "max-width:85%;margin-left:-16px;overflow:hidden;z-index:-1;",
                    "@media (min-width:",
                    "1024",
                    "px){",
                    "margin:0;min-height:100%;",
                    "}",
                  ]
                }
                mobileColumns={6}
                mobileOffset={0}
              >
                <Container
                  style={
                    Object {
                      "display": "flex",
                      "flex": 1,
                      "height": "100%",
                    }
                  }
                >
                  <Sticky
                    bottomOffset={0}
                    disableCompensation={true}
                    disableHardwareAcceleration={false}
                    relative={false}
                    topOffset={0}
                  >
                    [Function]
                  </Sticky>
                </Container>
              </column__Column>,
              <column__Column
                columns={6}
                mobileColumns={6}
                mobileOffset={0}
                offset={1}
              >
                <productstyles__DesktopContent>
                  <productstyles__Title
                    fixed={true}
                    parallaxHeight={87}
                  >
                    
                  </productstyles__Title>
                  <productstyles__Variant
                    innerRef={[Function]}
                  >
                    title
                  </productstyles__Variant>
                </productstyles__DesktopContent>
                <productstyles__BounceContainer>
                  <productstyles__Size />
                  <productstyles__Details>
                    <productstyles__DescriptionTitle>
                      <FormattedMessage
                        defaultMessage="Details"
                        id="product.details"
                        values={Object {}}
                      />
                    </productstyles__DescriptionTitle>
                    <productstyles__Description />
                  </productstyles__Details>
                  <productstyles__Delivery>
                    <FormattedHTMLMessage
                      defaultMessage="Estimated delivery time: <strong> { time }</strong>"
                      id="product.delivery"
                      values={
                        Object {
                          "time": undefined,
                        }
                      }
                    />
                  </productstyles__Delivery>
                  <productstyles__UsableRow>
                    <Counter
                      center={false}
                      max={9999}
                      min={1}
                      onChange={[Function]}
                      value={1}
                    />
                    <productstyles__Price>
                      <FormattedMessage
                        defaultMessage="£{ price }"
                        id="product.currency"
                        values={
                          Object {
                            "price": NaN,
                          }
                        }
                      />
                    </productstyles__Price>
                  </productstyles__UsableRow>
                  <productstyles__UsableRow>
                    <components__Button
                      extraStyles={
                        Array [
                          "width:calc(100% - 4px);text-align:left;margin-bottom:20px;margin-right:0;",
                          "@media (min-width:",
                          "1440",
                          "px){",
                          "width:245px;margin:0;",
                          "}",
                          " ",
                          "@media (min-width:",
                          "1024",
                          "px){",
                          "margin-bottom:20px;margin-right:0;",
                          "}",
                        ]
                      }
                      noActive={true}
                      onClick={[Function]}
                    >
                      <AnimatedText
                        callback={[Function]}
                        successText="product.addedCart / Item added / {}"
                        text="product.addCart / Add to Basket / {}"
                        timeout={3000}
                        waiting={false}
                      />
                      <components__Arrow />
                    </components__Button>
                    <components__Button
                      extraStyles={
                        Array [
                          "width:calc(100% - 4px);text-align:left;margin-bottom:20px;margin-right:0;",
                          "@media (min-width:",
                          "1440",
                          "px){",
                          "width:245px;margin:0;",
                          "}",
                          " ",
                          "@media (min-width:",
                          "1024",
                          "px){",
                          "margin-bottom:20px;margin-right:0;",
                          "}",
                        ]
                      }
                      noActive={true}
                      onClick={[Function]}
                    >
                      product.removeProject / Remove from Project / {}
                      <components__Arrow />
                    </components__Button>
                  </productstyles__UsableRow>
                </productstyles__BounceContainer>
              </column__Column>,
            ],
            "extraStyles": Array [
              "flex-direction:column;position:relative;z-index:1;",
              "@media (min-width:",
              "1024",
              "px){",
              "flex-direction:row;margin-top:-111px;",
              "}",
            ],
          },
          "ref": null,
          "rendered": Array [
            Object {
              "instance": null,
              "key": undefined,
              "nodeType": "class",
              "props": Object {
                "children": <Container
                  style={
                    Object {
                      "display": "flex",
                      "flex": 1,
                      "height": "100%",
                    }
                  }
                >
                  <Sticky
                    bottomOffset={0}
                    disableCompensation={true}
                    disableHardwareAcceleration={false}
                    relative={false}
                    topOffset={0}
                  >
                    [Function]
                  </Sticky>
                </Container>,
                "columns": 8,
                "extraStyles": Array [
                  "max-width:85%;margin-left:-16px;overflow:hidden;z-index:-1;",
                  "@media (min-width:",
                  "1024",
                  "px){",
                  "margin:0;min-height:100%;",
                  "}",
                ],
                "mobileColumns": 6,
                "mobileOffset": 0,
              },
              "ref": null,
              "rendered": Object {
                "instance": null,
                "key": undefined,
                "nodeType": "class",
                "props": Object {
                  "children": <Sticky
                    bottomOffset={0}
                    disableCompensation={true}
                    disableHardwareAcceleration={false}
                    relative={false}
                    topOffset={0}
                  >
                    [Function]
                  </Sticky>,
                  "style": Object {
                    "display": "flex",
                    "flex": 1,
                    "height": "100%",
                  },
                },
                "ref": null,
                "rendered": Object {
                  "instance": null,
                  "key": undefined,
                  "nodeType": "class",
                  "props": Object {
                    "bottomOffset": 0,
                    "children": [Function],
                    "disableCompensation": true,
                    "disableHardwareAcceleration": false,
                    "relative": false,
                    "topOffset": 0,
                  },
                  "ref": null,
                  "rendered": [Function],
                  "type": [Function],
                },
                "type": [Function],
              },
              "type": [Function],
            },
            Object {
              "instance": null,
              "key": undefined,
              "nodeType": "class",
              "props": Object {
                "children": Array [
                  <productstyles__DesktopContent>
                    <productstyles__Title
                      fixed={true}
                      parallaxHeight={87}
                    >
                      
                    </productstyles__Title>
                    <productstyles__Variant
                      innerRef={[Function]}
                    >
                      title
                    </productstyles__Variant>
                  </productstyles__DesktopContent>,
                  <productstyles__BounceContainer>
                    <productstyles__Size />
                    <productstyles__Details>
                      <productstyles__DescriptionTitle>
                        <FormattedMessage
                          defaultMessage="Details"
                          id="product.details"
                          values={Object {}}
                        />
                      </productstyles__DescriptionTitle>
                      <productstyles__Description />
                    </productstyles__Details>
                    <productstyles__Delivery>
                      <FormattedHTMLMessage
                        defaultMessage="Estimated delivery time: <strong> { time }</strong>"
                        id="product.delivery"
                        values={
                          Object {
                            "time": undefined,
                          }
                        }
                      />
                    </productstyles__Delivery>
                    <productstyles__UsableRow>
                      <Counter
                        center={false}
                        max={9999}
                        min={1}
                        onChange={[Function]}
                        value={1}
                      />
                      <productstyles__Price>
                        <FormattedMessage
                          defaultMessage="£{ price }"
                          id="product.currency"
                          values={
                            Object {
                              "price": NaN,
                            }
                          }
                        />
                      </productstyles__Price>
                    </productstyles__UsableRow>
                    <productstyles__UsableRow>
                      <components__Button
                        extraStyles={
                          Array [
                            "width:calc(100% - 4px);text-align:left;margin-bottom:20px;margin-right:0;",
                            "@media (min-width:",
                            "1440",
                            "px){",
                            "width:245px;margin:0;",
                            "}",
                            " ",
                            "@media (min-width:",
                            "1024",
                            "px){",
                            "margin-bottom:20px;margin-right:0;",
                            "}",
                          ]
                        }
                        noActive={true}
                        onClick={[Function]}
                      >
                        <AnimatedText
                          callback={[Function]}
                          successText="product.addedCart / Item added / {}"
                          text="product.addCart / Add to Basket / {}"
                          timeout={3000}
                          waiting={false}
                        />
                        <components__Arrow />
                      </components__Button>
                      <components__Button
                        extraStyles={
                          Array [
                            "width:calc(100% - 4px);text-align:left;margin-bottom:20px;margin-right:0;",
                            "@media (min-width:",
                            "1440",
                            "px){",
                            "width:245px;margin:0;",
                            "}",
                            " ",
                            "@media (min-width:",
                            "1024",
                            "px){",
                            "margin-bottom:20px;margin-right:0;",
                            "}",
                          ]
                        }
                        noActive={true}
                        onClick={[Function]}
                      >
                        product.removeProject / Remove from Project / {}
                        <components__Arrow />
                      </components__Button>
                    </productstyles__UsableRow>
                  </productstyles__BounceContainer>,
                ],
                "columns": 6,
                "mobileColumns": 6,
                "mobileOffset": 0,
                "offset": 1,
              },
              "ref": null,
              "rendered": Array [
                Object {
                  "instance": null,
                  "key": undefined,
                  "nodeType": "class",
                  "props": Object {
                    "children": Array [
                      <productstyles__Title
                        fixed={true}
                        parallaxHeight={87}
                      >
                        
                      </productstyles__Title>,
                      <productstyles__Variant
                        innerRef={[Function]}
                      >
                        title
                      </productstyles__Variant>,
                    ],
                  },
                  "ref": null,
                  "rendered": Array [
                    Object {
                      "instance": null,
                      "key": undefined,
                      "nodeType": "class",
                      "props": Object {
                        "children": "",
                        "fixed": true,
                        "parallaxHeight": 87,
                      },
                      "ref": null,
                      "rendered": "",
                      "type": [Function],
                    },
                    Object {
                      "instance": null,
                      "key": undefined,
                      "nodeType": "class",
                      "props": Object {
                        "children": "title",
                        "innerRef": [Function],
                      },
                      "ref": null,
                      "rendered": "title",
                      "type": [Function],
                    },
                  ],
                  "type": [Function],
                },
                Object {
                  "instance": null,
                  "key": undefined,
                  "nodeType": "class",
                  "props": Object {
                    "children": Array [
                      <productstyles__Size />,
                      <productstyles__Details>
                        <productstyles__DescriptionTitle>
                          <FormattedMessage
                            defaultMessage="Details"
                            id="product.details"
                            values={Object {}}
                          />
                        </productstyles__DescriptionTitle>
                        <productstyles__Description />
                      </productstyles__Details>,
                      null,
                      null,
                      <productstyles__Delivery>
                        <FormattedHTMLMessage
                          defaultMessage="Estimated delivery time: <strong> { time }</strong>"
                          id="product.delivery"
                          values={
                            Object {
                              "time": undefined,
                            }
                          }
                        />
                      </productstyles__Delivery>,
                      <productstyles__UsableRow>
                        <Counter
                          center={false}
                          max={9999}
                          min={1}
                          onChange={[Function]}
                          value={1}
                        />
                        <productstyles__Price>
                          <FormattedMessage
                            defaultMessage="£{ price }"
                            id="product.currency"
                            values={
                              Object {
                                "price": NaN,
                              }
                            }
                          />
                        </productstyles__Price>
                      </productstyles__UsableRow>,
                      <productstyles__UsableRow>
                        <components__Button
                          extraStyles={
                            Array [
                              "width:calc(100% - 4px);text-align:left;margin-bottom:20px;margin-right:0;",
                              "@media (min-width:",
                              "1440",
                              "px){",
                              "width:245px;margin:0;",
                              "}",
                              " ",
                              "@media (min-width:",
                              "1024",
                              "px){",
                              "margin-bottom:20px;margin-right:0;",
                              "}",
                            ]
                          }
                          noActive={true}
                          onClick={[Function]}
                        >
                          <AnimatedText
                            callback={[Function]}
                            successText="product.addedCart / Item added / {}"
                            text="product.addCart / Add to Basket / {}"
                            timeout={3000}
                            waiting={false}
                          />
                          <components__Arrow />
                        </components__Button>
                        <components__Button
                          extraStyles={
                            Array [
                              "width:calc(100% - 4px);text-align:left;margin-bottom:20px;margin-right:0;",
                              "@media (min-width:",
                              "1440",
                              "px){",
                              "width:245px;margin:0;",
                              "}",
                              " ",
                              "@media (min-width:",
                              "1024",
                              "px){",
                              "margin-bottom:20px;margin-right:0;",
                              "}",
                            ]
                          }
                          noActive={true}
                          onClick={[Function]}
                        >
                          product.removeProject / Remove from Project / {}
                          <components__Arrow />
                        </components__Button>
                      </productstyles__UsableRow>,
                    ],
                  },
                  "ref": null,
                  "rendered": Array [
                    Object {
                      "instance": null,
                      "key": undefined,
                      "nodeType": "class",
                      "props": Object {
                        "children": undefined,
                      },
                      "ref": null,
                      "rendered": null,
                      "type": [Function],
                    },
                    Object {
                      "instance": null,
                      "key": undefined,
                      "nodeType": "class",
                      "props": Object {
                        "children": Array [
                          <productstyles__DescriptionTitle>
                            <FormattedMessage
                              defaultMessage="Details"
                              id="product.details"
                              values={Object {}}
                            />
                          </productstyles__DescriptionTitle>,
                          <productstyles__Description />,
                        ],
                      },
                      "ref": null,
                      "rendered": Array [
                        Object {
                          "instance": null,
                          "key": undefined,
                          "nodeType": "class",
                          "props": Object {
                            "children": <FormattedMessage
                              defaultMessage="Details"
                              id="product.details"
                              values={Object {}}
                            />,
                          },
                          "ref": null,
                          "rendered": Object {
                            "instance": null,
                            "key": undefined,
                            "nodeType": "class",
                            "props": Object {
                              "defaultMessage": "Details",
                              "id": "product.details",
                              "values": Object {},
                            },
                            "ref": null,
                            "rendered": null,
                            "type": [Function],
                          },
                          "type": [Function],
                        },
                        Object {
                          "instance": null,
                          "key": undefined,
                          "nodeType": "class",
                          "props": Object {
                            "children": undefined,
                          },
                          "ref": null,
                          "rendered": null,
                          "type": [Function],
                        },
                      ],
                      "type": [Function],
                    },
                    null,
                    null,
                    Object {
                      "instance": null,
                      "key": undefined,
                      "nodeType": "class",
                      "props": Object {
                        "children": <FormattedHTMLMessage
                          defaultMessage="Estimated delivery time: <strong> { time }</strong>"
                          id="product.delivery"
                          values={
                            Object {
                              "time": undefined,
                            }
                          }
                        />,
                      },
                      "ref": null,
                      "rendered": Object {
                        "instance": null,
                        "key": undefined,
                        "nodeType": "class",
                        "props": Object {
                          "defaultMessage": "Estimated delivery time: <strong> { time }</strong>",
                          "id": "product.delivery",
                          "values": Object {
                            "time": undefined,
                          },
                        },
                        "ref": null,
                        "rendered": null,
                        "type": [Function],
                      },
                      "type": [Function],
                    },
                    Object {
                      "instance": null,
                      "key": undefined,
                      "nodeType": "class",
                      "props": Object {
                        "children": Array [
                          <Counter
                            center={false}
                            max={9999}
                            min={1}
                            onChange={[Function]}
                            value={1}
                          />,
                          <productstyles__Price>
                            <FormattedMessage
                              defaultMessage="£{ price }"
                              id="product.currency"
                              values={
                                Object {
                                  "price": NaN,
                                }
                              }
                            />
                          </productstyles__Price>,
                        ],
                      },
                      "ref": null,
                      "rendered": Array [
                        Object {
                          "instance": null,
                          "key": undefined,
                          "nodeType": "class",
                          "props": Object {
                            "center": false,
                            "max": 9999,
                            "min": 1,
                            "onChange": [Function],
                            "value": 1,
                          },
                          "ref": null,
                          "rendered": null,
                          "type": [Function],
                        },
                        Object {
                          "instance": null,
                          "key": undefined,
                          "nodeType": "class",
                          "props": Object {
                            "children": <FormattedMessage
                              defaultMessage="£{ price }"
                              id="product.currency"
                              values={
                                Object {
                                  "price": NaN,
                                }
                              }
                            />,
                          },
                          "ref": null,
                          "rendered": Object {
                            "instance": null,
                            "key": undefined,
                            "nodeType": "class",
                            "props": Object {
                              "defaultMessage": "£{ price }",
                              "id": "product.currency",
                              "values": Object {
                                "price": NaN,
                              },
                            },
                            "ref": null,
                            "rendered": null,
                            "type": [Function],
                          },
                          "type": [Function],
                        },
                      ],
                      "type": [Function],
                    },
                    Object {
                      "instance": null,
                      "key": undefined,
                      "nodeType": "class",
                      "props": Object {
                        "children": Array [
                          <components__Button
                            extraStyles={
                              Array [
                                "width:calc(100% - 4px);text-align:left;margin-bottom:20px;margin-right:0;",
                                "@media (min-width:",
                                "1440",
                                "px){",
                                "width:245px;margin:0;",
                                "}",
                                " ",
                                "@media (min-width:",
                                "1024",
                                "px){",
                                "margin-bottom:20px;margin-right:0;",
                                "}",
                              ]
                            }
                            noActive={true}
                            onClick={[Function]}
                          >
                            <AnimatedText
                              callback={[Function]}
                              successText="product.addedCart / Item added / {}"
                              text="product.addCart / Add to Basket / {}"
                              timeout={3000}
                              waiting={false}
                            />
                            <components__Arrow />
                          </components__Button>,
                          <components__Button
                            extraStyles={
                              Array [
                                "width:calc(100% - 4px);text-align:left;margin-bottom:20px;margin-right:0;",
                                "@media (min-width:",
                                "1440",
                                "px){",
                                "width:245px;margin:0;",
                                "}",
                                " ",
                                "@media (min-width:",
                                "1024",
                                "px){",
                                "margin-bottom:20px;margin-right:0;",
                                "}",
                              ]
                            }
                            noActive={true}
                            onClick={[Function]}
                          >
                            product.removeProject / Remove from Project / {}
                            <components__Arrow />
                          </components__Button>,
                        ],
                      },
                      "ref": null,
                      "rendered": Array [
                        Object {
                          "instance": null,
                          "key": undefined,
                          "nodeType": "class",
                          "props": Object {
                            "children": Array [
                              <AnimatedText
                                callback={[Function]}
                                successText="product.addedCart / Item added / {}"
                                text="product.addCart / Add to Basket / {}"
                                timeout={3000}
                                waiting={false}
                              />,
                              <components__Arrow />,
                            ],
                            "extraStyles": Array [
                              "width:calc(100% - 4px);text-align:left;margin-bottom:20px;margin-right:0;",
                              "@media (min-width:",
                              "1440",
                              "px){",
                              "width:245px;margin:0;",
                              "}",
                              " ",
                              "@media (min-width:",
                              "1024",
                              "px){",
                              "margin-bottom:20px;margin-right:0;",
                              "}",
                            ],
                            "noActive": true,
                            "onClick": [Function],
                          },
                          "ref": null,
                          "rendered": Array [
                            Object {
                              "instance": null,
                              "key": undefined,
                              "nodeType": "class",
                              "props": Object {
                                "callback": [Function],
                                "successText": "product.addedCart / Item added / {}",
                                "text": "product.addCart / Add to Basket / {}",
                                "timeout": 3000,
                                "waiting": false,
                              },
                              "ref": null,
                              "rendered": null,
                              "type": [Function],
                            },
                            Object {
                              "instance": null,
                              "key": undefined,
                              "nodeType": "class",
                              "props": Object {},
                              "ref": null,
                              "rendered": null,
                              "type": [Function],
                            },
                          ],
                          "type": [Function],
                        },
                        Object {
                          "instance": null,
                          "key": undefined,
                          "nodeType": "class",
                          "props": Object {
                            "children": Array [
                              "product.removeProject / Remove from Project / {}",
                              <components__Arrow />,
                            ],
                            "extraStyles": Array [
                              "width:calc(100% - 4px);text-align:left;margin-bottom:20px;margin-right:0;",
                              "@media (min-width:",
                              "1440",
                              "px){",
                              "width:245px;margin:0;",
                              "}",
                              " ",
                              "@media (min-width:",
                              "1024",
                              "px){",
                              "margin-bottom:20px;margin-right:0;",
                              "}",
                            ],
                            "noActive": true,
                            "onClick": [Function],
                          },
                          "ref": null,
                          "rendered": Array [
                            "product.removeProject / Remove from Project / {}",
                            Object {
                              "instance": null,
                              "key": undefined,
                              "nodeType": "class",
                              "props": Object {},
                              "ref": null,
                              "rendered": null,
                              "type": [Function],
                            },
                          ],
                          "type": [Function],
                        },
                      ],
                      "type": [Function],
                    },
                  ],
                  "type": [Function],
                },
              ],
              "type": [Function],
            },
          ],
          "type": [Function],
        },
      ],
      "type": [Function],
    },
  ],
  Symbol(enzyme.__options__): Object {
    "adapter": ReactSixteenAdapter {
      "options": Object {
        "enableComponentDidUpdateOnSetState": true,
      },
    },
    "disableLifecycleMethods": true,
  },
}
`;
