// Jest Snapshot v1, https://goo.gl/fbAQLP

exports[`<FindInspiration /> should render correctly 1`] = `
ShallowWrapper {
  "length": 1,
  Symbol(enzyme.__root__): [Circular],
  Symbol(enzyme.__unrendered__): <FindInspirationComponent
    intl={
      Object {
        "formatHTMLMessage": [Function],
        "formatMessage": [Function],
      }
    }
  />,
  Symbol(enzyme.__renderer__): Object {
    "batchedUpdates": [Function],
    "getNode": [Function],
    "render": [Function],
    "simulateEvent": [Function],
    "unmount": [Function],
  },
  Symbol(enzyme.__node__): Object {
    "instance": null,
    "key": undefined,
    "nodeType": "class",
    "props": Object {
      "children": Array [
        <WindowResize
          onResize={[Function]}
        />,
        <row__Row>
          <column__Column
            columns={11}
            mobileColumns={5}
            mobileOffset={1}
            offset={3}
          >
            <findInspirationstyles__Title>
              <FormattedMessage
                defaultMessage="We inspire the brave"
                id="findInspiration.title"
                values={Object {}}
              />
            </findInspirationstyles__Title>
          </column__Column>
        </row__Row>,
        <findInspirationstyles__MasonryGridWrapper>
          <MasonryGrid
            columns={2}
            containsElementsWithoutImages={false}
            ignoreFirstItem={true}
            isShifted={true}
            nrOfNonImageElements={1}
            scroll={false}
          >
            <findInspirationstyles__InfoBox>
              <findInspirationstyles__Description>
                <FormattedMessage
                  defaultMessage="Explore our styles, tells us what inspires you and start building your project with us."
                  id="findInspiration.description"
                  values={Object {}}
                />
              </findInspirationstyles__Description>
              <components__ActionLink
                extraStyles={
                  Array [
                    "max-width:225px;",
                  ]
                }
                to="/project/step1"
              >
                <FormattedMessage
                  defaultMessage="Find inspiration"
                  id="findInspiration.cta"
                  values={Object {}}
                />
                <components__Arrow />
              </components__ActionLink>
            </findInspirationstyles__InfoBox>
            <ProductImage
              id={1}
              src="japanese.png"
            />
            <ProductImage
              id={2}
              src="industrial-wide.png"
            />
            <ProductImage
              id={3}
              src="minimal.png"
            />
            <ProductImage
              id={4}
              src="industrial.png"
            />
          </MasonryGrid>
        </findInspirationstyles__MasonryGridWrapper>,
      ],
    },
    "ref": null,
    "rendered": Array [
      Object {
        "instance": null,
        "key": undefined,
        "nodeType": "class",
        "props": Object {
          "onResize": [Function],
        },
        "ref": null,
        "rendered": null,
        "type": [Function],
      },
      Object {
        "instance": null,
        "key": undefined,
        "nodeType": "class",
        "props": Object {
          "children": <column__Column
            columns={11}
            mobileColumns={5}
            mobileOffset={1}
            offset={3}
          >
            <findInspirationstyles__Title>
              <FormattedMessage
                defaultMessage="We inspire the brave"
                id="findInspiration.title"
                values={Object {}}
              />
            </findInspirationstyles__Title>
          </column__Column>,
        },
        "ref": null,
        "rendered": Object {
          "instance": null,
          "key": undefined,
          "nodeType": "class",
          "props": Object {
            "children": <findInspirationstyles__Title>
              <FormattedMessage
                defaultMessage="We inspire the brave"
                id="findInspiration.title"
                values={Object {}}
              />
            </findInspirationstyles__Title>,
            "columns": 11,
            "mobileColumns": 5,
            "mobileOffset": 1,
            "offset": 3,
          },
          "ref": null,
          "rendered": Object {
            "instance": null,
            "key": undefined,
            "nodeType": "class",
            "props": Object {
              "children": <FormattedMessage
                defaultMessage="We inspire the brave"
                id="findInspiration.title"
                values={Object {}}
              />,
            },
            "ref": null,
            "rendered": Object {
              "instance": null,
              "key": undefined,
              "nodeType": "class",
              "props": Object {
                "defaultMessage": "We inspire the brave",
                "id": "findInspiration.title",
                "values": Object {},
              },
              "ref": null,
              "rendered": null,
              "type": [Function],
            },
            "type": [Function],
          },
          "type": [Function],
        },
        "type": [Function],
      },
      Object {
        "instance": null,
        "key": undefined,
        "nodeType": "class",
        "props": Object {
          "children": <MasonryGrid
            columns={2}
            containsElementsWithoutImages={false}
            ignoreFirstItem={true}
            isShifted={true}
            nrOfNonImageElements={1}
            scroll={false}
          >
            <findInspirationstyles__InfoBox>
              <findInspirationstyles__Description>
                <FormattedMessage
                  defaultMessage="Explore our styles, tells us what inspires you and start building your project with us."
                  id="findInspiration.description"
                  values={Object {}}
                />
              </findInspirationstyles__Description>
              <components__ActionLink
                extraStyles={
                  Array [
                    "max-width:225px;",
                  ]
                }
                to="/project/step1"
              >
                <FormattedMessage
                  defaultMessage="Find inspiration"
                  id="findInspiration.cta"
                  values={Object {}}
                />
                <components__Arrow />
              </components__ActionLink>
            </findInspirationstyles__InfoBox>
            <ProductImage
              id={1}
              src="japanese.png"
            />
            <ProductImage
              id={2}
              src="industrial-wide.png"
            />
            <ProductImage
              id={3}
              src="minimal.png"
            />
            <ProductImage
              id={4}
              src="industrial.png"
            />
          </MasonryGrid>,
        },
        "ref": null,
        "rendered": Object {
          "instance": null,
          "key": undefined,
          "nodeType": "class",
          "props": Object {
            "children": Array [
              <findInspirationstyles__InfoBox>
                <findInspirationstyles__Description>
                  <FormattedMessage
                    defaultMessage="Explore our styles, tells us what inspires you and start building your project with us."
                    id="findInspiration.description"
                    values={Object {}}
                  />
                </findInspirationstyles__Description>
                <components__ActionLink
                  extraStyles={
                    Array [
                      "max-width:225px;",
                    ]
                  }
                  to="/project/step1"
                >
                  <FormattedMessage
                    defaultMessage="Find inspiration"
                    id="findInspiration.cta"
                    values={Object {}}
                  />
                  <components__Arrow />
                </components__ActionLink>
              </findInspirationstyles__InfoBox>,
              <ProductImage
                id={1}
                src="japanese.png"
              />,
              <ProductImage
                id={2}
                src="industrial-wide.png"
              />,
              <ProductImage
                id={3}
                src="minimal.png"
              />,
              <ProductImage
                id={4}
                src="industrial.png"
              />,
            ],
            "columns": 2,
            "containsElementsWithoutImages": false,
            "ignoreFirstItem": true,
            "isShifted": true,
            "nrOfNonImageElements": 1,
            "scroll": false,
          },
          "ref": null,
          "rendered": Array [
            Object {
              "instance": null,
              "key": undefined,
              "nodeType": "class",
              "props": Object {
                "children": Array [
                  <findInspirationstyles__Description>
                    <FormattedMessage
                      defaultMessage="Explore our styles, tells us what inspires you and start building your project with us."
                      id="findInspiration.description"
                      values={Object {}}
                    />
                  </findInspirationstyles__Description>,
                  <components__ActionLink
                    extraStyles={
                      Array [
                        "max-width:225px;",
                      ]
                    }
                    to="/project/step1"
                  >
                    <FormattedMessage
                      defaultMessage="Find inspiration"
                      id="findInspiration.cta"
                      values={Object {}}
                    />
                    <components__Arrow />
                  </components__ActionLink>,
                ],
              },
              "ref": null,
              "rendered": Array [
                Object {
                  "instance": null,
                  "key": undefined,
                  "nodeType": "class",
                  "props": Object {
                    "children": <FormattedMessage
                      defaultMessage="Explore our styles, tells us what inspires you and start building your project with us."
                      id="findInspiration.description"
                      values={Object {}}
                    />,
                  },
                  "ref": null,
                  "rendered": Object {
                    "instance": null,
                    "key": undefined,
                    "nodeType": "class",
                    "props": Object {
                      "defaultMessage": "Explore our styles, tells us what inspires you and start building your project with us.",
                      "id": "findInspiration.description",
                      "values": Object {},
                    },
                    "ref": null,
                    "rendered": null,
                    "type": [Function],
                  },
                  "type": [Function],
                },
                Object {
                  "instance": null,
                  "key": undefined,
                  "nodeType": "class",
                  "props": Object {
                    "children": Array [
                      <FormattedMessage
                        defaultMessage="Find inspiration"
                        id="findInspiration.cta"
                        values={Object {}}
                      />,
                      <components__Arrow />,
                    ],
                    "extraStyles": Array [
                      "max-width:225px;",
                    ],
                    "to": "/project/step1",
                  },
                  "ref": null,
                  "rendered": Array [
                    Object {
                      "instance": null,
                      "key": undefined,
                      "nodeType": "class",
                      "props": Object {
                        "defaultMessage": "Find inspiration",
                        "id": "findInspiration.cta",
                        "values": Object {},
                      },
                      "ref": null,
                      "rendered": null,
                      "type": [Function],
                    },
                    Object {
                      "instance": null,
                      "key": undefined,
                      "nodeType": "class",
                      "props": Object {},
                      "ref": null,
                      "rendered": null,
                      "type": [Function],
                    },
                  ],
                  "type": [Function],
                },
              ],
              "type": [Function],
            },
            Object {
              "instance": null,
              "key": undefined,
              "nodeType": "class",
              "props": Object {
                "id": 1,
                "src": "japanese.png",
              },
              "ref": null,
              "rendered": null,
              "type": [Function],
            },
            Object {
              "instance": null,
              "key": undefined,
              "nodeType": "class",
              "props": Object {
                "id": 2,
                "src": "industrial-wide.png",
              },
              "ref": null,
              "rendered": null,
              "type": [Function],
            },
            Object {
              "instance": null,
              "key": undefined,
              "nodeType": "class",
              "props": Object {
                "id": 3,
                "src": "minimal.png",
              },
              "ref": null,
              "rendered": null,
              "type": [Function],
            },
            Object {
              "instance": null,
              "key": undefined,
              "nodeType": "class",
              "props": Object {
                "id": 4,
                "src": "industrial.png",
              },
              "ref": null,
              "rendered": null,
              "type": [Function],
            },
          ],
          "type": [Function],
        },
        "type": [Function],
      },
    ],
    "type": [Function],
  },
  Symbol(enzyme.__nodes__): Array [
    Object {
      "instance": null,
      "key": undefined,
      "nodeType": "class",
      "props": Object {
        "children": Array [
          <WindowResize
            onResize={[Function]}
          />,
          <row__Row>
            <column__Column
              columns={11}
              mobileColumns={5}
              mobileOffset={1}
              offset={3}
            >
              <findInspirationstyles__Title>
                <FormattedMessage
                  defaultMessage="We inspire the brave"
                  id="findInspiration.title"
                  values={Object {}}
                />
              </findInspirationstyles__Title>
            </column__Column>
          </row__Row>,
          <findInspirationstyles__MasonryGridWrapper>
            <MasonryGrid
              columns={2}
              containsElementsWithoutImages={false}
              ignoreFirstItem={true}
              isShifted={true}
              nrOfNonImageElements={1}
              scroll={false}
            >
              <findInspirationstyles__InfoBox>
                <findInspirationstyles__Description>
                  <FormattedMessage
                    defaultMessage="Explore our styles, tells us what inspires you and start building your project with us."
                    id="findInspiration.description"
                    values={Object {}}
                  />
                </findInspirationstyles__Description>
                <components__ActionLink
                  extraStyles={
                    Array [
                      "max-width:225px;",
                    ]
                  }
                  to="/project/step1"
                >
                  <FormattedMessage
                    defaultMessage="Find inspiration"
                    id="findInspiration.cta"
                    values={Object {}}
                  />
                  <components__Arrow />
                </components__ActionLink>
              </findInspirationstyles__InfoBox>
              <ProductImage
                id={1}
                src="japanese.png"
              />
              <ProductImage
                id={2}
                src="industrial-wide.png"
              />
              <ProductImage
                id={3}
                src="minimal.png"
              />
              <ProductImage
                id={4}
                src="industrial.png"
              />
            </MasonryGrid>
          </findInspirationstyles__MasonryGridWrapper>,
        ],
      },
      "ref": null,
      "rendered": Array [
        Object {
          "instance": null,
          "key": undefined,
          "nodeType": "class",
          "props": Object {
            "onResize": [Function],
          },
          "ref": null,
          "rendered": null,
          "type": [Function],
        },
        Object {
          "instance": null,
          "key": undefined,
          "nodeType": "class",
          "props": Object {
            "children": <column__Column
              columns={11}
              mobileColumns={5}
              mobileOffset={1}
              offset={3}
            >
              <findInspirationstyles__Title>
                <FormattedMessage
                  defaultMessage="We inspire the brave"
                  id="findInspiration.title"
                  values={Object {}}
                />
              </findInspirationstyles__Title>
            </column__Column>,
          },
          "ref": null,
          "rendered": Object {
            "instance": null,
            "key": undefined,
            "nodeType": "class",
            "props": Object {
              "children": <findInspirationstyles__Title>
                <FormattedMessage
                  defaultMessage="We inspire the brave"
                  id="findInspiration.title"
                  values={Object {}}
                />
              </findInspirationstyles__Title>,
              "columns": 11,
              "mobileColumns": 5,
              "mobileOffset": 1,
              "offset": 3,
            },
            "ref": null,
            "rendered": Object {
              "instance": null,
              "key": undefined,
              "nodeType": "class",
              "props": Object {
                "children": <FormattedMessage
                  defaultMessage="We inspire the brave"
                  id="findInspiration.title"
                  values={Object {}}
                />,
              },
              "ref": null,
              "rendered": Object {
                "instance": null,
                "key": undefined,
                "nodeType": "class",
                "props": Object {
                  "defaultMessage": "We inspire the brave",
                  "id": "findInspiration.title",
                  "values": Object {},
                },
                "ref": null,
                "rendered": null,
                "type": [Function],
              },
              "type": [Function],
            },
            "type": [Function],
          },
          "type": [Function],
        },
        Object {
          "instance": null,
          "key": undefined,
          "nodeType": "class",
          "props": Object {
            "children": <MasonryGrid
              columns={2}
              containsElementsWithoutImages={false}
              ignoreFirstItem={true}
              isShifted={true}
              nrOfNonImageElements={1}
              scroll={false}
            >
              <findInspirationstyles__InfoBox>
                <findInspirationstyles__Description>
                  <FormattedMessage
                    defaultMessage="Explore our styles, tells us what inspires you and start building your project with us."
                    id="findInspiration.description"
                    values={Object {}}
                  />
                </findInspirationstyles__Description>
                <components__ActionLink
                  extraStyles={
                    Array [
                      "max-width:225px;",
                    ]
                  }
                  to="/project/step1"
                >
                  <FormattedMessage
                    defaultMessage="Find inspiration"
                    id="findInspiration.cta"
                    values={Object {}}
                  />
                  <components__Arrow />
                </components__ActionLink>
              </findInspirationstyles__InfoBox>
              <ProductImage
                id={1}
                src="japanese.png"
              />
              <ProductImage
                id={2}
                src="industrial-wide.png"
              />
              <ProductImage
                id={3}
                src="minimal.png"
              />
              <ProductImage
                id={4}
                src="industrial.png"
              />
            </MasonryGrid>,
          },
          "ref": null,
          "rendered": Object {
            "instance": null,
            "key": undefined,
            "nodeType": "class",
            "props": Object {
              "children": Array [
                <findInspirationstyles__InfoBox>
                  <findInspirationstyles__Description>
                    <FormattedMessage
                      defaultMessage="Explore our styles, tells us what inspires you and start building your project with us."
                      id="findInspiration.description"
                      values={Object {}}
                    />
                  </findInspirationstyles__Description>
                  <components__ActionLink
                    extraStyles={
                      Array [
                        "max-width:225px;",
                      ]
                    }
                    to="/project/step1"
                  >
                    <FormattedMessage
                      defaultMessage="Find inspiration"
                      id="findInspiration.cta"
                      values={Object {}}
                    />
                    <components__Arrow />
                  </components__ActionLink>
                </findInspirationstyles__InfoBox>,
                <ProductImage
                  id={1}
                  src="japanese.png"
                />,
                <ProductImage
                  id={2}
                  src="industrial-wide.png"
                />,
                <ProductImage
                  id={3}
                  src="minimal.png"
                />,
                <ProductImage
                  id={4}
                  src="industrial.png"
                />,
              ],
              "columns": 2,
              "containsElementsWithoutImages": false,
              "ignoreFirstItem": true,
              "isShifted": true,
              "nrOfNonImageElements": 1,
              "scroll": false,
            },
            "ref": null,
            "rendered": Array [
              Object {
                "instance": null,
                "key": undefined,
                "nodeType": "class",
                "props": Object {
                  "children": Array [
                    <findInspirationstyles__Description>
                      <FormattedMessage
                        defaultMessage="Explore our styles, tells us what inspires you and start building your project with us."
                        id="findInspiration.description"
                        values={Object {}}
                      />
                    </findInspirationstyles__Description>,
                    <components__ActionLink
                      extraStyles={
                        Array [
                          "max-width:225px;",
                        ]
                      }
                      to="/project/step1"
                    >
                      <FormattedMessage
                        defaultMessage="Find inspiration"
                        id="findInspiration.cta"
                        values={Object {}}
                      />
                      <components__Arrow />
                    </components__ActionLink>,
                  ],
                },
                "ref": null,
                "rendered": Array [
                  Object {
                    "instance": null,
                    "key": undefined,
                    "nodeType": "class",
                    "props": Object {
                      "children": <FormattedMessage
                        defaultMessage="Explore our styles, tells us what inspires you and start building your project with us."
                        id="findInspiration.description"
                        values={Object {}}
                      />,
                    },
                    "ref": null,
                    "rendered": Object {
                      "instance": null,
                      "key": undefined,
                      "nodeType": "class",
                      "props": Object {
                        "defaultMessage": "Explore our styles, tells us what inspires you and start building your project with us.",
                        "id": "findInspiration.description",
                        "values": Object {},
                      },
                      "ref": null,
                      "rendered": null,
                      "type": [Function],
                    },
                    "type": [Function],
                  },
                  Object {
                    "instance": null,
                    "key": undefined,
                    "nodeType": "class",
                    "props": Object {
                      "children": Array [
                        <FormattedMessage
                          defaultMessage="Find inspiration"
                          id="findInspiration.cta"
                          values={Object {}}
                        />,
                        <components__Arrow />,
                      ],
                      "extraStyles": Array [
                        "max-width:225px;",
                      ],
                      "to": "/project/step1",
                    },
                    "ref": null,
                    "rendered": Array [
                      Object {
                        "instance": null,
                        "key": undefined,
                        "nodeType": "class",
                        "props": Object {
                          "defaultMessage": "Find inspiration",
                          "id": "findInspiration.cta",
                          "values": Object {},
                        },
                        "ref": null,
                        "rendered": null,
                        "type": [Function],
                      },
                      Object {
                        "instance": null,
                        "key": undefined,
                        "nodeType": "class",
                        "props": Object {},
                        "ref": null,
                        "rendered": null,
                        "type": [Function],
                      },
                    ],
                    "type": [Function],
                  },
                ],
                "type": [Function],
              },
              Object {
                "instance": null,
                "key": undefined,
                "nodeType": "class",
                "props": Object {
                  "id": 1,
                  "src": "japanese.png",
                },
                "ref": null,
                "rendered": null,
                "type": [Function],
              },
              Object {
                "instance": null,
                "key": undefined,
                "nodeType": "class",
                "props": Object {
                  "id": 2,
                  "src": "industrial-wide.png",
                },
                "ref": null,
                "rendered": null,
                "type": [Function],
              },
              Object {
                "instance": null,
                "key": undefined,
                "nodeType": "class",
                "props": Object {
                  "id": 3,
                  "src": "minimal.png",
                },
                "ref": null,
                "rendered": null,
                "type": [Function],
              },
              Object {
                "instance": null,
                "key": undefined,
                "nodeType": "class",
                "props": Object {
                  "id": 4,
                  "src": "industrial.png",
                },
                "ref": null,
                "rendered": null,
                "type": [Function],
              },
            ],
            "type": [Function],
          },
          "type": [Function],
        },
      ],
      "type": [Function],
    },
  ],
  Symbol(enzyme.__options__): Object {
    "adapter": ReactSixteenAdapter {
      "options": Object {
        "enableComponentDidUpdateOnSetState": true,
      },
    },
  },
}
`;
