// Jest Snapshot v1, https://goo.gl/fbAQLP

exports[`<CustomNewsletterForm /> should render correctly 1`] = `
ShallowWrapper {
  "length": 1,
  Symbol(enzyme.__root__): [Circular],
  Symbol(enzyme.__unrendered__): <customNewsletterFormComponent
    handleSubmit={[Function]}
    hasError={false}
    intl={
      Object {
        "formatHTMLMessage": [Function],
        "formatMessage": [Function],
      }
    }
    isFetching={false}
    isSuccess={false}
    valid={false}
  />,
  Symbol(enzyme.__renderer__): Object {
    "batchedUpdates": [Function],
    "getNode": [Function],
    "render": [Function],
    "simulateEvent": [Function],
    "unmount": [Function],
  },
  Symbol(enzyme.__node__): Object {
    "instance": null,
    "key": undefined,
    "nodeType": "class",
    "props": Object {
      "children": Array [
        <Field
          component={[Function]}
          hasError={false}
          name="email_address"
          placeholder="customNewsletterForm.placeholder / Type your email here / {}"
        />,
        <customNewsletterFormstyles__SubmitButton
          disabled={true}
          type="submit"
        />,
      ],
      "noValidate": true,
      "onSubmit": [Function],
    },
    "ref": null,
    "rendered": Array [
      Object {
        "instance": null,
        "key": undefined,
        "nodeType": "class",
        "props": Object {
          "component": [Function],
          "hasError": false,
          "name": "email_address",
          "placeholder": "customNewsletterForm.placeholder / Type your email here / {}",
        },
        "ref": null,
        "rendered": null,
        "type": [Function],
      },
      Object {
        "instance": null,
        "key": undefined,
        "nodeType": "class",
        "props": Object {
          "disabled": true,
          "type": "submit",
        },
        "ref": null,
        "rendered": null,
        "type": [Function],
      },
    ],
    "type": [Function],
  },
  Symbol(enzyme.__nodes__): Array [
    Object {
      "instance": null,
      "key": undefined,
      "nodeType": "class",
      "props": Object {
        "children": Array [
          <Field
            component={[Function]}
            hasError={false}
            name="email_address"
            placeholder="customNewsletterForm.placeholder / Type your email here / {}"
          />,
          <customNewsletterFormstyles__SubmitButton
            disabled={true}
            type="submit"
          />,
        ],
        "noValidate": true,
        "onSubmit": [Function],
      },
      "ref": null,
      "rendered": Array [
        Object {
          "instance": null,
          "key": undefined,
          "nodeType": "class",
          "props": Object {
            "component": [Function],
            "hasError": false,
            "name": "email_address",
            "placeholder": "customNewsletterForm.placeholder / Type your email here / {}",
          },
          "ref": null,
          "rendered": null,
          "type": [Function],
        },
        Object {
          "instance": null,
          "key": undefined,
          "nodeType": "class",
          "props": Object {
            "disabled": true,
            "type": "submit",
          },
          "ref": null,
          "rendered": null,
          "type": [Function],
        },
      ],
      "type": [Function],
    },
  ],
  Symbol(enzyme.__options__): Object {
    "adapter": ReactSixteenAdapter {
      "options": Object {
        "enableComponentDidUpdateOnSetState": true,
      },
    },
  },
}
`;
