// Jest Snapshot v1, https://goo.gl/fbAQLP

exports[`<Modals /> should render correctly 1`] = `
ShallowWrapper {
  "length": 1,
  Symbol(enzyme.__root__): [Circular],
  Symbol(enzyme.__unrendered__): <Modals
    closeModal={[Function]}
    isProjectFlow={false}
    isPurchaseFlow={false}
    openModal={[Function]}
    type=""
  />,
  Symbol(enzyme.__renderer__): Object {
    "batchedUpdates": [Function],
    "getNode": [Function],
    "render": [Function],
    "simulateEvent": [Function],
    "unmount": [Function],
  },
  Symbol(enzyme.__node__): Object {
    "instance": null,
    "key": undefined,
    "nodeType": "class",
    "props": Object {
      "ariaHideApp": true,
      "bodyOpenClassName": "ReactModal__Body--open",
      "children": "",
      "closeTimeoutMS": 0,
      "isOpen": false,
      "onRequestClose": [Function],
      "parentSelector": [Function],
      "portalClassName": "ReactModalPortal",
      "shouldCloseOnEsc": true,
      "shouldCloseOnOverlayClick": true,
      "shouldFocusAfterRender": true,
      "shouldReturnFocusAfterClose": true,
      "style": Object {
        "content": Object {
          "backgroundImage": "linear-gradient(235deg, #fff104, #fe51bb)",
          "border": "none",
          "borderRadius": "none",
          "bottom": "0",
          "left": "0",
          "padding": 0,
          "right": "0",
          "top": "0",
          "zIndex": 1,
        },
        "overlay": Object {
          "position": "absolute",
          "zIndex": 100,
        },
      },
    },
    "ref": null,
    "rendered": "",
    "type": [Function],
  },
  Symbol(enzyme.__nodes__): Array [
    Object {
      "instance": null,
      "key": undefined,
      "nodeType": "class",
      "props": Object {
        "ariaHideApp": true,
        "bodyOpenClassName": "ReactModal__Body--open",
        "children": "",
        "closeTimeoutMS": 0,
        "isOpen": false,
        "onRequestClose": [Function],
        "parentSelector": [Function],
        "portalClassName": "ReactModalPortal",
        "shouldCloseOnEsc": true,
        "shouldCloseOnOverlayClick": true,
        "shouldFocusAfterRender": true,
        "shouldReturnFocusAfterClose": true,
        "style": Object {
          "content": Object {
            "backgroundImage": "linear-gradient(235deg, #fff104, #fe51bb)",
            "border": "none",
            "borderRadius": "none",
            "bottom": "0",
            "left": "0",
            "padding": 0,
            "right": "0",
            "top": "0",
            "zIndex": 1,
          },
          "overlay": Object {
            "position": "absolute",
            "zIndex": 100,
          },
        },
      },
      "ref": null,
      "rendered": "",
      "type": [Function],
    },
  ],
  Symbol(enzyme.__options__): Object {
    "adapter": ReactSixteenAdapter {
      "options": Object {
        "enableComponentDidUpdateOnSetState": true,
      },
    },
  },
}
`;
