// Jest Snapshot v1, https://goo.gl/fbAQLP

exports[`<GradientBox /> should render correctly 1`] = `
ShallowWrapper {
  "length": 1,
  Symbol(enzyme.__root__): [Circular],
  Symbol(enzyme.__unrendered__): <GradientBox
    address={Object {}}
    delivery={546}
    order={true}
    pink={true}
    subtotal={29400}
    total={23423}
    totalVat={23423}
    vat={832}
  />,
  Symbol(enzyme.__renderer__): Object {
    "batchedUpdates": [Function],
    "getNode": [Function],
    "render": [Function],
    "simulateEvent": [Function],
    "unmount": [Function],
  },
  Symbol(enzyme.__node__): Object {
    "instance": null,
    "key": undefined,
    "nodeType": "class",
    "props": Object {
      "children": <gradientBoxstyles__BackgroundWrapper>
        <gradientBoxstyles__WhiteBox>
          <gradientBoxstyles__Title>
            <FormattedMessage
              defaultMessage="ORDER SUMMARY"
              id="gradientBox.titleOrder"
              values={Object {}}
            />
          </gradientBoxstyles__Title>
          <gradientBoxstyles__Row>
            <gradientBoxstyles__Copy>
              <FormattedMessage
                defaultMessage="Subtotal before delivery:"
                id="gradientBox.subtotal"
                values={Object {}}
              />
            </gradientBoxstyles__Copy>
            <gradientBoxstyles__Price>
              <FormattedMessage
                defaultMessage="£{ price }"
                id="gradientBox.currency"
                values={
                  Object {
                    "price": "29400.00",
                  }
                }
              />
            </gradientBoxstyles__Price>
          </gradientBoxstyles__Row>
          <gradientBoxstyles__Row>
            <gradientBoxstyles__Copy>
              <FormattedMessage
                defaultMessage="Delivery charge:"
                id="gradientBox.delivery"
                values={Object {}}
              />
            </gradientBoxstyles__Copy>
            <gradientBoxstyles__Price>
              <FormattedMessage
                defaultMessage="£{ price }"
                id="gradientBox.currency"
                values={
                  Object {
                    "price": 546,
                  }
                }
              />
            </gradientBoxstyles__Price>
          </gradientBoxstyles__Row>
          <gradientBoxstyles__Border />
          <gradientBoxstyles__Row>
            <gradientBoxstyles__Copy>
              <FormattedMessage
                defaultMessage="Total ex.VAT:"
                id="gradientBox.vat"
                values={Object {}}
              />
            </gradientBoxstyles__Copy>
            <gradientBoxstyles__Price>
              <FormattedMessage
                defaultMessage="£{ price }"
                id="gradientBox.currency"
                values={
                  Object {
                    "price": "832.00",
                  }
                }
              />
            </gradientBoxstyles__Price>
          </gradientBoxstyles__Row>
          <gradientBoxstyles__Row>
            <gradientBoxstyles__Copy>
              <FormattedMessage
                defaultMessage="VAT 20%:"
                id="gradientBox.totalVat"
                values={Object {}}
              />
            </gradientBoxstyles__Copy>
            <gradientBoxstyles__Price>
              <FormattedMessage
                defaultMessage="£{ price }"
                id="gradientBox.currency"
                values={
                  Object {
                    "price": "30232.00",
                  }
                }
              />
            </gradientBoxstyles__Price>
          </gradientBoxstyles__Row>
        </gradientBoxstyles__WhiteBox>
        <gradientBoxstyles__Row
          white={true}
        >
          <gradientBoxstyles__Copy
            white={true}
          >
            <FormattedMessage
              defaultMessage="Total cost:"
              id="gradientBox.total"
              values={Object {}}
            />
          </gradientBoxstyles__Copy>
          <gradientBoxstyles__Price
            white={true}
          >
            <FormattedMessage
              defaultMessage="£{ price }"
              id="gradientBox.currency"
              values={
                Object {
                  "price": "30778.00",
                }
              }
            />
          </gradientBoxstyles__Price>
        </gradientBoxstyles__Row>
      </gradientBoxstyles__BackgroundWrapper>,
    },
    "ref": null,
    "rendered": Object {
      "instance": null,
      "key": undefined,
      "nodeType": "class",
      "props": Object {
        "children": Array [
          <gradientBoxstyles__WhiteBox>
            <gradientBoxstyles__Title>
              <FormattedMessage
                defaultMessage="ORDER SUMMARY"
                id="gradientBox.titleOrder"
                values={Object {}}
              />
            </gradientBoxstyles__Title>
            <gradientBoxstyles__Row>
              <gradientBoxstyles__Copy>
                <FormattedMessage
                  defaultMessage="Subtotal before delivery:"
                  id="gradientBox.subtotal"
                  values={Object {}}
                />
              </gradientBoxstyles__Copy>
              <gradientBoxstyles__Price>
                <FormattedMessage
                  defaultMessage="£{ price }"
                  id="gradientBox.currency"
                  values={
                    Object {
                      "price": "29400.00",
                    }
                  }
                />
              </gradientBoxstyles__Price>
            </gradientBoxstyles__Row>
            <gradientBoxstyles__Row>
              <gradientBoxstyles__Copy>
                <FormattedMessage
                  defaultMessage="Delivery charge:"
                  id="gradientBox.delivery"
                  values={Object {}}
                />
              </gradientBoxstyles__Copy>
              <gradientBoxstyles__Price>
                <FormattedMessage
                  defaultMessage="£{ price }"
                  id="gradientBox.currency"
                  values={
                    Object {
                      "price": 546,
                    }
                  }
                />
              </gradientBoxstyles__Price>
            </gradientBoxstyles__Row>
            <gradientBoxstyles__Border />
            <gradientBoxstyles__Row>
              <gradientBoxstyles__Copy>
                <FormattedMessage
                  defaultMessage="Total ex.VAT:"
                  id="gradientBox.vat"
                  values={Object {}}
                />
              </gradientBoxstyles__Copy>
              <gradientBoxstyles__Price>
                <FormattedMessage
                  defaultMessage="£{ price }"
                  id="gradientBox.currency"
                  values={
                    Object {
                      "price": "832.00",
                    }
                  }
                />
              </gradientBoxstyles__Price>
            </gradientBoxstyles__Row>
            <gradientBoxstyles__Row>
              <gradientBoxstyles__Copy>
                <FormattedMessage
                  defaultMessage="VAT 20%:"
                  id="gradientBox.totalVat"
                  values={Object {}}
                />
              </gradientBoxstyles__Copy>
              <gradientBoxstyles__Price>
                <FormattedMessage
                  defaultMessage="£{ price }"
                  id="gradientBox.currency"
                  values={
                    Object {
                      "price": "30232.00",
                    }
                  }
                />
              </gradientBoxstyles__Price>
            </gradientBoxstyles__Row>
          </gradientBoxstyles__WhiteBox>,
          <gradientBoxstyles__Row
            white={true}
          >
            <gradientBoxstyles__Copy
              white={true}
            >
              <FormattedMessage
                defaultMessage="Total cost:"
                id="gradientBox.total"
                values={Object {}}
              />
            </gradientBoxstyles__Copy>
            <gradientBoxstyles__Price
              white={true}
            >
              <FormattedMessage
                defaultMessage="£{ price }"
                id="gradientBox.currency"
                values={
                  Object {
                    "price": "30778.00",
                  }
                }
              />
            </gradientBoxstyles__Price>
          </gradientBoxstyles__Row>,
        ],
      },
      "ref": null,
      "rendered": Array [
        Object {
          "instance": null,
          "key": undefined,
          "nodeType": "class",
          "props": Object {
            "children": Array [
              <gradientBoxstyles__Title>
                <FormattedMessage
                  defaultMessage="ORDER SUMMARY"
                  id="gradientBox.titleOrder"
                  values={Object {}}
                />
              </gradientBoxstyles__Title>,
              <gradientBoxstyles__Row>
                <gradientBoxstyles__Copy>
                  <FormattedMessage
                    defaultMessage="Subtotal before delivery:"
                    id="gradientBox.subtotal"
                    values={Object {}}
                  />
                </gradientBoxstyles__Copy>
                <gradientBoxstyles__Price>
                  <FormattedMessage
                    defaultMessage="£{ price }"
                    id="gradientBox.currency"
                    values={
                      Object {
                        "price": "29400.00",
                      }
                    }
                  />
                </gradientBoxstyles__Price>
              </gradientBoxstyles__Row>,
              <gradientBoxstyles__Row>
                <gradientBoxstyles__Copy>
                  <FormattedMessage
                    defaultMessage="Delivery charge:"
                    id="gradientBox.delivery"
                    values={Object {}}
                  />
                </gradientBoxstyles__Copy>
                <gradientBoxstyles__Price>
                  <FormattedMessage
                    defaultMessage="£{ price }"
                    id="gradientBox.currency"
                    values={
                      Object {
                        "price": 546,
                      }
                    }
                  />
                </gradientBoxstyles__Price>
              </gradientBoxstyles__Row>,
              <gradientBoxstyles__Border />,
              <gradientBoxstyles__Row>
                <gradientBoxstyles__Copy>
                  <FormattedMessage
                    defaultMessage="Total ex.VAT:"
                    id="gradientBox.vat"
                    values={Object {}}
                  />
                </gradientBoxstyles__Copy>
                <gradientBoxstyles__Price>
                  <FormattedMessage
                    defaultMessage="£{ price }"
                    id="gradientBox.currency"
                    values={
                      Object {
                        "price": "832.00",
                      }
                    }
                  />
                </gradientBoxstyles__Price>
              </gradientBoxstyles__Row>,
              <gradientBoxstyles__Row>
                <gradientBoxstyles__Copy>
                  <FormattedMessage
                    defaultMessage="VAT 20%:"
                    id="gradientBox.totalVat"
                    values={Object {}}
                  />
                </gradientBoxstyles__Copy>
                <gradientBoxstyles__Price>
                  <FormattedMessage
                    defaultMessage="£{ price }"
                    id="gradientBox.currency"
                    values={
                      Object {
                        "price": "30232.00",
                      }
                    }
                  />
                </gradientBoxstyles__Price>
              </gradientBoxstyles__Row>,
            ],
          },
          "ref": null,
          "rendered": Array [
            Object {
              "instance": null,
              "key": undefined,
              "nodeType": "class",
              "props": Object {
                "children": <FormattedMessage
                  defaultMessage="ORDER SUMMARY"
                  id="gradientBox.titleOrder"
                  values={Object {}}
                />,
              },
              "ref": null,
              "rendered": Object {
                "instance": null,
                "key": undefined,
                "nodeType": "class",
                "props": Object {
                  "defaultMessage": "ORDER SUMMARY",
                  "id": "gradientBox.titleOrder",
                  "values": Object {},
                },
                "ref": null,
                "rendered": null,
                "type": [Function],
              },
              "type": [Function],
            },
            Object {
              "instance": null,
              "key": undefined,
              "nodeType": "class",
              "props": Object {
                "children": Array [
                  <gradientBoxstyles__Copy>
                    <FormattedMessage
                      defaultMessage="Subtotal before delivery:"
                      id="gradientBox.subtotal"
                      values={Object {}}
                    />
                  </gradientBoxstyles__Copy>,
                  <gradientBoxstyles__Price>
                    <FormattedMessage
                      defaultMessage="£{ price }"
                      id="gradientBox.currency"
                      values={
                        Object {
                          "price": "29400.00",
                        }
                      }
                    />
                  </gradientBoxstyles__Price>,
                ],
              },
              "ref": null,
              "rendered": Array [
                Object {
                  "instance": null,
                  "key": undefined,
                  "nodeType": "class",
                  "props": Object {
                    "children": <FormattedMessage
                      defaultMessage="Subtotal before delivery:"
                      id="gradientBox.subtotal"
                      values={Object {}}
                    />,
                  },
                  "ref": null,
                  "rendered": Object {
                    "instance": null,
                    "key": undefined,
                    "nodeType": "class",
                    "props": Object {
                      "defaultMessage": "Subtotal before delivery:",
                      "id": "gradientBox.subtotal",
                      "values": Object {},
                    },
                    "ref": null,
                    "rendered": null,
                    "type": [Function],
                  },
                  "type": [Function],
                },
                Object {
                  "instance": null,
                  "key": undefined,
                  "nodeType": "class",
                  "props": Object {
                    "children": <FormattedMessage
                      defaultMessage="£{ price }"
                      id="gradientBox.currency"
                      values={
                        Object {
                          "price": "29400.00",
                        }
                      }
                    />,
                  },
                  "ref": null,
                  "rendered": Object {
                    "instance": null,
                    "key": undefined,
                    "nodeType": "class",
                    "props": Object {
                      "defaultMessage": "£{ price }",
                      "id": "gradientBox.currency",
                      "values": Object {
                        "price": "29400.00",
                      },
                    },
                    "ref": null,
                    "rendered": null,
                    "type": [Function],
                  },
                  "type": [Function],
                },
              ],
              "type": [Function],
            },
            Object {
              "instance": null,
              "key": undefined,
              "nodeType": "class",
              "props": Object {
                "children": Array [
                  <gradientBoxstyles__Copy>
                    <FormattedMessage
                      defaultMessage="Delivery charge:"
                      id="gradientBox.delivery"
                      values={Object {}}
                    />
                  </gradientBoxstyles__Copy>,
                  <gradientBoxstyles__Price>
                    <FormattedMessage
                      defaultMessage="£{ price }"
                      id="gradientBox.currency"
                      values={
                        Object {
                          "price": 546,
                        }
                      }
                    />
                  </gradientBoxstyles__Price>,
                ],
              },
              "ref": null,
              "rendered": Array [
                Object {
                  "instance": null,
                  "key": undefined,
                  "nodeType": "class",
                  "props": Object {
                    "children": <FormattedMessage
                      defaultMessage="Delivery charge:"
                      id="gradientBox.delivery"
                      values={Object {}}
                    />,
                  },
                  "ref": null,
                  "rendered": Object {
                    "instance": null,
                    "key": undefined,
                    "nodeType": "class",
                    "props": Object {
                      "defaultMessage": "Delivery charge:",
                      "id": "gradientBox.delivery",
                      "values": Object {},
                    },
                    "ref": null,
                    "rendered": null,
                    "type": [Function],
                  },
                  "type": [Function],
                },
                Object {
                  "instance": null,
                  "key": undefined,
                  "nodeType": "class",
                  "props": Object {
                    "children": <FormattedMessage
                      defaultMessage="£{ price }"
                      id="gradientBox.currency"
                      values={
                        Object {
                          "price": 546,
                        }
                      }
                    />,
                  },
                  "ref": null,
                  "rendered": Object {
                    "instance": null,
                    "key": undefined,
                    "nodeType": "class",
                    "props": Object {
                      "defaultMessage": "£{ price }",
                      "id": "gradientBox.currency",
                      "values": Object {
                        "price": 546,
                      },
                    },
                    "ref": null,
                    "rendered": null,
                    "type": [Function],
                  },
                  "type": [Function],
                },
              ],
              "type": [Function],
            },
            Object {
              "instance": null,
              "key": undefined,
              "nodeType": "class",
              "props": Object {},
              "ref": null,
              "rendered": null,
              "type": [Function],
            },
            Object {
              "instance": null,
              "key": undefined,
              "nodeType": "class",
              "props": Object {
                "children": Array [
                  <gradientBoxstyles__Copy>
                    <FormattedMessage
                      defaultMessage="Total ex.VAT:"
                      id="gradientBox.vat"
                      values={Object {}}
                    />
                  </gradientBoxstyles__Copy>,
                  <gradientBoxstyles__Price>
                    <FormattedMessage
                      defaultMessage="£{ price }"
                      id="gradientBox.currency"
                      values={
                        Object {
                          "price": "832.00",
                        }
                      }
                    />
                  </gradientBoxstyles__Price>,
                ],
              },
              "ref": null,
              "rendered": Array [
                Object {
                  "instance": null,
                  "key": undefined,
                  "nodeType": "class",
                  "props": Object {
                    "children": <FormattedMessage
                      defaultMessage="Total ex.VAT:"
                      id="gradientBox.vat"
                      values={Object {}}
                    />,
                  },
                  "ref": null,
                  "rendered": Object {
                    "instance": null,
                    "key": undefined,
                    "nodeType": "class",
                    "props": Object {
                      "defaultMessage": "Total ex.VAT:",
                      "id": "gradientBox.vat",
                      "values": Object {},
                    },
                    "ref": null,
                    "rendered": null,
                    "type": [Function],
                  },
                  "type": [Function],
                },
                Object {
                  "instance": null,
                  "key": undefined,
                  "nodeType": "class",
                  "props": Object {
                    "children": <FormattedMessage
                      defaultMessage="£{ price }"
                      id="gradientBox.currency"
                      values={
                        Object {
                          "price": "832.00",
                        }
                      }
                    />,
                  },
                  "ref": null,
                  "rendered": Object {
                    "instance": null,
                    "key": undefined,
                    "nodeType": "class",
                    "props": Object {
                      "defaultMessage": "£{ price }",
                      "id": "gradientBox.currency",
                      "values": Object {
                        "price": "832.00",
                      },
                    },
                    "ref": null,
                    "rendered": null,
                    "type": [Function],
                  },
                  "type": [Function],
                },
              ],
              "type": [Function],
            },
            Object {
              "instance": null,
              "key": undefined,
              "nodeType": "class",
              "props": Object {
                "children": Array [
                  <gradientBoxstyles__Copy>
                    <FormattedMessage
                      defaultMessage="VAT 20%:"
                      id="gradientBox.totalVat"
                      values={Object {}}
                    />
                  </gradientBoxstyles__Copy>,
                  <gradientBoxstyles__Price>
                    <FormattedMessage
                      defaultMessage="£{ price }"
                      id="gradientBox.currency"
                      values={
                        Object {
                          "price": "30232.00",
                        }
                      }
                    />
                  </gradientBoxstyles__Price>,
                ],
              },
              "ref": null,
              "rendered": Array [
                Object {
                  "instance": null,
                  "key": undefined,
                  "nodeType": "class",
                  "props": Object {
                    "children": <FormattedMessage
                      defaultMessage="VAT 20%:"
                      id="gradientBox.totalVat"
                      values={Object {}}
                    />,
                  },
                  "ref": null,
                  "rendered": Object {
                    "instance": null,
                    "key": undefined,
                    "nodeType": "class",
                    "props": Object {
                      "defaultMessage": "VAT 20%:",
                      "id": "gradientBox.totalVat",
                      "values": Object {},
                    },
                    "ref": null,
                    "rendered": null,
                    "type": [Function],
                  },
                  "type": [Function],
                },
                Object {
                  "instance": null,
                  "key": undefined,
                  "nodeType": "class",
                  "props": Object {
                    "children": <FormattedMessage
                      defaultMessage="£{ price }"
                      id="gradientBox.currency"
                      values={
                        Object {
                          "price": "30232.00",
                        }
                      }
                    />,
                  },
                  "ref": null,
                  "rendered": Object {
                    "instance": null,
                    "key": undefined,
                    "nodeType": "class",
                    "props": Object {
                      "defaultMessage": "£{ price }",
                      "id": "gradientBox.currency",
                      "values": Object {
                        "price": "30232.00",
                      },
                    },
                    "ref": null,
                    "rendered": null,
                    "type": [Function],
                  },
                  "type": [Function],
                },
              ],
              "type": [Function],
            },
          ],
          "type": [Function],
        },
        Object {
          "instance": null,
          "key": undefined,
          "nodeType": "class",
          "props": Object {
            "children": Array [
              <gradientBoxstyles__Copy
                white={true}
              >
                <FormattedMessage
                  defaultMessage="Total cost:"
                  id="gradientBox.total"
                  values={Object {}}
                />
              </gradientBoxstyles__Copy>,
              <gradientBoxstyles__Price
                white={true}
              >
                <FormattedMessage
                  defaultMessage="£{ price }"
                  id="gradientBox.currency"
                  values={
                    Object {
                      "price": "30778.00",
                    }
                  }
                />
              </gradientBoxstyles__Price>,
            ],
            "white": true,
          },
          "ref": null,
          "rendered": Array [
            Object {
              "instance": null,
              "key": undefined,
              "nodeType": "class",
              "props": Object {
                "children": <FormattedMessage
                  defaultMessage="Total cost:"
                  id="gradientBox.total"
                  values={Object {}}
                />,
                "white": true,
              },
              "ref": null,
              "rendered": Object {
                "instance": null,
                "key": undefined,
                "nodeType": "class",
                "props": Object {
                  "defaultMessage": "Total cost:",
                  "id": "gradientBox.total",
                  "values": Object {},
                },
                "ref": null,
                "rendered": null,
                "type": [Function],
              },
              "type": [Function],
            },
            Object {
              "instance": null,
              "key": undefined,
              "nodeType": "class",
              "props": Object {
                "children": <FormattedMessage
                  defaultMessage="£{ price }"
                  id="gradientBox.currency"
                  values={
                    Object {
                      "price": "30778.00",
                    }
                  }
                />,
                "white": true,
              },
              "ref": null,
              "rendered": Object {
                "instance": null,
                "key": undefined,
                "nodeType": "class",
                "props": Object {
                  "defaultMessage": "£{ price }",
                  "id": "gradientBox.currency",
                  "values": Object {
                    "price": "30778.00",
                  },
                },
                "ref": null,
                "rendered": null,
                "type": [Function],
              },
              "type": [Function],
            },
          ],
          "type": [Function],
        },
      ],
      "type": [Function],
    },
    "type": [Function],
  },
  Symbol(enzyme.__nodes__): Array [
    Object {
      "instance": null,
      "key": undefined,
      "nodeType": "class",
      "props": Object {
        "children": <gradientBoxstyles__BackgroundWrapper>
          <gradientBoxstyles__WhiteBox>
            <gradientBoxstyles__Title>
              <FormattedMessage
                defaultMessage="ORDER SUMMARY"
                id="gradientBox.titleOrder"
                values={Object {}}
              />
            </gradientBoxstyles__Title>
            <gradientBoxstyles__Row>
              <gradientBoxstyles__Copy>
                <FormattedMessage
                  defaultMessage="Subtotal before delivery:"
                  id="gradientBox.subtotal"
                  values={Object {}}
                />
              </gradientBoxstyles__Copy>
              <gradientBoxstyles__Price>
                <FormattedMessage
                  defaultMessage="£{ price }"
                  id="gradientBox.currency"
                  values={
                    Object {
                      "price": "29400.00",
                    }
                  }
                />
              </gradientBoxstyles__Price>
            </gradientBoxstyles__Row>
            <gradientBoxstyles__Row>
              <gradientBoxstyles__Copy>
                <FormattedMessage
                  defaultMessage="Delivery charge:"
                  id="gradientBox.delivery"
                  values={Object {}}
                />
              </gradientBoxstyles__Copy>
              <gradientBoxstyles__Price>
                <FormattedMessage
                  defaultMessage="£{ price }"
                  id="gradientBox.currency"
                  values={
                    Object {
                      "price": 546,
                    }
                  }
                />
              </gradientBoxstyles__Price>
            </gradientBoxstyles__Row>
            <gradientBoxstyles__Border />
            <gradientBoxstyles__Row>
              <gradientBoxstyles__Copy>
                <FormattedMessage
                  defaultMessage="Total ex.VAT:"
                  id="gradientBox.vat"
                  values={Object {}}
                />
              </gradientBoxstyles__Copy>
              <gradientBoxstyles__Price>
                <FormattedMessage
                  defaultMessage="£{ price }"
                  id="gradientBox.currency"
                  values={
                    Object {
                      "price": "832.00",
                    }
                  }
                />
              </gradientBoxstyles__Price>
            </gradientBoxstyles__Row>
            <gradientBoxstyles__Row>
              <gradientBoxstyles__Copy>
                <FormattedMessage
                  defaultMessage="VAT 20%:"
                  id="gradientBox.totalVat"
                  values={Object {}}
                />
              </gradientBoxstyles__Copy>
              <gradientBoxstyles__Price>
                <FormattedMessage
                  defaultMessage="£{ price }"
                  id="gradientBox.currency"
                  values={
                    Object {
                      "price": "30232.00",
                    }
                  }
                />
              </gradientBoxstyles__Price>
            </gradientBoxstyles__Row>
          </gradientBoxstyles__WhiteBox>
          <gradientBoxstyles__Row
            white={true}
          >
            <gradientBoxstyles__Copy
              white={true}
            >
              <FormattedMessage
                defaultMessage="Total cost:"
                id="gradientBox.total"
                values={Object {}}
              />
            </gradientBoxstyles__Copy>
            <gradientBoxstyles__Price
              white={true}
            >
              <FormattedMessage
                defaultMessage="£{ price }"
                id="gradientBox.currency"
                values={
                  Object {
                    "price": "30778.00",
                  }
                }
              />
            </gradientBoxstyles__Price>
          </gradientBoxstyles__Row>
        </gradientBoxstyles__BackgroundWrapper>,
      },
      "ref": null,
      "rendered": Object {
        "instance": null,
        "key": undefined,
        "nodeType": "class",
        "props": Object {
          "children": Array [
            <gradientBoxstyles__WhiteBox>
              <gradientBoxstyles__Title>
                <FormattedMessage
                  defaultMessage="ORDER SUMMARY"
                  id="gradientBox.titleOrder"
                  values={Object {}}
                />
              </gradientBoxstyles__Title>
              <gradientBoxstyles__Row>
                <gradientBoxstyles__Copy>
                  <FormattedMessage
                    defaultMessage="Subtotal before delivery:"
                    id="gradientBox.subtotal"
                    values={Object {}}
                  />
                </gradientBoxstyles__Copy>
                <gradientBoxstyles__Price>
                  <FormattedMessage
                    defaultMessage="£{ price }"
                    id="gradientBox.currency"
                    values={
                      Object {
                        "price": "29400.00",
                      }
                    }
                  />
                </gradientBoxstyles__Price>
              </gradientBoxstyles__Row>
              <gradientBoxstyles__Row>
                <gradientBoxstyles__Copy>
                  <FormattedMessage
                    defaultMessage="Delivery charge:"
                    id="gradientBox.delivery"
                    values={Object {}}
                  />
                </gradientBoxstyles__Copy>
                <gradientBoxstyles__Price>
                  <FormattedMessage
                    defaultMessage="£{ price }"
                    id="gradientBox.currency"
                    values={
                      Object {
                        "price": 546,
                      }
                    }
                  />
                </gradientBoxstyles__Price>
              </gradientBoxstyles__Row>
              <gradientBoxstyles__Border />
              <gradientBoxstyles__Row>
                <gradientBoxstyles__Copy>
                  <FormattedMessage
                    defaultMessage="Total ex.VAT:"
                    id="gradientBox.vat"
                    values={Object {}}
                  />
                </gradientBoxstyles__Copy>
                <gradientBoxstyles__Price>
                  <FormattedMessage
                    defaultMessage="£{ price }"
                    id="gradientBox.currency"
                    values={
                      Object {
                        "price": "832.00",
                      }
                    }
                  />
                </gradientBoxstyles__Price>
              </gradientBoxstyles__Row>
              <gradientBoxstyles__Row>
                <gradientBoxstyles__Copy>
                  <FormattedMessage
                    defaultMessage="VAT 20%:"
                    id="gradientBox.totalVat"
                    values={Object {}}
                  />
                </gradientBoxstyles__Copy>
                <gradientBoxstyles__Price>
                  <FormattedMessage
                    defaultMessage="£{ price }"
                    id="gradientBox.currency"
                    values={
                      Object {
                        "price": "30232.00",
                      }
                    }
                  />
                </gradientBoxstyles__Price>
              </gradientBoxstyles__Row>
            </gradientBoxstyles__WhiteBox>,
            <gradientBoxstyles__Row
              white={true}
            >
              <gradientBoxstyles__Copy
                white={true}
              >
                <FormattedMessage
                  defaultMessage="Total cost:"
                  id="gradientBox.total"
                  values={Object {}}
                />
              </gradientBoxstyles__Copy>
              <gradientBoxstyles__Price
                white={true}
              >
                <FormattedMessage
                  defaultMessage="£{ price }"
                  id="gradientBox.currency"
                  values={
                    Object {
                      "price": "30778.00",
                    }
                  }
                />
              </gradientBoxstyles__Price>
            </gradientBoxstyles__Row>,
          ],
        },
        "ref": null,
        "rendered": Array [
          Object {
            "instance": null,
            "key": undefined,
            "nodeType": "class",
            "props": Object {
              "children": Array [
                <gradientBoxstyles__Title>
                  <FormattedMessage
                    defaultMessage="ORDER SUMMARY"
                    id="gradientBox.titleOrder"
                    values={Object {}}
                  />
                </gradientBoxstyles__Title>,
                <gradientBoxstyles__Row>
                  <gradientBoxstyles__Copy>
                    <FormattedMessage
                      defaultMessage="Subtotal before delivery:"
                      id="gradientBox.subtotal"
                      values={Object {}}
                    />
                  </gradientBoxstyles__Copy>
                  <gradientBoxstyles__Price>
                    <FormattedMessage
                      defaultMessage="£{ price }"
                      id="gradientBox.currency"
                      values={
                        Object {
                          "price": "29400.00",
                        }
                      }
                    />
                  </gradientBoxstyles__Price>
                </gradientBoxstyles__Row>,
                <gradientBoxstyles__Row>
                  <gradientBoxstyles__Copy>
                    <FormattedMessage
                      defaultMessage="Delivery charge:"
                      id="gradientBox.delivery"
                      values={Object {}}
                    />
                  </gradientBoxstyles__Copy>
                  <gradientBoxstyles__Price>
                    <FormattedMessage
                      defaultMessage="£{ price }"
                      id="gradientBox.currency"
                      values={
                        Object {
                          "price": 546,
                        }
                      }
                    />
                  </gradientBoxstyles__Price>
                </gradientBoxstyles__Row>,
                <gradientBoxstyles__Border />,
                <gradientBoxstyles__Row>
                  <gradientBoxstyles__Copy>
                    <FormattedMessage
                      defaultMessage="Total ex.VAT:"
                      id="gradientBox.vat"
                      values={Object {}}
                    />
                  </gradientBoxstyles__Copy>
                  <gradientBoxstyles__Price>
                    <FormattedMessage
                      defaultMessage="£{ price }"
                      id="gradientBox.currency"
                      values={
                        Object {
                          "price": "832.00",
                        }
                      }
                    />
                  </gradientBoxstyles__Price>
                </gradientBoxstyles__Row>,
                <gradientBoxstyles__Row>
                  <gradientBoxstyles__Copy>
                    <FormattedMessage
                      defaultMessage="VAT 20%:"
                      id="gradientBox.totalVat"
                      values={Object {}}
                    />
                  </gradientBoxstyles__Copy>
                  <gradientBoxstyles__Price>
                    <FormattedMessage
                      defaultMessage="£{ price }"
                      id="gradientBox.currency"
                      values={
                        Object {
                          "price": "30232.00",
                        }
                      }
                    />
                  </gradientBoxstyles__Price>
                </gradientBoxstyles__Row>,
              ],
            },
            "ref": null,
            "rendered": Array [
              Object {
                "instance": null,
                "key": undefined,
                "nodeType": "class",
                "props": Object {
                  "children": <FormattedMessage
                    defaultMessage="ORDER SUMMARY"
                    id="gradientBox.titleOrder"
                    values={Object {}}
                  />,
                },
                "ref": null,
                "rendered": Object {
                  "instance": null,
                  "key": undefined,
                  "nodeType": "class",
                  "props": Object {
                    "defaultMessage": "ORDER SUMMARY",
                    "id": "gradientBox.titleOrder",
                    "values": Object {},
                  },
                  "ref": null,
                  "rendered": null,
                  "type": [Function],
                },
                "type": [Function],
              },
              Object {
                "instance": null,
                "key": undefined,
                "nodeType": "class",
                "props": Object {
                  "children": Array [
                    <gradientBoxstyles__Copy>
                      <FormattedMessage
                        defaultMessage="Subtotal before delivery:"
                        id="gradientBox.subtotal"
                        values={Object {}}
                      />
                    </gradientBoxstyles__Copy>,
                    <gradientBoxstyles__Price>
                      <FormattedMessage
                        defaultMessage="£{ price }"
                        id="gradientBox.currency"
                        values={
                          Object {
                            "price": "29400.00",
                          }
                        }
                      />
                    </gradientBoxstyles__Price>,
                  ],
                },
                "ref": null,
                "rendered": Array [
                  Object {
                    "instance": null,
                    "key": undefined,
                    "nodeType": "class",
                    "props": Object {
                      "children": <FormattedMessage
                        defaultMessage="Subtotal before delivery:"
                        id="gradientBox.subtotal"
                        values={Object {}}
                      />,
                    },
                    "ref": null,
                    "rendered": Object {
                      "instance": null,
                      "key": undefined,
                      "nodeType": "class",
                      "props": Object {
                        "defaultMessage": "Subtotal before delivery:",
                        "id": "gradientBox.subtotal",
                        "values": Object {},
                      },
                      "ref": null,
                      "rendered": null,
                      "type": [Function],
                    },
                    "type": [Function],
                  },
                  Object {
                    "instance": null,
                    "key": undefined,
                    "nodeType": "class",
                    "props": Object {
                      "children": <FormattedMessage
                        defaultMessage="£{ price }"
                        id="gradientBox.currency"
                        values={
                          Object {
                            "price": "29400.00",
                          }
                        }
                      />,
                    },
                    "ref": null,
                    "rendered": Object {
                      "instance": null,
                      "key": undefined,
                      "nodeType": "class",
                      "props": Object {
                        "defaultMessage": "£{ price }",
                        "id": "gradientBox.currency",
                        "values": Object {
                          "price": "29400.00",
                        },
                      },
                      "ref": null,
                      "rendered": null,
                      "type": [Function],
                    },
                    "type": [Function],
                  },
                ],
                "type": [Function],
              },
              Object {
                "instance": null,
                "key": undefined,
                "nodeType": "class",
                "props": Object {
                  "children": Array [
                    <gradientBoxstyles__Copy>
                      <FormattedMessage
                        defaultMessage="Delivery charge:"
                        id="gradientBox.delivery"
                        values={Object {}}
                      />
                    </gradientBoxstyles__Copy>,
                    <gradientBoxstyles__Price>
                      <FormattedMessage
                        defaultMessage="£{ price }"
                        id="gradientBox.currency"
                        values={
                          Object {
                            "price": 546,
                          }
                        }
                      />
                    </gradientBoxstyles__Price>,
                  ],
                },
                "ref": null,
                "rendered": Array [
                  Object {
                    "instance": null,
                    "key": undefined,
                    "nodeType": "class",
                    "props": Object {
                      "children": <FormattedMessage
                        defaultMessage="Delivery charge:"
                        id="gradientBox.delivery"
                        values={Object {}}
                      />,
                    },
                    "ref": null,
                    "rendered": Object {
                      "instance": null,
                      "key": undefined,
                      "nodeType": "class",
                      "props": Object {
                        "defaultMessage": "Delivery charge:",
                        "id": "gradientBox.delivery",
                        "values": Object {},
                      },
                      "ref": null,
                      "rendered": null,
                      "type": [Function],
                    },
                    "type": [Function],
                  },
                  Object {
                    "instance": null,
                    "key": undefined,
                    "nodeType": "class",
                    "props": Object {
                      "children": <FormattedMessage
                        defaultMessage="£{ price }"
                        id="gradientBox.currency"
                        values={
                          Object {
                            "price": 546,
                          }
                        }
                      />,
                    },
                    "ref": null,
                    "rendered": Object {
                      "instance": null,
                      "key": undefined,
                      "nodeType": "class",
                      "props": Object {
                        "defaultMessage": "£{ price }",
                        "id": "gradientBox.currency",
                        "values": Object {
                          "price": 546,
                        },
                      },
                      "ref": null,
                      "rendered": null,
                      "type": [Function],
                    },
                    "type": [Function],
                  },
                ],
                "type": [Function],
              },
              Object {
                "instance": null,
                "key": undefined,
                "nodeType": "class",
                "props": Object {},
                "ref": null,
                "rendered": null,
                "type": [Function],
              },
              Object {
                "instance": null,
                "key": undefined,
                "nodeType": "class",
                "props": Object {
                  "children": Array [
                    <gradientBoxstyles__Copy>
                      <FormattedMessage
                        defaultMessage="Total ex.VAT:"
                        id="gradientBox.vat"
                        values={Object {}}
                      />
                    </gradientBoxstyles__Copy>,
                    <gradientBoxstyles__Price>
                      <FormattedMessage
                        defaultMessage="£{ price }"
                        id="gradientBox.currency"
                        values={
                          Object {
                            "price": "832.00",
                          }
                        }
                      />
                    </gradientBoxstyles__Price>,
                  ],
                },
                "ref": null,
                "rendered": Array [
                  Object {
                    "instance": null,
                    "key": undefined,
                    "nodeType": "class",
                    "props": Object {
                      "children": <FormattedMessage
                        defaultMessage="Total ex.VAT:"
                        id="gradientBox.vat"
                        values={Object {}}
                      />,
                    },
                    "ref": null,
                    "rendered": Object {
                      "instance": null,
                      "key": undefined,
                      "nodeType": "class",
                      "props": Object {
                        "defaultMessage": "Total ex.VAT:",
                        "id": "gradientBox.vat",
                        "values": Object {},
                      },
                      "ref": null,
                      "rendered": null,
                      "type": [Function],
                    },
                    "type": [Function],
                  },
                  Object {
                    "instance": null,
                    "key": undefined,
                    "nodeType": "class",
                    "props": Object {
                      "children": <FormattedMessage
                        defaultMessage="£{ price }"
                        id="gradientBox.currency"
                        values={
                          Object {
                            "price": "832.00",
                          }
                        }
                      />,
                    },
                    "ref": null,
                    "rendered": Object {
                      "instance": null,
                      "key": undefined,
                      "nodeType": "class",
                      "props": Object {
                        "defaultMessage": "£{ price }",
                        "id": "gradientBox.currency",
                        "values": Object {
                          "price": "832.00",
                        },
                      },
                      "ref": null,
                      "rendered": null,
                      "type": [Function],
                    },
                    "type": [Function],
                  },
                ],
                "type": [Function],
              },
              Object {
                "instance": null,
                "key": undefined,
                "nodeType": "class",
                "props": Object {
                  "children": Array [
                    <gradientBoxstyles__Copy>
                      <FormattedMessage
                        defaultMessage="VAT 20%:"
                        id="gradientBox.totalVat"
                        values={Object {}}
                      />
                    </gradientBoxstyles__Copy>,
                    <gradientBoxstyles__Price>
                      <FormattedMessage
                        defaultMessage="£{ price }"
                        id="gradientBox.currency"
                        values={
                          Object {
                            "price": "30232.00",
                          }
                        }
                      />
                    </gradientBoxstyles__Price>,
                  ],
                },
                "ref": null,
                "rendered": Array [
                  Object {
                    "instance": null,
                    "key": undefined,
                    "nodeType": "class",
                    "props": Object {
                      "children": <FormattedMessage
                        defaultMessage="VAT 20%:"
                        id="gradientBox.totalVat"
                        values={Object {}}
                      />,
                    },
                    "ref": null,
                    "rendered": Object {
                      "instance": null,
                      "key": undefined,
                      "nodeType": "class",
                      "props": Object {
                        "defaultMessage": "VAT 20%:",
                        "id": "gradientBox.totalVat",
                        "values": Object {},
                      },
                      "ref": null,
                      "rendered": null,
                      "type": [Function],
                    },
                    "type": [Function],
                  },
                  Object {
                    "instance": null,
                    "key": undefined,
                    "nodeType": "class",
                    "props": Object {
                      "children": <FormattedMessage
                        defaultMessage="£{ price }"
                        id="gradientBox.currency"
                        values={
                          Object {
                            "price": "30232.00",
                          }
                        }
                      />,
                    },
                    "ref": null,
                    "rendered": Object {
                      "instance": null,
                      "key": undefined,
                      "nodeType": "class",
                      "props": Object {
                        "defaultMessage": "£{ price }",
                        "id": "gradientBox.currency",
                        "values": Object {
                          "price": "30232.00",
                        },
                      },
                      "ref": null,
                      "rendered": null,
                      "type": [Function],
                    },
                    "type": [Function],
                  },
                ],
                "type": [Function],
              },
            ],
            "type": [Function],
          },
          Object {
            "instance": null,
            "key": undefined,
            "nodeType": "class",
            "props": Object {
              "children": Array [
                <gradientBoxstyles__Copy
                  white={true}
                >
                  <FormattedMessage
                    defaultMessage="Total cost:"
                    id="gradientBox.total"
                    values={Object {}}
                  />
                </gradientBoxstyles__Copy>,
                <gradientBoxstyles__Price
                  white={true}
                >
                  <FormattedMessage
                    defaultMessage="£{ price }"
                    id="gradientBox.currency"
                    values={
                      Object {
                        "price": "30778.00",
                      }
                    }
                  />
                </gradientBoxstyles__Price>,
              ],
              "white": true,
            },
            "ref": null,
            "rendered": Array [
              Object {
                "instance": null,
                "key": undefined,
                "nodeType": "class",
                "props": Object {
                  "children": <FormattedMessage
                    defaultMessage="Total cost:"
                    id="gradientBox.total"
                    values={Object {}}
                  />,
                  "white": true,
                },
                "ref": null,
                "rendered": Object {
                  "instance": null,
                  "key": undefined,
                  "nodeType": "class",
                  "props": Object {
                    "defaultMessage": "Total cost:",
                    "id": "gradientBox.total",
                    "values": Object {},
                  },
                  "ref": null,
                  "rendered": null,
                  "type": [Function],
                },
                "type": [Function],
              },
              Object {
                "instance": null,
                "key": undefined,
                "nodeType": "class",
                "props": Object {
                  "children": <FormattedMessage
                    defaultMessage="£{ price }"
                    id="gradientBox.currency"
                    values={
                      Object {
                        "price": "30778.00",
                      }
                    }
                  />,
                  "white": true,
                },
                "ref": null,
                "rendered": Object {
                  "instance": null,
                  "key": undefined,
                  "nodeType": "class",
                  "props": Object {
                    "defaultMessage": "£{ price }",
                    "id": "gradientBox.currency",
                    "values": Object {
                      "price": "30778.00",
                    },
                  },
                  "ref": null,
                  "rendered": null,
                  "type": [Function],
                },
                "type": [Function],
              },
            ],
            "type": [Function],
          },
        ],
        "type": [Function],
      },
      "type": [Function],
    },
  ],
  Symbol(enzyme.__options__): Object {
    "adapter": ReactSixteenAdapter {
      "options": Object {
        "enableComponentDidUpdateOnSetState": true,
      },
    },
  },
}
`;
