// Jest Snapshot v1, https://goo.gl/fbAQLP

exports[`<BestSellers /> should render correctly 1`] = `
ShallowWrapper {
  "length": 1,
  Symbol(enzyme.__root__): [Circular],
  Symbol(enzyme.__unrendered__): <BestSellersComponent
    addItem={[Function]}
    addProjectItem={[Function]}
    intl={
      Object {
        "formatHTMLMessage": [Function],
        "formatMessage": [Function],
      }
    }
    items={Immutable.Map {}}
    keys={Immutable.List []}
  />,
  Symbol(enzyme.__renderer__): Object {
    "batchedUpdates": [Function],
    "getNode": [Function],
    "render": [Function],
    "simulateEvent": [Function],
    "unmount": [Function],
  },
  Symbol(enzyme.__node__): Object {
    "instance": null,
    "key": undefined,
    "nodeType": "class",
    "props": Object {
      "children": Array [
        <WindowScroll
          header={false}
          onScroll={[Function]}
          throttle={true}
        />,
        <column__Column
          columns={11}
          mobileColumns={5}
          mobileOffset={1}
          offset={3}
        >
          <bestSellersstyles__Title>
            <FormattedMessage
              defaultMessage="SHOP OUR LATEST"
              id="bestSellers.title"
              values={Object {}}
            />
          </bestSellersstyles__Title>
        </column__Column>,
        <bestSellersstyles__MasonryGridWrapper>
          <MasonryGrid
            columns={2}
            containsElementsWithoutImages={false}
            ignoreFirstItem={true}
            isShifted={true}
            nrOfNonImageElements={0}
            scroll={false}
          >
            <bestSellersstyles__InfoBox>
              <bestSellersstyles__Description>
                <FormattedMessage
                  defaultMessage="Discover design led furniture, keep on top of our latest deals and whats on trend."
                  id="bestSellers.description"
                  values={Object {}}
                />
              </bestSellersstyles__Description>
              <components__ActionLink
                extraStyles={
                  Array [
                    "max-width:225px;",
                  ]
                }
                to="/products/all"
              >
                <FormattedMessage
                  defaultMessage="See all products"
                  id="bestSellers.cta"
                  values={Object {}}
                />
                <components__Arrow />
              </components__ActionLink>
            </bestSellersstyles__InfoBox>
          </MasonryGrid>
        </bestSellersstyles__MasonryGridWrapper>,
      ],
    },
    "ref": null,
    "rendered": Array [
      Object {
        "instance": null,
        "key": undefined,
        "nodeType": "class",
        "props": Object {
          "header": false,
          "onScroll": [Function],
          "throttle": true,
        },
        "ref": null,
        "rendered": null,
        "type": [Function],
      },
      Object {
        "instance": null,
        "key": undefined,
        "nodeType": "class",
        "props": Object {
          "children": <bestSellersstyles__Title>
            <FormattedMessage
              defaultMessage="SHOP OUR LATEST"
              id="bestSellers.title"
              values={Object {}}
            />
          </bestSellersstyles__Title>,
          "columns": 11,
          "mobileColumns": 5,
          "mobileOffset": 1,
          "offset": 3,
        },
        "ref": null,
        "rendered": Object {
          "instance": null,
          "key": undefined,
          "nodeType": "class",
          "props": Object {
            "children": <FormattedMessage
              defaultMessage="SHOP OUR LATEST"
              id="bestSellers.title"
              values={Object {}}
            />,
          },
          "ref": null,
          "rendered": Object {
            "instance": null,
            "key": undefined,
            "nodeType": "class",
            "props": Object {
              "defaultMessage": "SHOP OUR LATEST",
              "id": "bestSellers.title",
              "values": Object {},
            },
            "ref": null,
            "rendered": null,
            "type": [Function],
          },
          "type": [Function],
        },
        "type": [Function],
      },
      Object {
        "instance": null,
        "key": undefined,
        "nodeType": "class",
        "props": Object {
          "children": <MasonryGrid
            columns={2}
            containsElementsWithoutImages={false}
            ignoreFirstItem={true}
            isShifted={true}
            nrOfNonImageElements={0}
            scroll={false}
          >
            <bestSellersstyles__InfoBox>
              <bestSellersstyles__Description>
                <FormattedMessage
                  defaultMessage="Discover design led furniture, keep on top of our latest deals and whats on trend."
                  id="bestSellers.description"
                  values={Object {}}
                />
              </bestSellersstyles__Description>
              <components__ActionLink
                extraStyles={
                  Array [
                    "max-width:225px;",
                  ]
                }
                to="/products/all"
              >
                <FormattedMessage
                  defaultMessage="See all products"
                  id="bestSellers.cta"
                  values={Object {}}
                />
                <components__Arrow />
              </components__ActionLink>
            </bestSellersstyles__InfoBox>
          </MasonryGrid>,
        },
        "ref": null,
        "rendered": Object {
          "instance": null,
          "key": undefined,
          "nodeType": "class",
          "props": Object {
            "children": Array [
              <bestSellersstyles__InfoBox>
                <bestSellersstyles__Description>
                  <FormattedMessage
                    defaultMessage="Discover design led furniture, keep on top of our latest deals and whats on trend."
                    id="bestSellers.description"
                    values={Object {}}
                  />
                </bestSellersstyles__Description>
                <components__ActionLink
                  extraStyles={
                    Array [
                      "max-width:225px;",
                    ]
                  }
                  to="/products/all"
                >
                  <FormattedMessage
                    defaultMessage="See all products"
                    id="bestSellers.cta"
                    values={Object {}}
                  />
                  <components__Arrow />
                </components__ActionLink>
              </bestSellersstyles__InfoBox>,
              Array [],
            ],
            "columns": 2,
            "containsElementsWithoutImages": false,
            "ignoreFirstItem": true,
            "isShifted": true,
            "nrOfNonImageElements": 0,
            "scroll": false,
          },
          "ref": null,
          "rendered": Array [
            Object {
              "instance": null,
              "key": undefined,
              "nodeType": "class",
              "props": Object {
                "children": Array [
                  <bestSellersstyles__Description>
                    <FormattedMessage
                      defaultMessage="Discover design led furniture, keep on top of our latest deals and whats on trend."
                      id="bestSellers.description"
                      values={Object {}}
                    />
                  </bestSellersstyles__Description>,
                  <components__ActionLink
                    extraStyles={
                      Array [
                        "max-width:225px;",
                      ]
                    }
                    to="/products/all"
                  >
                    <FormattedMessage
                      defaultMessage="See all products"
                      id="bestSellers.cta"
                      values={Object {}}
                    />
                    <components__Arrow />
                  </components__ActionLink>,
                ],
              },
              "ref": null,
              "rendered": Array [
                Object {
                  "instance": null,
                  "key": undefined,
                  "nodeType": "class",
                  "props": Object {
                    "children": <FormattedMessage
                      defaultMessage="Discover design led furniture, keep on top of our latest deals and whats on trend."
                      id="bestSellers.description"
                      values={Object {}}
                    />,
                  },
                  "ref": null,
                  "rendered": Object {
                    "instance": null,
                    "key": undefined,
                    "nodeType": "class",
                    "props": Object {
                      "defaultMessage": "Discover design led furniture, keep on top of our latest deals and whats on trend.",
                      "id": "bestSellers.description",
                      "values": Object {},
                    },
                    "ref": null,
                    "rendered": null,
                    "type": [Function],
                  },
                  "type": [Function],
                },
                Object {
                  "instance": null,
                  "key": undefined,
                  "nodeType": "class",
                  "props": Object {
                    "children": Array [
                      <FormattedMessage
                        defaultMessage="See all products"
                        id="bestSellers.cta"
                        values={Object {}}
                      />,
                      <components__Arrow />,
                    ],
                    "extraStyles": Array [
                      "max-width:225px;",
                    ],
                    "to": "/products/all",
                  },
                  "ref": null,
                  "rendered": Array [
                    Object {
                      "instance": null,
                      "key": undefined,
                      "nodeType": "class",
                      "props": Object {
                        "defaultMessage": "See all products",
                        "id": "bestSellers.cta",
                        "values": Object {},
                      },
                      "ref": null,
                      "rendered": null,
                      "type": [Function],
                    },
                    Object {
                      "instance": null,
                      "key": undefined,
                      "nodeType": "class",
                      "props": Object {},
                      "ref": null,
                      "rendered": null,
                      "type": [Function],
                    },
                  ],
                  "type": [Function],
                },
              ],
              "type": [Function],
            },
          ],
          "type": [Function],
        },
        "type": [Function],
      },
    ],
    "type": [Function],
  },
  Symbol(enzyme.__nodes__): Array [
    Object {
      "instance": null,
      "key": undefined,
      "nodeType": "class",
      "props": Object {
        "children": Array [
          <WindowScroll
            header={false}
            onScroll={[Function]}
            throttle={true}
          />,
          <column__Column
            columns={11}
            mobileColumns={5}
            mobileOffset={1}
            offset={3}
          >
            <bestSellersstyles__Title>
              <FormattedMessage
                defaultMessage="SHOP OUR LATEST"
                id="bestSellers.title"
                values={Object {}}
              />
            </bestSellersstyles__Title>
          </column__Column>,
          <bestSellersstyles__MasonryGridWrapper>
            <MasonryGrid
              columns={2}
              containsElementsWithoutImages={false}
              ignoreFirstItem={true}
              isShifted={true}
              nrOfNonImageElements={0}
              scroll={false}
            >
              <bestSellersstyles__InfoBox>
                <bestSellersstyles__Description>
                  <FormattedMessage
                    defaultMessage="Discover design led furniture, keep on top of our latest deals and whats on trend."
                    id="bestSellers.description"
                    values={Object {}}
                  />
                </bestSellersstyles__Description>
                <components__ActionLink
                  extraStyles={
                    Array [
                      "max-width:225px;",
                    ]
                  }
                  to="/products/all"
                >
                  <FormattedMessage
                    defaultMessage="See all products"
                    id="bestSellers.cta"
                    values={Object {}}
                  />
                  <components__Arrow />
                </components__ActionLink>
              </bestSellersstyles__InfoBox>
            </MasonryGrid>
          </bestSellersstyles__MasonryGridWrapper>,
        ],
      },
      "ref": null,
      "rendered": Array [
        Object {
          "instance": null,
          "key": undefined,
          "nodeType": "class",
          "props": Object {
            "header": false,
            "onScroll": [Function],
            "throttle": true,
          },
          "ref": null,
          "rendered": null,
          "type": [Function],
        },
        Object {
          "instance": null,
          "key": undefined,
          "nodeType": "class",
          "props": Object {
            "children": <bestSellersstyles__Title>
              <FormattedMessage
                defaultMessage="SHOP OUR LATEST"
                id="bestSellers.title"
                values={Object {}}
              />
            </bestSellersstyles__Title>,
            "columns": 11,
            "mobileColumns": 5,
            "mobileOffset": 1,
            "offset": 3,
          },
          "ref": null,
          "rendered": Object {
            "instance": null,
            "key": undefined,
            "nodeType": "class",
            "props": Object {
              "children": <FormattedMessage
                defaultMessage="SHOP OUR LATEST"
                id="bestSellers.title"
                values={Object {}}
              />,
            },
            "ref": null,
            "rendered": Object {
              "instance": null,
              "key": undefined,
              "nodeType": "class",
              "props": Object {
                "defaultMessage": "SHOP OUR LATEST",
                "id": "bestSellers.title",
                "values": Object {},
              },
              "ref": null,
              "rendered": null,
              "type": [Function],
            },
            "type": [Function],
          },
          "type": [Function],
        },
        Object {
          "instance": null,
          "key": undefined,
          "nodeType": "class",
          "props": Object {
            "children": <MasonryGrid
              columns={2}
              containsElementsWithoutImages={false}
              ignoreFirstItem={true}
              isShifted={true}
              nrOfNonImageElements={0}
              scroll={false}
            >
              <bestSellersstyles__InfoBox>
                <bestSellersstyles__Description>
                  <FormattedMessage
                    defaultMessage="Discover design led furniture, keep on top of our latest deals and whats on trend."
                    id="bestSellers.description"
                    values={Object {}}
                  />
                </bestSellersstyles__Description>
                <components__ActionLink
                  extraStyles={
                    Array [
                      "max-width:225px;",
                    ]
                  }
                  to="/products/all"
                >
                  <FormattedMessage
                    defaultMessage="See all products"
                    id="bestSellers.cta"
                    values={Object {}}
                  />
                  <components__Arrow />
                </components__ActionLink>
              </bestSellersstyles__InfoBox>
            </MasonryGrid>,
          },
          "ref": null,
          "rendered": Object {
            "instance": null,
            "key": undefined,
            "nodeType": "class",
            "props": Object {
              "children": Array [
                <bestSellersstyles__InfoBox>
                  <bestSellersstyles__Description>
                    <FormattedMessage
                      defaultMessage="Discover design led furniture, keep on top of our latest deals and whats on trend."
                      id="bestSellers.description"
                      values={Object {}}
                    />
                  </bestSellersstyles__Description>
                  <components__ActionLink
                    extraStyles={
                      Array [
                        "max-width:225px;",
                      ]
                    }
                    to="/products/all"
                  >
                    <FormattedMessage
                      defaultMessage="See all products"
                      id="bestSellers.cta"
                      values={Object {}}
                    />
                    <components__Arrow />
                  </components__ActionLink>
                </bestSellersstyles__InfoBox>,
                Array [],
              ],
              "columns": 2,
              "containsElementsWithoutImages": false,
              "ignoreFirstItem": true,
              "isShifted": true,
              "nrOfNonImageElements": 0,
              "scroll": false,
            },
            "ref": null,
            "rendered": Array [
              Object {
                "instance": null,
                "key": undefined,
                "nodeType": "class",
                "props": Object {
                  "children": Array [
                    <bestSellersstyles__Description>
                      <FormattedMessage
                        defaultMessage="Discover design led furniture, keep on top of our latest deals and whats on trend."
                        id="bestSellers.description"
                        values={Object {}}
                      />
                    </bestSellersstyles__Description>,
                    <components__ActionLink
                      extraStyles={
                        Array [
                          "max-width:225px;",
                        ]
                      }
                      to="/products/all"
                    >
                      <FormattedMessage
                        defaultMessage="See all products"
                        id="bestSellers.cta"
                        values={Object {}}
                      />
                      <components__Arrow />
                    </components__ActionLink>,
                  ],
                },
                "ref": null,
                "rendered": Array [
                  Object {
                    "instance": null,
                    "key": undefined,
                    "nodeType": "class",
                    "props": Object {
                      "children": <FormattedMessage
                        defaultMessage="Discover design led furniture, keep on top of our latest deals and whats on trend."
                        id="bestSellers.description"
                        values={Object {}}
                      />,
                    },
                    "ref": null,
                    "rendered": Object {
                      "instance": null,
                      "key": undefined,
                      "nodeType": "class",
                      "props": Object {
                        "defaultMessage": "Discover design led furniture, keep on top of our latest deals and whats on trend.",
                        "id": "bestSellers.description",
                        "values": Object {},
                      },
                      "ref": null,
                      "rendered": null,
                      "type": [Function],
                    },
                    "type": [Function],
                  },
                  Object {
                    "instance": null,
                    "key": undefined,
                    "nodeType": "class",
                    "props": Object {
                      "children": Array [
                        <FormattedMessage
                          defaultMessage="See all products"
                          id="bestSellers.cta"
                          values={Object {}}
                        />,
                        <components__Arrow />,
                      ],
                      "extraStyles": Array [
                        "max-width:225px;",
                      ],
                      "to": "/products/all",
                    },
                    "ref": null,
                    "rendered": Array [
                      Object {
                        "instance": null,
                        "key": undefined,
                        "nodeType": "class",
                        "props": Object {
                          "defaultMessage": "See all products",
                          "id": "bestSellers.cta",
                          "values": Object {},
                        },
                        "ref": null,
                        "rendered": null,
                        "type": [Function],
                      },
                      Object {
                        "instance": null,
                        "key": undefined,
                        "nodeType": "class",
                        "props": Object {},
                        "ref": null,
                        "rendered": null,
                        "type": [Function],
                      },
                    ],
                    "type": [Function],
                  },
                ],
                "type": [Function],
              },
            ],
            "type": [Function],
          },
          "type": [Function],
        },
      ],
      "type": [Function],
    },
  ],
  Symbol(enzyme.__options__): Object {
    "adapter": ReactSixteenAdapter {
      "options": Object {
        "enableComponentDidUpdateOnSetState": true,
      },
    },
  },
}
`;
