// Jest Snapshot v1, https://goo.gl/fbAQLP

exports[`<SpaceSubtitle /> should render correctly 1`] = `
ShallowWrapper {
  "length": 1,
  Symbol(enzyme.__root__): [Circular],
  Symbol(enzyme.__unrendered__): <SpaceSubtitle
    number="03"
    title="Test"
  />,
  Symbol(enzyme.__renderer__): Object {
    "batchedUpdates": [Function],
    "getNode": [Function],
    "render": [Function],
    "simulateEvent": [Function],
    "unmount": [Function],
  },
  Symbol(enzyme.__node__): Object {
    "instance": null,
    "key": undefined,
    "nodeType": "class",
    "props": Object {
      "children": Array [
        <spaceSubtitlestyles__Number
          number="03"
        >
          03
        </spaceSubtitlestyles__Number>,
        <spaceSubtitlestyles__Title
          number="03"
        >
          Test
        </spaceSubtitlestyles__Title>,
      ],
      "number": "03",
    },
    "ref": null,
    "rendered": Array [
      Object {
        "instance": null,
        "key": undefined,
        "nodeType": "class",
        "props": Object {
          "children": "03",
          "number": "03",
        },
        "ref": null,
        "rendered": "03",
        "type": [Function],
      },
      Object {
        "instance": null,
        "key": undefined,
        "nodeType": "class",
        "props": Object {
          "children": "Test",
          "number": "03",
        },
        "ref": null,
        "rendered": "Test",
        "type": [Function],
      },
    ],
    "type": [Function],
  },
  Symbol(enzyme.__nodes__): Array [
    Object {
      "instance": null,
      "key": undefined,
      "nodeType": "class",
      "props": Object {
        "children": Array [
          <spaceSubtitlestyles__Number
            number="03"
          >
            03
          </spaceSubtitlestyles__Number>,
          <spaceSubtitlestyles__Title
            number="03"
          >
            Test
          </spaceSubtitlestyles__Title>,
        ],
        "number": "03",
      },
      "ref": null,
      "rendered": Array [
        Object {
          "instance": null,
          "key": undefined,
          "nodeType": "class",
          "props": Object {
            "children": "03",
            "number": "03",
          },
          "ref": null,
          "rendered": "03",
          "type": [Function],
        },
        Object {
          "instance": null,
          "key": undefined,
          "nodeType": "class",
          "props": Object {
            "children": "Test",
            "number": "03",
          },
          "ref": null,
          "rendered": "Test",
          "type": [Function],
        },
      ],
      "type": [Function],
    },
  ],
  Symbol(enzyme.__options__): Object {
    "adapter": ReactSixteenAdapter {
      "options": Object {
        "enableComponentDidUpdateOnSetState": true,
      },
    },
  },
}
`;
