// Jest Snapshot v1, https://goo.gl/fbAQLP

exports[`<MainSlider /> should render correctly 1`] = `
ShallowWrapper {
  "length": 1,
  Symbol(enzyme.__root__): [Circular],
  Symbol(enzyme.__unrendered__): <MainSlider
    inspire={false}
    noAutoPlay={false}
  >
    Immutable.Map {}
  </MainSlider>,
  Symbol(enzyme.__renderer__): Object {
    "batchedUpdates": [Function],
    "getNode": [Function],
    "render": [Function],
    "simulateEvent": [Function],
    "unmount": [Function],
  },
  Symbol(enzyme.__node__): Object {
    "instance": null,
    "key": undefined,
    "nodeType": "class",
    "props": Object {
      "children": <Slider
        arrows={false}
        autoplay={true}
        autoplaySpeed={6000}
        dots={true}
        infinite={true}
        pauseOnFocus={false}
        pauseOnHover={false}
        slidesToScroll={1}
        slidesToShow={1}
        speed={500}
      >
        Immutable.Map {}
      </Slider>,
      "inspire": false,
    },
    "ref": null,
    "rendered": Object {
      "instance": null,
      "key": undefined,
      "nodeType": "class",
      "props": Object {
        "arrows": false,
        "autoplay": true,
        "autoplaySpeed": 6000,
        "children": Immutable.Map {},
        "dots": true,
        "infinite": true,
        "pauseOnFocus": false,
        "pauseOnHover": false,
        "slidesToScroll": 1,
        "slidesToShow": 1,
        "speed": 500,
      },
      "ref": null,
      "rendered": Array [],
      "type": [Function],
    },
    "type": [Function],
  },
  Symbol(enzyme.__nodes__): Array [
    Object {
      "instance": null,
      "key": undefined,
      "nodeType": "class",
      "props": Object {
        "children": <Slider
          arrows={false}
          autoplay={true}
          autoplaySpeed={6000}
          dots={true}
          infinite={true}
          pauseOnFocus={false}
          pauseOnHover={false}
          slidesToScroll={1}
          slidesToShow={1}
          speed={500}
        >
          Immutable.Map {}
        </Slider>,
        "inspire": false,
      },
      "ref": null,
      "rendered": Object {
        "instance": null,
        "key": undefined,
        "nodeType": "class",
        "props": Object {
          "arrows": false,
          "autoplay": true,
          "autoplaySpeed": 6000,
          "children": Immutable.Map {},
          "dots": true,
          "infinite": true,
          "pauseOnFocus": false,
          "pauseOnHover": false,
          "slidesToScroll": 1,
          "slidesToShow": 1,
          "speed": 500,
        },
        "ref": null,
        "rendered": Array [],
        "type": [Function],
      },
      "type": [Function],
    },
  ],
  Symbol(enzyme.__options__): Object {
    "adapter": ReactSixteenAdapter {
      "options": Object {
        "enableComponentDidUpdateOnSetState": true,
      },
    },
  },
}
`;
